<?xml version="1.0" encoding="UTF-8" standalone="no"?>
<svg
   xmlns:dc="http://purl.org/dc/elements/1.1/"
   xmlns:cc="http://creativecommons.org/ns#"
   xmlns:rdf="http://www.w3.org/1999/02/22-rdf-syntax-ns#"
   xmlns:svg="http://www.w3.org/2000/svg"
   xmlns="http://www.w3.org/2000/svg"
   viewBox="0 0 440.01663 545"
   height="545"
   width="440.01663"
   id="svg1128"
   version="1.1">
  <metadata
     id="metadata1134">
    <rdf:RDF>
      <cc:Work
         rdf:about="">
        <dc:format>image/svg+xml</dc:format>
        <dc:type
           rdf:resource="http://purl.org/dc/dcmitype/StillImage" />
        <dc:title></dc:title>
      </cc:Work>
    </rdf:RDF>
  </metadata>
  <defs
     id="defs1132" />
  <path
     id="path1138"
     d="m 162.67236,544.32233 c -0.37272,-0.37271 -0.66253,-38.28521 -0.64402,-84.25 L 162.06194,376.5 81.289292,376 0.516647,375.5 0.258324,319.25588 0,263.01176 81.258324,262.75588 162.51665,262.5 l 0.26001,-46.28353 0.26001,-46.28353 -3.82831,-5.71647 c -3.55136,-5.30292 -8.0472,-11.92802 -29.66634,-43.71647 -4.48862,-6.6 -8.92981,-13.55516 -9.86932,-15.45591 l -1.7082,-3.45591 5.15701,-7.54409 c 7.90499,-11.564043 11.34694,-16.495893 11.89514,-17.044093 0.275,-0.275 0.95,-1.22382 1.5,-2.10848 1.86304,-2.99668 10.52289,-15.353775 16.04237,-22.891517 3.02051,-4.125 5.989,-8.474361 6.59664,-9.665246 0.60763,-1.190885 1.90393,-2.374225 2.88065,-2.629644 0.97673,-0.25542 11.15937,3.682027 22.6281,8.749881 35.79103,15.815497 37.30688,16.552552 38.76576,18.849026 0.9051,1.42475 -0.93333,15.300983 -2.32567,17.553833 -0.36692,0.5937 -3.12429,1.3405 -6.12749,1.65956 -3.0032,0.31906 -7.55017,1.04161 -10.10438,1.60567 -2.55421,0.56406 -7.05421,1.07648 -10,1.13872 -6.44633,0.13619 -11.32427,-2.57873 -17.75065,-9.879473 -3.08998,-3.51041 -4.44563,-4.44974 -5.0382,-3.49095 -0.97485,1.57734 0.091,6.40681 2.3964,10.858743 2.60885,5.03784 1.78084,6.66148 -3.7204,7.29534 -9.5199,1.0969 -8.67282,4.08391 2.25687,7.95834 6.8361,2.4233 14.52153,5.53037 16.92705,6.84327 1.24138,0.67753 9.07295,12.59057 9.07295,13.80137 0,0.2462 1.4997,2.79204 3.33267,5.65743 3.28226,5.13101 7.4791,12.31194 10.63342,18.19413 0.88481,1.65 2.3118,4.125 3.17109,5.5 6.6616,10.65963 12.86282,22.08829 12.86282,23.70578 0,2.06141 -3.01356,5.27785 -6.75,7.20444 -1.2375,0.63808 -2.25,1.84689 -2.25,2.68624 0,1.23817 0.83483,1.40089 4.42502,0.86251 2.43375,-0.36496 5.92125,-0.20783 7.75,0.34918 1.82874,0.55701 5.23748,1.28337 7.57498,1.61412 3.43916,0.48663 4.25,0.30404 4.25,-0.95705 0,-1.62857 -7.32606,-14.94805 -12.18054,-22.1454 -1.5507,-2.29909 -2.81946,-4.40041 -2.81946,-4.66959 0,-0.26918 -2.39386,-4.4631 -5.31968,-9.31982 -14.35649,-23.83106 -22.68032,-38.21921 -22.68032,-39.20406 0,-0.70575 1.66906,-0.90195 4.75,-0.55836 8.95347,0.99851 10.68198,1.47195 17.70968,4.85073 3.87218,1.86166 9.96532,4.74186 13.54032,6.40045 4.85596,2.25286 8.64432,5.18639 14.97792,11.59821 5.83493,5.90699 9.20603,8.58262 10.81346,8.58262 1.30848,0 6.75512,-3.18822 12.38565,-7.25 15.76844,-11.37513 18.01989,-12.88641 18.49293,-12.41337 0.49375,0.49374 -0.73068,8.93707 -3.10494,21.411 -3.74826,19.69259 -8.34634,31.86495 -16.1976,42.87936 l -4.36742,6.12699 V 228.87699 264 h 85 85 v 56 56 h -85 -85 v 84.5 84.5 h -53.33333 c -29.33334,0 -53.63829,-0.30495 -54.011,-0.67767 z m 93.41853,-412.50068 c -3.87651,-4.02691 -7.05405,-7.86515 -7.0612,-8.52943 -0.007,-0.66428 3.2495,-4.78865 7.237,-9.16526 3.9875,-4.37662 9.95,-10.98272 13.25,-14.68022 3.3,-3.69751 9.26702,-10.14814 13.26005,-14.33474 L 290.03679,77.499997 296.11419,84 c 5.68613,6.08153 12.9025,15.65853 12.9025,17.12319 0,0.35744 -3.2625,3.27907 -7.25,6.49251 -3.9875,3.21344 -9.95,8.15116 -13.25,10.97271 -4.82378,4.12441 -14.52014,11.98806 -24.18879,19.6169 -0.82847,0.65368 -3.32514,-1.28124 -8.23701,-6.38366 z m -16.0742,-12.54724 c -7.33085,-2.77448 -21.98811,-10.43728 -21.94235,-11.47144 0.0762,-1.72157 1.77651,-4.10806 19.44235,-27.288003 8.25,-10.82509 16.65932,-22.00691 18.68738,-24.848479 C 258.23213,52.82492 260.57508,50.5 261.41063,50.5 c 0.83554,0 6.48468,4.886205 12.55364,10.858234 l 11.03447,10.858233 -2.21244,3.14177 c -1.21684,1.72797 -3.61911,4.71676 -5.33838,6.64176 -1.71927,1.925003 -7.80713,8.719713 -13.52859,15.099363 -5.72145,6.37965 -12.57713,14.14215 -15.23484,17.25 -4.74393,5.54743 -5.6552,6.06521 -8.6678,4.92505 z m -35.97682,-14.86065 c -1.91225,-0.82937 -7.64975,-2.91958 -12.75,-4.64491 -5.90974,-1.99916 -9.27318,-3.65542 -9.27318,-4.5664 0,-1.09102 0.76945,-1.26212 3.25,-0.72269 1.7875,0.38872 4.825,0.70431 6.75,0.70131 4.51697,-0.007 22.99707,-3.11398 25.16107,-4.23017 2.70203,-1.39369 3.11238,1.8412 0.68371,5.38988 -3.10189,4.53237 -8.05969,9.66581 -9.29095,9.62008 -0.57961,-0.0215 -2.6184,-0.71772 -4.53065,-1.5471 z M 227.45012,72.249997 227.51672,62.5 218.2932,58 c -5.49577,-2.681296 -9.23422,-5.109606 -9.25,-6.008342 -0.026,-1.483972 4.89724,-9.665387 11.7294,-19.491658 1.91206,-2.75 4.21169,-6.230455 5.1103,-7.734344 2.039,-3.412445 3.6722,-4.075386 6.45626,-2.62069 2.94083,1.53661 23.67756,21.960304 23.67756,23.32013 0,0.594176 -3.61565,5.795101 -8.03477,11.557612 -4.41913,5.762511 -10.49734,13.739789 -13.50715,17.727289 -3.00981,3.9875 -5.83662,7.25 -6.28179,7.25 -0.44518,0 -0.77947,-4.3875 -0.74286,-9.75 z M 199.01669,48.313882 c -0.825,-0.285698 -3.3,-1.334526 -5.5,-2.330729 -8.39303,-3.80053 -13.08681,-5.771353 -15.5,-6.508133 -3.27075,-0.998605 -7,-3.462625 -7,-4.625093 0,-0.80288 5.76013,-8.876929 15.94473,-22.349927 1.66304,-2.2 4.38363,-5.9125 6.04576,-8.25 2.08387,-2.930597 3.74935,-4.25 5.36478,-4.25 2.43145,0 16.03622,9.585006 20.93016,14.745988 2.33724,2.46477 2.62553,3.324928 1.79163,5.345715 -1.48494,3.598452 -18.4213,28.276564 -19.57706,28.525899 -0.55,0.118652 -1.675,-0.01802 -2.5,-0.30372 z"
     style="fill:#000000" />
</svg>
