<?xml version="1.0" encoding="UTF-8" standalone="no"?>
<svg
   xmlns:dc="http://purl.org/dc/elements/1.1/"
   xmlns:cc="http://creativecommons.org/ns#"
   xmlns:rdf="http://www.w3.org/1999/02/22-rdf-syntax-ns#"
   xmlns:svg="http://www.w3.org/2000/svg"
   xmlns="http://www.w3.org/2000/svg"
   version="1.1"
   id="svg869"
   width="1373.7437"
   height="444.51715"
   viewBox="0 0 1373.7437 444.51715">
  <metadata
     id="metadata875">
    <rdf:RDF>
      <cc:Work
         rdf:about="">
        <dc:format>image/svg+xml</dc:format>
        <dc:type
           rdf:resource="http://purl.org/dc/dcmitype/StillImage" />
        <dc:title></dc:title>
      </cc:Work>
    </rdf:RDF>
  </metadata>
  <defs
     id="defs873" />
  <path
     style="fill:#000000"
     d="m 518.87515,443.61051 c -2.2,-0.45505 -6.925,-0.86401 -10.5,-0.9088 -3.575,-0.0448 -10.325,-1.00499 -15,-2.1338 -4.675,-1.12881 -10.26328,-2.00165 -12.4184,-1.93966 -2.15511,0.062 -4.22355,-0.38103 -4.59652,-0.9845 -0.37296,-0.60348 -4.00969,-1.54675 -8.0816,-2.09616 -4.07191,-0.54942 -11.917,-2.52782 -17.43352,-4.39646 -8.81317,-2.98533 -11.36095,-3.41332 -21,-3.52769 -6.03348,-0.0716 -11.79092,0.19511 -12.79431,0.59266 -1.0034,0.39755 -3.545,0.15496 -5.64801,-0.5391 -3.46022,-1.14197 -4.486,-1.00882 -10.79207,1.40086 -3.83263,1.46453 -10.99053,3.73917 -15.90644,5.05476 -8.59985,2.30147 -9.30554,2.34064 -18.65129,1.03532 -5.34229,-0.74615 -11.35979,-1.90005 -13.37222,-2.56421 -2.51174,-0.82895 -6.93403,-0.99583 -14.10442,-0.53225 -8.74747,0.56553 -10.3579,0.44714 -9.90684,-0.72831 0.41711,-1.08698 -1.01264,-1.54779 -6.33801,-2.04273 -3.78215,-0.35151 -8.05291,-1.17506 -9.49058,-1.83011 -2.07039,-0.94333 -3.05699,-0.91432 -4.74445,0.13952 -1.52773,0.95408 -2.23765,1.00905 -2.50924,0.19427 -0.20831,-0.62493 -1.31831,-1.13624 -2.46667,-1.13624 -1.14836,0 -2.79836,-0.60458 -3.66667,-1.34352 -0.86831,-0.73893 -4.85186,-1.9067 -8.85235,-2.59503 -4.00048,-0.68834 -7.90584,-1.88376 -8.67857,-2.65649 -0.77273,-0.77273 -2.12392,-1.40496 -3.00264,-1.40496 -3.47621,0 -28.02336,-6.49256 -45.54518,-12.04641 -10.175,-3.22514 -23.13734,-6.79766 -28.8052,-7.93893 -5.66786,-1.14126 -11.96786,-2.71699 -14,-3.50161 -2.03214,-0.78462 -6.54794,-1.92321 -10.0351,-2.5302 -3.48717,-0.60698 -9.78717,-2.38289 -14,-3.94646 -7.42124,-2.75436 -13.92405,-3.82983 -37.65742,-6.22802 -10.41593,-1.0525 -11.27332,-1.31488 -16.2073,-4.95983 -2.86527,-2.1167 -5.93955,-3.84854 -6.83172,-3.84854 -0.89218,0 -4.3989,-1.05416 -7.792701,-2.34257 -9.9633,-3.78242 -20.07937,-6.65742 -23.42508,-6.65742 -2.65223,0 -3.15944,-0.40677 -3.42906,-2.75 -0.30255,-2.62946 -0.62237,-2.78023 -7.2963,-3.43962 -3.83893,-0.37929 -7.14862,-1.19587 -7.35487,-1.81462 -0.20625,-0.61876 -1.45281,-1.53479 -2.77013,-2.03563 -1.31732,-0.50085 -2.39512,-1.59677 -2.39512,-2.43538 0,-2.18604 -0.60604,-1.99225 -8.29156,2.65141 -11.24764,6.79592 -19.23029,6.22499 -33.7296896,-2.41242 -7.49706,-4.46606 -9.41019996,-8.50885 -9.35264996,-19.76374 0.0537,-10.50108 3.31628996,-19.56169 12.42296956,-34.5 7.43573,-12.19734 8.2265,-13.09526 14.20093,-16.12493 l 4.75,-2.40876 v -5.66743 c 0,-8.26196 2.71653,-12.86151 14.85972,-25.15999 11.1859,-11.32894 14.91646,-13.73581 23.43245,-15.11801 4.8575,-0.78841 5.40964,-0.66081 8.20783,1.8967 5.07456,4.63809 12.93617,9.91181 18.03167,12.096 3.80854,1.63253 5.974481,1.94215 10.036151,1.43468 4.6108,-0.57608 5.35003,-0.40363 6.73289,1.57068 1.29023,1.84206 2.96194,2.3598 9.86706,3.05591 8.07428,0.81397 8.38988,0.76507 10.9611,-1.69832 l 2.64746,-2.53642 13.19371,1.11994 c 11.23109,0.95334 13.74788,1.48667 16.91912,3.5853 4.39082,2.9057 25.90636,9.55907 40.1379,12.41206 5.51705,1.10599 15.24995,3.59303 21.62868,5.52675 6.37872,1.93371 12.33242,3.51584 13.23042,3.51584 2.53388,0 4.38205,-3.59766 2.99179,-5.82382 -1.81509,-2.90643 1.43284,-8.34899 10.95153,-18.3515 7.60843,-7.99517 21.85215,-19.84311 25.33257,-21.07166 0.96059,-0.33909 0.62419,-1.14647 -1.19274,-2.86265 -3.61825,-3.41763 -8.40603,-10.62888 -11.96002,-18.01394 -3.24734,-6.74786 -7.34776,-10.47194 -14.23886,-12.93201 -3.40621,-1.21598 -3.92644,-1.15389 -6,0.7162 -1.24874,1.12619 -5.64543,4.19077 -9.77043,6.81018 -5.31924,3.37776 -12.18176,9.59899 -23.60137,21.39588 -13.77176,14.22675 -17.42762,17.41093 -25.26796,22.00787 -5.04162,2.956 -9.41006,5.7685 -9.70765,6.25 -1.04072,1.68393 -3.47536,0.85468 -4.57473,-1.55817 l -1.10883,-2.43363 -2.82792,2.09077 c -2.34301,1.73227 -3.09229,1.87136 -4.36973,0.81118 -2.18323,-1.81192 -1.91192,-3.77398 0.70819,-5.12154 4.95404,-2.54794 16.01356,-11.60562 17.90384,-14.66316 1.47727,-2.38948 2.73615,-3.25 4.75453,-3.25 2.4947,0 2.70417,-0.27987 2.29516,-3.06661 -0.33436,-2.27813 0.18375,-3.75655 2.01506,-5.75 1.35583,-1.47586 3.91937,-4.76071 5.69676,-7.29966 3.46241,-4.94596 4.73257,-6.00239 18.58465,-15.45744 10.84143,-7.40007 18.56355,-11.42629 21.91513,-11.42629 4.762,0 18.22963,4.99058 23.56138,8.73093 4.49429,3.15285 6.07629,5.15876 9.67627,12.26907 2.36696,4.675 6.46846,11.01269 9.11444,14.08374 4.24439,4.92628 5.07256,5.46697 7.03346,4.592 1.83721,-0.81979 2.91592,-0.43459 6.22108,2.22151 5.60246,4.50225 8.43737,5.51583 31.27731,11.18267 11.11051,2.75665 30.81322,8.36638 43.78379,12.46608 12.97057,4.0997 24.49739,7.454 25.61514,7.454 1.11776,0 3.10547,-0.82828 4.41714,-1.84063 1.31167,-1.01235 4.40986,-3.0246 6.88486,-4.47166 2.475,-1.44707 8.775,-6.04671 14,-10.22144 5.225,-4.17473 11.525,-8.64658 14,-9.93745 2.475,-1.29087 7.425,-4.89694 11,-8.01348 7.36353,-6.41924 23.89581,-18.45544 28.68659,-20.88506 1.75262,-0.88883 3.45419,-2.04905 3.78126,-2.57826 0.32707,-0.52921 1.66671,-6.49491 2.97697,-13.25711 2.29314,-11.83478 11.29674,-45.06037 15.47714,-57.1146 4.36134,-12.57596 18.20067,-35.029464 27.43657,-44.514204 9.12253,-9.36832 17.52085,-15.40096 26.78835,-19.24249 17.73184,-7.35014 33.4214,-10.04559 46.35312,-7.9634 7.85714,1.2651 35.92509,8.67838 47.75479,12.61294 4.26513,1.41858 9.26541,2.44909 11.11174,2.29002 2.26025,-0.19473 5.28064,0.73296 9.24522,2.8396 8.2159,4.36565 17.5872,6.64155 24.3882,5.9229 3.025,-0.31963 10.675,-0.76412 17,-0.98773 32.2757,-1.1411 76.4781,-13.71578 115.1101,-32.74644 14.5653,-7.17512 18.3555,-8.66502 20.2299,-7.95236 1.9251,0.73194 2.7249,0.35271 4.8361,-2.29324 5.251,-6.58084 40.9523,-21.19227 49.8271,-20.39267 4.3915,0.39567 4.6148,0.27265 9,-4.95952 6.58385,-6.5771636 0,0 6.407,-7.2937302 0.2257,0 3.2632,-1.35003 6.75,-3.00006 8.5953,-4.06737501 11.1502,-4.39795501 20.9369,-2.70906501 11.128,1.92034501 20.3931,6.53667501 28.8686,14.38367521 8.6825,8.03866 15.9915,21.66767 18.0061,33.57545 l 1.3111,7.75 h 3.3586 c 4.2499,0 4.395,1.95008 0.3954,5.31546 -1.6296,1.37128 -3.3597,2.64878 -3.8445,2.83889 -1.097,0.43014 -2.3452,7.84565 -1.3207,7.84565 1.8613,0 4.0315,-2.76553 4.3161,-5.5 0.4285,-4.11734 2.7546,-3.83337 5.6843,0.69394 3.218,4.97286 8.3966,6.91216 20.6469,7.73198 5.5104,0.36877 10.5441,0.99505 11.1859,1.39172 0.6419,0.39667 2.9958,0.31031 5.231,-0.19191 2.9168,-0.65536 4.0598,-0.59027 4.0488,0.23057 -0.03,2.2116 -1.5253,3.43478 -5.7376,4.69235 -3.2966,0.98417 -4.833,1.00544 -6.8321,0.0946 -1.4186,-0.64632 -6.7648,-1.60916 -11.8806,-2.13965 -5.1158,-0.53048 -10.5082,-1.42329 -11.983,-1.98403 -4.3052,-1.63683 -10.0362,-1.24625 -11.8979,0.81085 -1.9223,2.12411 -1.6596,3.9349 3.2166,22.169624 3.7207,13.91401 8.251,47.52054 8.8757,65.84099 l 0.4548,13.341 2.8887,-2.76752 c 2.0976,-2.00966 3.0652,-4.09833 3.5333,-7.62733 0.5643,-4.25357 2.3166,-6.78714 4.6942,-6.78714 0.2465,0 0.7619,3.34755 1.1453,7.43901 l 0.6971,7.439 6.6134,2.13655 c 6.8112,2.20048 38.8095,20.24228 52.394,29.54167 4.2167,2.88654 8.9417,5.50052 10.5,5.80886 8.3525,1.65265 28.851,4.55289 35.7478,5.0578 6.5814,0.48182 9.5761,0.14113 17.7797,-2.02269 5.4259,-1.43116 10.8644,-2.33924 12.0856,-2.01796 4.2099,1.10756 31.5336,20.13383 38.7845,27.00664 6.6241,6.27886 7.3904,7.41981 8.6529,12.88472 0.7618,3.29772 2.6541,8.79452 4.2051,12.21511 2.5866,5.70469 2.7081,6.48518 1.4686,9.43325 -0.7433,1.7677 -2.256,4.48443 -3.3617,6.03718 l -2.0103,2.82318 2.5561,1.6748 c 1.4058,0.92114 6.1821,3.22679 10.6138,5.12368 4.4318,1.89688 9.3869,4.5672 11.0113,5.93405 1.6244,1.36684 3.8134,2.48516 4.8644,2.48516 1.051,0 5.5478,3.4875 9.9929,7.75 4.4451,4.2625 10.3618,9.1933 13.1483,10.95733 5.9575,3.77146 14.3606,5.76104 20.676,4.89542 3.308,-0.45342 7.8047,0.20394 16.9315,2.47516 6.8349,1.70089 13.3078,2.86224 14.3841,2.58078 1.4329,-0.37471 2.468,0.35436 3.8651,2.72233 2.4567,4.16385 8.1068,7.30721 14.7085,8.18296 5.0334,0.66771 5.2294,0.60463 5.2355,-1.68515 0,-1.6151 1.011,-2.9507 3.1355,-4.16005 1.721,-0.97968 3.2202,-1.65468 3.3316,-1.5 0.1114,0.15467 1.712,2.53122 3.557,5.28122 1.845,2.75 5.1481,7.09924 7.3402,9.66498 l 3.9858,4.66497 3.5539,-2.41497 c 2.2937,-1.55859 4.9788,-2.41696 7.5718,-2.42056 2.2099,-0.003 5.7209,-0.47848 7.8022,-1.05648 5.0701,-1.40795 7.6716,-0.53224 6.972,2.34685 -0.8222,3.38333 -2.9233,5.31632 -7.8053,7.18076 -2.6615,1.01645 -4.451,2.33236 -4.451,3.27309 0,2.00447 -8.8907,10.3875 -15.8543,14.94895 l -5.3543,3.50731 3.1043,1.88785 c 1.7074,1.03831 3.0921,2.68196 3.0772,3.65254 -0.063,4.0961 -14.1513,15.27593 -21.6882,17.21048 -2.0816,0.5343 -6.2453,1.66507 -9.2526,2.51284 -3.0074,0.84776 -7.8664,1.54138 -10.7978,1.54138 -4.479,0 -5.7212,-0.42236 -7.782,-2.64602 -1.3488,-1.45532 -2.4523,-3.04631 -2.4523,-3.53554 0,-0.48923 -2.025,-1.75753 -4.5,-2.81844 -2.475,-1.06091 -4.5,-2.39492 -4.5,-2.96446 0,-0.56955 -0.6258,-1.03554 -1.3906,-1.03554 -2.672,0 -20.1573,-12.3005 -25.8101,-18.15688 -4.7829,-4.95511 -6.0991,-5.80598 -8.1749,-5.28498 -1.8076,0.45367 -5.2559,-0.76895 -12.7993,-4.53811 -13.8418,-6.91627 -26.9392,-11.55906 -40.8251,-14.47179 -12.4796,-2.61774 -15.2662,-3.70927 -40,-15.66833 -22.8715,-11.05864 -26.8492,-13.14295 -40.2848,-21.10914 -10.9488,-6.49181 -12.0837,-6.94279 -16,-6.35807 -3.2973,0.49231 -6.3983,-0.10649 -14.2407,-2.74989 -12.8875,-4.34393 -15.3315,-5.65519 -19.8384,-10.64387 l -3.7137,-4.11054 -10.2112,1.11717 c -11.927,1.30489 -24.445,3.61953 -30.4635,5.63283 -4.9835,1.66708 -3.4539,1.6213 -32.5705,0.97474 -22.5936,-0.50171 -22.8565,-0.53254 -26.1832,-3.06997 -1.8483,-1.40978 -3.7984,-2.5632 -4.3336,-2.5632 -0.5352,0 -0.7551,-0.83374 -0.4886,-1.85275 0.2988,-1.1428 -0.6393,-3.08307 -2.4481,-5.06353 -4.7063,-5.15272 -7.5289,-11.64307 -6.7859,-15.60358 0.4948,-2.63786 0.077,-4.28839 -1.8634,-7.3624 -1.3758,-2.17926 -4.1631,-7.3686 -6.1942,-11.53186 l -3.6929,-7.56957 -8.5936,8.27721 c -9.2523,8.91158 -14.4569,12.80885 -23.0937,17.29294 -4.9439,2.5668 -6.4605,2.85158 -15,2.8167 -10.6606,-0.0435 -16.0168,-1.65329 -34.7108,-10.43202 -5.6159,-2.63726 -11.5986,-5.09983 -13.2949,-5.4724 -2.0354,-0.44704 -3.9301,-1.95567 -5.5718,-4.43653 -4.5516,-6.8779 -10.9654,-8.81435 -20.3394,-6.14088 -3.6207,1.03262 -10.6331,2.82186 -15.5831,3.97609 -15.404,3.59189 -36.7356,10.95412 -39.5492,13.64973 -1.7335,1.66085 -6.6247,3.64341 -15.0111,6.08445 -15.5969,4.53986 -19.4623,5.23462 -29.536,5.30879 -11.0984,0.0817 -26.3385,1.2213 -26.1568,1.95589 0.082,0.33205 -0.1734,1.54793 -0.568,2.70196 -0.9565,2.79791 -4.5972,4.32776 -12.0336,5.05666 -11.8334,1.15987 -31.15781,12.72823 -49.14525,29.42029 -8.95666,8.31164 -11.75461,11.62116 -15.06233,17.81632 -2.23428,4.18467 -9.38255,15.93349 -15.88505,26.10849 -6.5025,10.175 -14.73933,23.89999 -18.30406,30.49999 -13.33483,24.68904 -32.38948,45.27857 -49.67522,53.67663 -2.51534,1.22205 -4.57334,2.58223 -4.57334,3.02264 0,0.92354 -0.98172,0.88478 -6.5,-0.25664 z M 373.48866,413.65103 c 2.96257,-0.55927 7.18649,-2.29367 9.38649,-3.85423 2.2,-1.56055 6.7767,-4.07335 10.17044,-5.584 3.39374,-1.51065 7.18468,-3.82625 8.42431,-5.14578 1.56342,-1.66418 3.34927,-2.39939 5.82956,-2.39995 1.96663,-4.5e-4 5.78122,-0.83844 8.47686,-1.8622 l 4.90117,-1.86138 -10.40117,-0.48348 c -15.63888,-0.72693 -24.57661,-5.04724 -50.89082,-24.59951 -16.43834,-12.21419 -30.33677,-26.16792 -43.51947,-43.69261 -11.14925,-14.82148 -15.13439,-19.23187 -20.99233,-23.23244 -5.58046,-3.81107 -23.94414,-11.48497 -32.99855,-13.78959 -4.95,-1.25992 -15.01819,-4.13968 -22.37376,-6.39946 -7.35557,-2.25977 -21.08057,-5.93614 -30.5,-8.16971 -17.66961,-4.18987 -36.82279,-9.82343 -44.5253,-13.09631 -6.40547,-2.72175 -9.647,-1.281 -20.36564,9.05179 -14.44314,13.92323 -20.03798,25.28968 -21.68466,44.05446 -0.58194,6.63155 -1.64003,12.32516 -2.65747,14.29998 -0.92979,1.8047 -4.74289,6.43366 -8.47356,10.28656 -7.48462,7.72986 -8.90238,10.38545 -8.16915,15.30149 0.67768,4.54364 3.25386,5.89835 13.66793,7.18741 9.67775,1.19791 14.45031,2.08734 39.78284,7.41402 20.8463,4.38334 24.30362,5.27205 50.79877,13.05784 26.51801,7.79252 38.52996,10.78638 56.39401,14.0557 7.6417,1.39851 21.1417,4.27393 30,6.38981 25.39239,6.06519 30.91953,7.22647 50.60599,10.63261 21.5768,3.7332 22.04845,3.77271 29.11351,2.43898 z M 243.87515,378.10289 c -15.82063,-5.4204 -31.51157,-13.02263 -45.47462,-22.03237 -5.76104,-3.71735 -15.66104,-9.08058 -22,-11.91829 -16.17964,-7.243 -33.8102,-16.35051 -32.02538,-16.54351 0.825,-0.0892 2.625,-0.0692 4,0.0444 3.95148,0.32663 42.19697,19.52765 55.45736,27.84218 14.30126,8.96718 29.95232,16.50274 45.04264,21.68682 6.05,2.0784 11.4275,4.16294 11.95,4.63231 2.21461,1.98944 -4.78196,0.45738 -16.95,-3.71158 z m 289.63637,29.66728 c 8.02811,-5.84033 17.19557,-17.47818 23.79124,-30.20234 3.53519,-6.81997 8.51926,-15.77494 11.07573,-19.89994 2.55646,-4.125 8.14384,-14.7 12.4164,-23.5 4.27257,-8.8 9.51361,-19.6 11.64677,-24 6.18414,-12.75583 12.75391,-27.91526 18.63528,-43 3.00215,-7.7 7.22432,-18.36368 9.38261,-23.69707 2.15829,-5.33338 4.55145,-12.53338 5.31814,-16 0.76669,-3.46661 2.32415,-8.55293 3.46103,-11.30293 3.86628,-9.35213 10.19384,-32.87741 10.81296,-40.20158 0.57669,-6.82218 0.7705,-7.29842 2.97021,-7.29842 2.20782,0 2.35326,0.36839 2.35326,5.96082 0,5.0908 -4.6468,22.66104 -10.54641,39.8775 -0.65561,1.91322 5.45046,0.73519 17.87237,-3.44809 5.53686,-1.86463 11.10359,-3.39023 12.37049,-3.39023 1.481,0 2.3035,-0.59365 2.3035,-1.66245 0,-0.91435 1.3525,-3.77011 3.0056,-6.34613 4.2473,-6.61899 5.3506,-13.9079 4.6152,-30.49142 -0.9408,-21.21322 -3.8685,-36.62107 -10.8308,-57.00001 -3.73708,-10.93847 -6.87074,-17.357024 -10.60075,-21.713084 -1.54798,-1.80781 -4.02025,-5.38596 -5.49392,-7.95145 -2.66196,-4.63415 -2.75926,-4.69082 -14.93735,-8.69921 -25.46762,-8.38262 -31.13945,-9.60668 -44.25793,-9.55144 -14.549,0.0613 -24.6941,2.43665 -38,8.89741 -12.87819,6.25308 -19.6757,12.16116 -28.24222,24.54681 -13.73252,19.854764 -15.41498,22.495144 -18.77905,29.470964 -8.2084,17.02118 -22.63378,79.27004 -24.44828,105.50001 -0.55168,7.975 -1.44761,19 -1.99095,24.5 -0.54335,5.5 -0.99951,17.20666 -1.0137,26.01481 -0.023,14.28651 0.19639,16.42937 2.03307,19.85621 1.94903,3.63646 1.96743,3.94243 0.34501,5.73519 -2.20706,2.43878 -3.05863,2.38566 -6.80949,-0.42475 -1.70191,-1.2752 -5.79439,-3.83231 -9.09439,-5.68247 -3.3,-1.85016 -10.5,-6.35114 -16,-10.00219 -11.97483,-7.94921 -54.46275,-29.85605 -63.54784,-32.76537 -3.54869,-1.13639 -8.92716,-2.61408 -11.95216,-3.28375 -3.025,-0.66966 -9.58392,-2.68397 -14.57537,-4.47623 -4.99145,-1.79226 -16.46645,-4.88232 -25.5,-6.86679 -9.03355,-1.98448 -20.6196,-4.73236 -25.74679,-6.1064 -5.12719,-1.37404 -10.38199,-2.49826 -11.67734,-2.49826 -4.98689,0 -18.99859,8.61917 -28.3204,17.42105 -6.56796,6.20161 -18.34974,22.86539 -17.00384,24.04967 0.17806,0.15667 5.95228,1.88949 12.8316,3.8507 31.38742,8.94816 41.48692,15.65613 57.10237,37.92671 17.32654,24.71092 46.79136,50.78492 71.73683,63.48136 l 9.34705,4.75734 18.65295,0.72665 c 35.92053,1.39933 41.76335,2.04662 51.31205,5.68447 5.95515,2.26878 8.8144,3.89273 9.15638,5.20049 0.41304,1.57945 1.43368,1.90155 6.02551,1.90155 3.04054,0 8.59517,0.63961 12.34362,1.42135 3.74846,0.78174 10.49676,1.73713 14.99622,2.12309 7.24763,0.6217 8.49592,1.03062 10.94297,3.58479 3.15382,3.29187 4.79651,3.1314 10.51256,-1.02694 z M 371.85715,340.66223 c -6.85586,-3.80499 -16.23868,-12.0947 -11.982,-10.58607 7.56583,2.68144 20.95797,12.46709 19.31302,14.11205 -0.19197,0.19196 -3.49093,-1.39473 -7.33102,-3.52598 z M 354.94518,328.7812 c -0.30141,-0.48768 0.082,-1.40954 0.85195,-2.04856 1.55873,-1.29363 3.15488,0.19286 2.07802,1.93525 -0.7652,1.23812 -2.20049,1.29363 -2.92997,0.11331 z m 962.13852,57.88668 c 0.122,0 1.729,-1.32331 3.5711,-2.94069 l 3.3492,-2.9407 -1.1219,-8.36546 c -1.3398,-9.98878 -2.7114,-12.23607 -7.507,-12.29927 -1.925,-0.0254 -5.5039,-0.41786 -7.9531,-0.87221 l -4.4531,-0.82609 1.5509,2.37222 c 0.9122,1.39523 3.8788,3.18756 7.2031,4.35197 l 5.6522,1.97976 v 7.64242 7.64243 l -4.1335,0.66098 c -4.6657,0.74608 -4.3826,0.86063 -5.3071,-2.14727 -0.5483,-1.78393 -0.1651,-2.48062 1.8758,-3.41051 1.9651,-0.89536 2.5552,-1.891 2.5238,-4.2581 -0.036,-2.69193 -0.6516,-3.37529 -4.7863,-5.3106 -2.6099,-1.22162 -6.6005,-3.80912 -8.8679,-5.75 -3.5324,-3.02355 -4.8424,-3.52887 -9.1487,-3.52887 -5.829,0 -9.6422,-1.21853 -10.4569,-3.34153 -0.487,-1.26903 0.5117,-1.41616 6.6136,-0.97432 6.4136,0.4644 7.5639,0.26345 10.6872,-1.86687 1.925,-1.31301 4.3406,-4.17154 5.368,-6.35229 1.0274,-2.18074 2.3065,-4.24224 2.8424,-4.58111 1.4905,-0.94247 -3.8419,-4.27776 -12.7104,-7.95003 -7.4314,-3.07719 -8.8885,-3.3285 -20.5,-3.53579 -8.2713,-0.14766 -14.0223,-0.75526 -17,-1.79605 -5.825,-2.03602 -8.9808,-2.01052 -10.513,0.0849 -1.1244,1.53772 -1.2978,1.48459 -1.9596,-0.60066 -0.4187,-1.31922 -0.2607,-2.75298 0.3733,-3.38694 0.6046,-0.60464 1.0993,-1.85203 1.0993,-2.77198 0,-1.98656 -7.006,-8.65081 -13.1359,-12.49514 -2.4003,-1.5053 -6.9872,-4.47085 -10.1932,-6.59011 -3.206,-2.11927 -8.0645,-4.58438 -10.7966,-5.47803 -2.7322,-0.89365 -7.7591,-3.4368 -11.171,-5.65144 -11.1334,-7.22677 -15.8352,-9.76659 -32.1325,-17.3572 -8.8389,-4.11682 -19.1127,-9.31024 -22.8306,-11.54093 l -6.7598,-4.0558 -12.7402,2.129 c -18.0099,3.00962 -19.4389,3.51932 -24.1275,8.60583 -3.3837,3.67091 -4.1127,5.16873 -4.1127,8.45019 0,2.19363 0.7385,5.53705 1.6411,7.42983 1.329,2.78691 2.6127,3.74184 6.75,5.02103 2.8099,0.86879 7.8089,1.88036 11.1089,2.24794 5.0754,0.56534 6.6935,1.27654 10.5,4.61505 4.0119,3.51858 20.5481,12.26413 26.915,14.23454 1.3282,0.41106 8.0782,3.43644 15,6.72306 6.9217,3.28662 14.8031,6.85795 17.5142,7.93629 5.0957,2.02682 22.005,5.93291 33.8242,7.81347 14.2296,2.26407 30.0965,12.42604 53.2012,34.07277 10.1843,9.54161 12.7931,11.34853 21.7574,15.06966 10.3883,4.31219 16.6728,5.78606 20.2711,4.75406 1.652,-0.47379 3.1035,-0.86144 3.2255,-0.86144 z m 11.4253,-14.25 c -0.3245,-2.02937 -0.6668,-2.5708 -0.9114,-1.44159 -0.3722,1.71876 0.3076,4.69159 1.0729,4.69159 0.197,0 0.1243,-1.4625 -0.1615,-3.25 z m 31.9706,-16.99999 c 1.6566,-3.00157 -2.28,-2.10949 -8.3599,1.89447 -4.6949,3.09179 -5.7775,4.39821 -7.1394,8.61483 -0.8828,2.73369 -1.6052,5.47063 -1.6052,6.08206 0,1.25619 15.6125,-13.88788 17.1045,-16.59136 z m -22.7123,-6.94835 c -5.8197,-6.10133 -6.1873,-5.38898 -1.7627,3.41511 1.3038,2.59421 2.3705,6.45671 2.3705,8.58333 0,6.06062 1.3266,5.8831 3.2001,-0.42823 l 1.7157,-5.77931 z m -5.858,5.35397 c -0.7583,-3.45254 -4.1244,-5.48082 -13.329,-8.03153 -3.9477,-1.09398 -7.6922,-2.30707 -8.3212,-2.69576 -0.7,-0.43264 -0.9663,-0.16796 -0.6866,0.68247 0.2513,0.76406 1.6381,1.52952 3.0819,1.70101 1.4846,0.17633 2.8796,1.11333 3.2106,2.15651 0.3221,1.01459 2.2561,2.52163 4.2978,3.34898 2.0418,0.82736 5.2671,3.12357 7.1674,5.1027 2.8724,2.99155 3.6011,3.33745 4.3211,2.05101 0.4762,-0.85107 0.5924,-2.793 0.258,-4.31539 z m -17.0342,0.84438 c -2.7782,-1.19384 -4.7378,-1.19384 -4,0 0.3399,0.55 1.829,0.96837 3.309,0.92971 2.4028,-0.0627 2.4768,-0.16231 0.691,-0.92971 z m -1277.835541,-3.25 c 13.52049,-7.64544 15.33559,-8.96993 15.33559,-11.19047 0,-2.90042 2.19946,-4.81022 9,-7.81472 3.025,-1.33646 6.85,-3.56661 8.5,-4.9559 3.76848,-3.17302 15.52526,-10.78891 16.65504,-10.78891 1.26542,0 1.01806,4.4269 -0.32226,5.76722 -0.88962,0.88962 -0.71125,1.31005 0.75,1.76778 5.3312,1.67001 10.41722,4.60478 10.41722,6.01102 0,0.86667 0.48243,1.27385 1.07521,0.9075 0.694,-0.42892 0.33947,-1.44766 -1,-2.87347 -1.14137,-1.21492 -2.07521,-2.67022 -2.07521,-3.23399 0,-1.47068 4.57147,-3.34606 8.156461,-3.34606 2.9786,0 3.04596,-0.10256 2.46301,-3.75 -0.32963,-2.0625 -1.0291,-7.35 -1.55437,-11.75 -0.93483,-7.83076 -1.0528,-8.08534 -5.576601,-12.03423 -4.44707,-3.8819 -4.6568,-4.31476 -5.55449,-11.46403 -0.51311,-4.0864 -0.65408,-8.34599 -0.31327,-9.46577 0.34081,-1.11979 3.71556,-5.25051 7.499451,-9.17939 3.7839,-3.92888 6.87981,-7.70549 6.87981,-8.39246 0,-0.92747 -1.52121,-1.09003 -5.90875,-0.63145 l -5.908741,0.61759 -7.53469,-5.50252 c -7.68549,-5.61266 -13.17924,-8.44824 -16.3657,-8.44711 -2.60975,9.2e-4 -12.73553,8.29225 -16.81124,13.76563 -1.93873,2.60355 -6.42496,10.58374 -9.96939,17.73374 -3.54444,7.15 -8.53015,15.475 -11.07936,18.5 -5.52969,6.56178 -16.07996,22.41739 -19.79554,29.75 -2.75265,5.43228 -4.7874196,6.52014 -6.5464896,3.5 -0.80851,-1.38813 -1.04561,-0.81947 -1.14659,2.75 -0.44248,15.64131 1.09812,18.23821 14.0019196,23.60229 7.07444,2.94082 11.71704,2.98182 16.72898,0.14771 z m 61.80544,-6.61274 c 0.34501,-1.57079 4.150431,-6.68173 8.515771,-11.43724 8.35796,-9.10498 9.99877,-12.5171 10.0088,-20.81353 0.0101,-8.32173 1.90276,-15.23256 7.00834,-25.58965 4.38026,-8.88569 6.35494,-11.55925 15.29309,-20.70557 l 10.26339,-10.50243 -5.14384,-0.64268 c -4.41015,-0.55101 -5.70412,-0.28899 -9.07192,1.83701 -5.06995,3.20052 -9.30401,8.0777 -16.41809,18.91185 -6.92701,10.54924 -9.05039,16.51347 -9.05039,25.42102 0,5.26672 0.45605,7.34046 2.1047,9.57037 1.65742,2.24178 1.96107,3.64018 1.42885,6.58018 -1.08862,6.01358 -3.22055,9.32588 -10.52635,16.3544 -6.360111,6.11872 -6.882201,6.9387 -6.882201,10.80902 0,4.58741 1.48052,4.71164 2.46985,0.20725 z m -72.29023,-52.38726 c 2.16669,-2.6125 3.70881,-4.75 3.42696,-4.75 -2.40173,0 -5.95253,3.18242 -9.30673,8.3412 -4.47255,6.87879 -11.2998496,18.98304 -11.2998496,20.03371 0,0.37549 2.9790396,-3.71775 6.6200996,-9.0961 3.64105,-5.37835 8.39284,-11.91631 10.55952,-14.52881 z m 442.820381,6.25 c 0,-1.37853 0.66667,-2 2.14544,-2 2.12125,0 2.13765,-0.1504 1.45378,-13.3353 -0.46211,-8.90944 -0.19682,-19.44697 0.79934,-31.75 2.7533,-34.00457 2.91412,-39.24866 1.18326,-38.58447 -0.84005,0.32236 -7.95212,4.84367 -15.8046,10.04735 -15.87673,10.52121 -38.34877,30.17192 -43.27722,37.84385 -2.34785,3.6548 -3.59781,4.68178 -5.75,4.72427 -4.04272,0.0798 -3.56394,-3.00586 1.2519,-8.06836 2.20105,-2.31378 3.86708,-4.3417 3.70229,-4.50648 -0.42778,-0.42778 -12.70419,9.72663 -12.70419,10.50825 0,0.35696 7.45096,4.36638 16.55768,8.90984 9.10672,4.54346 20.24422,10.57913 24.75,13.4126 15.10545,9.4991 24.00496,14.79845 24.85193,14.79845 0.46222,0 0.84039,-0.9 0.84039,-2 z M 108.1807,285.89434 c 1.61365,-3.17546 5.73774,-10.03796 9.16464,-15.25 5.94312,-9.03901 6.12375,-9.49252 3.91295,-9.82448 -1.27478,-0.19142 -2.44678,0.0336 -2.60443,0.5 -1.19041,3.52181 -5.3099,8.12882 -11.67776,13.05978 -4.11124,3.18354 -7.756061,6.56762 -8.099611,7.52017 -0.40347,1.11869 0.51868,3.15464 2.604371,5.75 1.77596,2.20995 3.34982,4.01808 3.49748,4.01808 0.14765,0 1.58871,-2.5981 3.20236,-5.77355 z m 953.1944,0.77355 c 0,-0.55 -0.9266,-1 -2.059,-1 -1.1325,0 -1.7809,0.45 -1.441,1 0.3399,0.55 1.2665,1 2.059,1 0.7926,0 1.441,-0.45 1.441,-1 z m 128.7429,-8.25 c 0.5432,-0.6875 1.291,-6.85138 1.6617,-13.69751 l 0.674,-12.4475 -6.7893,-6.35258 c -12.6157,-11.80424 -32.9161,-24.25241 -39.5507,-24.25241 -1.8251,0 -5.9099,0.675 -9.0773,1.5 -8.3877,2.18471 -20.2955,1.84495 -37.2332,-1.06237 -13.7352,-2.35761 -17.5651,-2.57735 -47.9281,-2.75 -39.0464,-0.22201 -43.4489,0.33698 -50.3254,6.38984 -4.7722,4.20069 -8.1746,5.09212 -8.1746,2.14177 0,-1.07808 1.2394,-2.24859 3.141,-2.96635 l 3.141,-1.18559 -0.7271,-7.78365 c -0.4,-4.28101 -1.0893,-20.38365 -1.5319,-35.78365 -1.2284,-42.73589 -3.4864,-58.55714 -14.0381,-98.362344 -1.7419,-6.57124 -1.8296,-8.34418 -0.8165,-16.5 1.5475,-12.45738 0.035,-21.0301 -5.7478,-32.5822 -5.279,-10.54531 -11.9571,-17.28617 -22.271,-22.48016 -8.3497,-4.2048202 -19.1496,-6.0528502 -19.1496,-3.2767802 0,2.72443 -2.0487,3.00429 -4.5806,0.6257 l -2.4326,-2.2853 -5.7434,1.80418 c -4.7596,1.49516 -6.8995,3.0074802 -12.4934,8.8294102 -3.7125,3.86387 -6.75,7.40823 -6.75,7.87635 0,0.46812 -2.6526,0.85113 -5.8946,0.85113 -8.1565,0 -17.8265,3.17309 -29.6054,9.71467 -17.9056,9.94413 -18.4962,10.39109 -18.4982,14.00015 0,4.23653 -3.2558,6.27022 -6.0237,3.7653 -1.707,-1.54478 -2.0386,-1.55116 -4.1394,-0.0797 -2.5205,1.76543 -9.3689,2.16873 -10.3331,0.60851 -0.3884,-0.62837 -1.7824,-0.47405 -3.8091,0.42167 -25.9295,11.45991 -47.5814,19.42674 -65.5767,24.12905 -9.24,2.4145 -31.3689,6.61171 -42.1198,7.98891 -9.6312,1.23378 -9.5163,0.94894 -3.9839,9.87677 9.0532,14.609654 14.5873,31.305044 19.5815,59.074674 2.6548,14.76211 2.6792,15.28549 1.5388,33.00001 -1.3331,20.70595 -3.603,33.39446 -8.723,48.75995 -1.9914,5.97632 -3.3778,11.10897 -3.0808,11.40589 0.8481,0.8481 18.509,-4.41076 37.8047,-11.25706 19.6099,-6.95778 33.4305,-10.35249 54.5541,-13.39996 l 14.1913,-2.04737 6.566,2.62854 c 3.6113,1.4457 11.8502,5.77401 18.3086,9.61845 28.2803,16.83399 37.5644,18.9069 54.7427,12.2226 8.4288,-3.27975 9.6032,-4.22889 14.7618,-11.93104 2.2102,-3.3 5.1113,-7.18181 6.4469,-8.62625 2.0243,-2.18923 2.3138,-3.23696 1.7399,-6.29639 -0.6587,-3.51104 -0.7696,-3.59678 -2.5586,-1.97778 -1.7824,1.61307 -1.9345,1.53325 -3.2456,-1.70361 -0.7565,-1.86778 -2.4082,-7.64685 -3.6704,-12.84237 -1.9504,-8.02849 -2.8903,-10.09237 -6.2618,-13.75 -2.7861,-3.02264 -4.7679,-4.3036 -6.658,-4.3036 -1.4802,0 -5.0256,-0.69324 -7.8787,-1.54054 -4.8655,-1.44489 -5.613,-1.41385 -12.0393,0.5 -9.6518,2.87442 -25.3563,2.8618 -32.0686,-0.0258 -6.0322,-2.59494 -23.1796,-20.71317 -25.0944,-26.51501 -0.6868,-2.08111 -2.5223,-5.79193 -4.0788,-8.24626 -3.9065,-6.15992 -6.1636,-13.48133 -6.1068,-19.80823 0.058,-6.47486 1.8589,-12.36421 3.7805,-12.36421 1.1625,0 1.3116,1.81649 0.8411,10.25 -0.5686,10.19319 -0.5524,10.28979 2.9365,17.4291 1.9296,3.9485 4.6825,7.94848 6.1177,8.88885 1.4352,0.94037 3.7023,4.02 5.0381,6.84362 3.3407,7.06161 13.9183,17.7984 19.0488,19.33556 16.273,4.8755 29.6367,2.57089 47.3049,-8.15782 3.1046,-1.88526 6.8823,-3.73789 8.3948,-4.11694 3.5462,-0.88872 3.473,-2.40552 -0.29,-6.01068 -1.672,-1.60187 -4.658,-5.8058 -6.6356,-9.34207 l -3.5956,-6.42959 0.859,-8.59502 c 1.2707,-12.71396 0.5997,-26.38935 -1.7074,-34.79882 -1.1056,-4.030014 -1.8405,-8.557794 -1.6331,-10.061744 l 0.3771,-2.73445 1.1244,2.5 c 2.0681,4.59796 1.4677,-5.32267 -0.932,-15.40302 l -2.1833,-9.17086 -11.5667,-0.17511 c -15.0418,-0.22773 -24.6947,-1.65665 -31.2628,-4.62781 -11.6711,-5.2796 -12.0434,-8.5747 -0.4222,-3.73679 8.9286,3.71696 21.8104,5.35437 34.8682,4.43211 l 8.75,-0.61801 v -4.62775 c 0,-4.96635 2.1216,-9.07272 4.6876,-9.07272 1.2713,0 1.4454,0.72143 0.9049,3.75 -2.6839,15.04058 -1.48,21.7435 8.5216,47.44517 4.2098,10.818154 6.8859,19.174644 6.8859,21.501964 0,2.09373 1.7481,12.3559 3.8847,22.80483 2.1365,10.44892 4.2001,21.47304 4.5856,24.49804 0.3856,3.02501 2.0531,12.92501 3.7055,22.00001 2.1993,12.07796 2.8372,18.0036 2.3805,22.11038 -0.9465,8.51013 3.3354,26.99337 8.8935,38.38962 5.6305,11.54458 15.1036,22.97853 20.3118,24.51593 10.5192,3.10517 55.0146,1.71953 81.2384,-2.52986 8.525,-1.38142 19.4958,-2.98732 24.3795,-3.56868 4.8837,-0.58135 13.4337,-2.61288 19,-4.51452 13.0924,-4.47281 23.5189,-7.13945 36.9772,-9.45713 l 10.8567,-1.86966 7.6224,4.46196 c 4.1923,2.45408 8.3825,4.46196 9.3115,4.46196 2.7658,0 4.8527,1.12113 4.8527,2.60699 0,0.92531 1.259,1.42648 3.75,1.49269 6.0894,0.16187 8.59,1.28047 11.0494,4.94275 1.282,1.90894 4.6462,4.66815 7.5113,6.16039 6.0704,3.16176 6.1442,3.17711 7.4322,1.54718 z M 104.03535,270.81294 c 5.50093,-4.38155 7.74693,-6.83403 8.69421,-9.49353 0.43129,-1.21088 -0.98226,-0.4654 -4.098,2.1612 -11.006931,9.27892 -14.962421,15.58913 -4.59621,7.33233 z m 1094.26945,2.60495 c -0.039,-0.6875 -0.457,-2.15 -0.9297,-3.25 -0.7202,-1.67602 -0.8708,-1.47353 -0.9297,1.25 -0.039,1.7875 0.3797,3.25 0.9297,3.25 0.55,0 0.9684,-0.5625 0.9297,-1.25 z M 42.479489,265.70219 c 2.33437,-4.38113 5.98063,-10.34363 8.10279,-13.25 l 3.85849,-5.2843 -5.57022,6 c -7.45844,8.0339 -11.4954,14.23977 -11.4954,17.67144 0,1.55571 0.19351,2.82856 0.43002,2.82856 0.23651,0 2.33996,-3.58456 4.67432,-7.9657 z m 586.395661,-3.8091 c 3.3,-1.64741 8.925,-4.20886 12.5,-5.69211 3.575,-1.48325 9.89357,-4.90505 14.04127,-7.60399 7.4359,-4.83862 7.55797,-4.98686 8.73748,-10.61039 1.0348,-4.93307 0.9662,-6.2247 -0.50755,-9.56507 -1.95075,-4.42148 -2.43257,-4.42522 -12.7712,-0.099 -17.40135,7.28172 -24.56329,8.98003 -20.42715,4.84389 0.79959,-0.79959 9.3228,-4.7464 18.94048,-8.77068 17.47392,-7.31156 17.48692,-7.31934 17.81392,-10.70896 0.2641,-2.73707 0.069,-3.17798 -1.0087,-2.28331 -0.7348,0.60982 -4.27683,1.7908 -7.87118,2.62438 -3.59435,0.83359 -10.87449,2.90562 -16.17808,4.60451 l -9.6429,3.0889 -1.66095,5.72329 c -0.91353,3.14781 -4.54197,13.75116 -8.0632,23.563 -3.52123,9.81189 -6.40224,18.04729 -6.40224,18.30094 0,0.25365 1.4625,-0.63711 3.25,-1.97946 1.7875,-1.34235 5.95,-3.78853 9.25,-5.43594 z M 255.1991,260.49596 c 6.9832,-8.81736 14.41257,-15.28745 25.43302,-22.14911 4.25867,-2.65157 7.74303,-5.00293 7.74303,-5.22525 0,-0.59417 -4.14974,1.0845 -10.18753,4.1211 -6.34271,3.18996 -28.20905,24.25546 -29.74192,28.65265 -1.51088,4.33412 0.004,3.1233 6.7534,-5.39939 z m 399.71717,-4.8946 c 1.08933,-1.76258 -0.059,-2.0097 -2.11412,-0.45494 -1.69187,1.27997 -1.72067,1.46174 -0.23602,1.48967 0.93004,0.0175 1.9876,-0.44814 2.35014,-1.03473 z m 27.25653,-2.53253 c 2.2974,-0.35492 3.8617,-1.43683 5.1569,-3.56662 1.0225,-1.68144 4.1258,-4.35167 6.8961,-5.93386 5.2056,-2.97302 9.6606,-8.42344 12.6063,-15.42299 3.3817,-8.0353 8.5273,-29.07737 9.5097,-38.88801 3.6605,-36.55651 3.2479,-46.02423 -2.9161,-66.9171 -4.5907,-15.56053 -5.6678,-18.0064 -11.1883,-25.407724 -4.3256,-5.79936 -8.1719,-8.26465 -12.8944,-8.26465 -1.7223,0 -7.8426,-1.62697 -13.6008,-3.6155 -5.7582,-1.98852 -10.6741,-3.41075 -10.9244,-3.16052 -0.2502,0.25024 1.7455,5.13971 4.435,10.8655 2.6895,5.72578 6.5557,14.880894 8.5915,20.344674 3.5948,9.64786 3.7565,10.67091 5.6096,35.5 1.0495,14.06122 2.4133,29.05648 3.0307,33.32279 1.6021,11.06994 0.8672,20.07461 -1.8769,22.99548 -1.7205,1.83148 -2.0536,3.07581 -1.5891,5.93794 0.7522,4.63515 -3.3274,27.074 -5.8369,32.10471 -1.0413,2.08728 -3.4407,5.50796 -5.3321,7.6015 l -3.4389,3.80643 5.2322,-0.39629 c 2.8778,-0.21797 6.7162,-0.62556 8.5299,-0.90576 z m 5.4023,-34.60094 c -2.6393,-2.63933 0.2923,-10.38752 4.8539,-12.82882 2.7874,-1.49176 3.9574,-0.31224 4.6203,4.65774 0.8729,6.54508 -5.5557,12.08953 -9.4742,8.17108 z m 35.5292,34.59583 c -0.3323,-0.33229 -1.1948,-0.36781 -1.9167,-0.0789 -0.7977,0.31922 -0.5607,0.55618 0.6042,0.60416 1.0542,0.0434 1.6448,-0.19293 1.3125,-0.52522 z m -20.7292,-5.39583 c 3.2333,-3.23321 2.2884,-4.65046 -1,-1.5 -1.65,1.5808 -3,3.01499 -3,3.18709 0,0.99314 2.2825,0.0305 4,-1.68709 z m -31.352,-3.26566 c 1.1814,-1.77889 2.4641,-4.35934 2.8506,-5.73434 0.6556,-2.33276 0.4657,-2.26587 -2.8388,1 -3.6903,3.64717 -6.1161,9.50024 -3.521,8.49565 0.7487,-0.28983 2.3278,-1.98242 3.5092,-3.76131 z m -486.01556,-0.12999 c 2.82282,-0.92782 5.97282,-2.6246 7,-3.7706 1.86304,-2.07854 1.85905,-2.08187 -1.63239,-1.36065 -3.81739,0.78854 -11.46886,4.85848 -12.61236,6.7087 -0.45078,0.72937 -0.19227,0.96399 0.69832,0.63379 0.77772,-0.28835 3.72362,-1.28341 6.54643,-2.21124 z m 530.00476,-3.76253 c 8.5767,-9.39809 14.4421,-35.65419 14.7084,-65.84182 0.1442,-16.33649 -0.065,-18.53055 -3.1535,-33.00001 -4.3998,-20.61562 -12.7093,-40.40466 -20.7853,-49.500004 -4.0212,-4.52883 -3.5973,-3.28979 1.3639,3.98613 4.484,6.576184 5.6207,9.430704 10.3585,26.013874 2.7826,9.73951 4.1793,16.85254 4.5896,23.37348 0.7742,12.30427 -1.3202,41.89681 -3.9016,55.12653 -1.1268,5.775 -2.8849,14.775 -3.9069,20 -1.022,5.225 -2.5378,12.2 -3.3686,15.5 -1.9983,7.93825 -1.9747,8.80381 0.2083,7.62701 0.9625,-0.51885 2.7118,-1.99719 3.8872,-3.28519 z M 212.00529,221.41789 c 5.4669,-5.6375 11.26274,-12.00011 12.87965,-14.13914 2.0042,-2.65136 5.30478,-5.03834 10.37059,-7.5 4.08692,-1.98597 7.3955,-4.06086 7.35241,-4.61086 -0.35116,-4.48201 -9.91307,-1.1089 -24.92065,8.79113 -12.71828,8.38984 -20.31214,17.35966 -20.31214,23.99254 0,6.46854 3.56556,4.8762 14.63014,-6.53367 z m 464.45201,-7.12337 c 2.495,-5.49442 2.3923,-6.62663 -0.6012,-6.62663 -2.1548,0 -2.4326,0.34464 -1.9208,2.38351 0.329,1.31092 0.1475,4.01591 -0.4034,6.01109 -1.326,4.80227 0.4214,3.74624 2.9254,-1.76797 z m 343.958,0.76329 c 8.7622,-1.23107 15.6969,-1.47145 29.4598,-1.02117 9.9,0.3239 19.5198,0.88292 21.3774,1.24228 8.2576,1.59746 1.1381,-3.60084 -27.6239,-20.16967 -15.6735,-9.02895 -21.595,-11.44136 -28.0842,-11.44136 -4.088,0 -5.4485,0.54715 -9.071,3.64785 l -4.2617,3.64785 0.3119,10.60215 c 0.1716,5.83118 -0.051,11.35384 -0.4947,12.27258 -0.6151,1.27376 -0.2543,1.77572 1.5197,2.11382 4.1666,0.79409 5.263,0.73596 16.8667,-0.89433 z M 682.936,174.66789 c -0.8809,-9.07501 -2.0327,-20.32501 -2.5595,-25.00001 -0.5269,-4.675 -1.2325,-12.31392 -1.568,-16.97538 -0.7132,-9.90785 -1.7592,-13.30496 -9.1855,-29.83395 -3.7375,-8.318594 -6.93069,-13.830064 -9.84945,-17.000004 -2.37544,-2.57987 -4.33686,-4.08229 -4.35869,-3.33873 -0.0218,0.74357 2.38188,6.82398 5.3416,13.51201 2.95974,6.688044 6.59634,15.979664 8.08134,20.648064 6.6002,20.7487 10.1862,47.9195 9.3183,70.60289 -0.436,11.39478 -0.3542,12.08626 1.3777,11.63336 1.2852,-0.33609 1.8688,0.0822 1.9322,1.38512 0.05,1.02665 0.7615,-0.60837 1.5812,-3.63337 1.3294,-4.90593 1.3174,-7.28222 -0.1112,-22 z M 383.87515,436.70383 c 2.33214,-1.15645 6.07336,-1.99444 8.97251,-2.00973 4.75234,-0.0251 4.87549,0.0417 2.78142,1.50847 -1.20875,0.84664 -5.2314,1.74767 -8.9725,2.00973 l -6.78143,0.47504 z m 17.03262,-2.98316 c -0.87924,-1.42264 0.24199,-3.05279 2.09972,-3.05279 0.87615,0 1.37805,0.70256 1.19098,1.66713 -0.38952,2.00847 -2.38616,2.84922 -3.2907,1.38566 z M 1114.0793,211.03873 c -0.3461,-0.34604 -3.9954,-0.95875 -8.1096,-1.36158 -6.6076,-0.64696 -8.6831,-1.4129 -17.7875,-6.56421 -9.4394,-5.34086 -14.0017,-8.26109 -25.3071,-16.1986 -2.2,-1.54462 -4.8408,-2.6387 -5.8684,-2.43129 -1.0277,0.20741 -1.6008,-0.056 -1.2736,-0.58538 0.3272,-0.52937 -0.3406,-1.80907 -1.484,-2.84377 -2.0606,-1.86484 -4.874,-6.53838 -4.874,-8.09657 0,-0.44543 1.1705,-2.07224 2.6012,-3.61514 3.1835,-3.43333 2.3305,-4.89821 -1.0197,-1.75092 -2.3977,2.25256 -2.4163,2.25382 -3.496,0.23635 -1.4296,-2.67119 -1.3872,-6.89251 0.074,-7.3796 0.6378,-0.21259 -1.0352,-1.22472 -3.7177,-2.24917 -4.17,-1.59255 -5.7599,-1.71143 -10.9648,-0.81988 -3.5977,0.61627 -8.1099,2.30381 -11.0323,4.126 -5.3321,3.32475 -6.8933,2.62165 -3.7541,-1.69072 4.5623,-6.26745 20.4976,-9.99716 28.8701,-6.7572 2.1666,0.8384 6.7724,2.01737 10.2351,2.61992 3.4627,0.60256 11.3377,2.58619 17.5,4.40807 14.5847,4.312 31.0626,6.01539 48.8715,5.05208 14.2604,-0.77136 20.9027,-2.50013 26.3074,-6.84692 2.7634,-2.2225 3.0025,-2.95131 3.3662,-10.25741 0.3513,-7.05929 1.1598,-9.30202 3.3705,-9.3496 1.4186,-0.0305 2.9904,8.60094 2.4303,13.34578 -0.7745,6.5602 -4.2586,10.83265 -11.9029,14.5959 -8.5439,4.20616 -17.09,4.98673 -51.9394,4.74393 -20.5536,-0.14319 -29.0273,0.12685 -29.8517,0.95132 -1.7141,1.71408 13.441,2.73085 31.2795,2.09858 13.9462,-0.49432 17.0764,0.004 13.0227,2.07157 -1.6903,0.8623 -16.656,2.62072 -34.25,4.02426 l -8.5,0.67808 2.755,1.85593 c 2.2221,1.49693 3.0424,1.61738 4.241,0.6227 1.1556,-0.9591 2.8772,-0.98048 7.745,-0.0962 3.4424,0.62537 9.7833,1.49533 14.0908,1.93323 7.7372,0.78657 7.8268,0.76937 7.4076,-1.4231 -0.4119,-2.15488 -0.1023,-2.23788 10.6682,-2.85984 17.7679,-1.02602 40.2992,-4.4448 49.1883,-7.46357 9.9097,-3.36536 21.9753,-9.92269 20.6664,-11.23162 -0.5754,-0.57533 -0.2425,-2.92566 0.8704,-6.14689 0.9911,-2.86846 1.8167,-6.00288 1.8347,-6.96538 0.051,-2.72797 2.9179,-2.055 3.6487,0.85642 0.3598,1.43354 0.1855,4.13354 -0.3874,6 -0.5728,1.86647 -0.6881,3.39358 -0.2562,3.39358 0.4319,0 3.6733,-3.06146 7.2031,-6.80325 5.1351,-5.44353 6.9305,-8.2416 8.983,-14 1.9304,-5.41586 2.2329,-7.19675 1.2223,-7.19675 -1.5562,0 -2.7692,-3.93397 -2.8082,-9.10764 -0.018,-2.43378 0.8767,-4.79279 2.7509,-7.25 3.1828,-4.17288 5.1557,-4.66269 5.4301,-1.3481 0.1044,1.26185 0.8775,4.24343 1.7181,6.62573 0.8405,2.38231 1.5127,5.73739 1.4938,7.45574 -0.057,5.20421 -5.3668,17.02431 -10.4464,23.25622 l -4.7831,5.86805 2.8697,0.50771 c 6.4429,1.13985 3.7887,5.25951 -14.4005,22.35129 -18.8682,17.72992 -28.4151,22.8464 -54.3558,29.13105 -9.8867,2.39524 -18.7988,3.2273 -20.1453,1.8808 z m 29.2958,-26.45158 c 7.1389,-1.09574 22.3026,-4.94995 21.7296,-5.52304 -0.1983,-0.19822 -4.156,0.29389 -8.795,1.09359 -11.1575,1.92339 -36.3397,4.51019 -43.9062,4.51019 -3.8713,0 -6.0284,0.41089 -6.0284,1.1483 0,1.32435 25.9888,0.46107 37,-1.22904 z m -73.5646,-19.33217 c -5.1143,-2.22727 -7.4354,-2.77477 -7.4354,-1.75383 0,0.53243 1.6875,1.41625 3.75,1.96404 5.4192,1.43931 7.2352,1.33572 3.6854,-0.21021 z m 94.5306,-12.12808 c -1.0733,-1.29325 -0.793,-2.05685 1.7439,-4.75 5.5467,-5.88851 6.7058,-16.12603 2.7803,-24.55832 -3.2063,-6.88748 -3.2317,-9.1507 -0.1027,-9.1507 1.997,0 2.8557,1.10161 5.25,6.73525 5.3024,12.47619 3.4502,26.80092 -4.0575,31.37907 -3.7324,2.27603 -3.9976,2.29231 -5.614,0.3447 z m -2.3367,-7.74083 c -1.6636,-1.21647 -1.6472,-1.42567 0.3065,-3.90945 1.5675,-1.99279 2.0642,-4.07585 2.0642,-8.65745 0,-3.31829 0.359,-6.25512 0.7977,-6.52629 2.0822,-1.28682 3.4822,1.56896 3.9277,8.01152 0.4534,6.55782 0.3451,6.98603 -2.4319,9.6152 -2.4896,2.35699 -3.1587,2.56735 -4.6642,1.46647 z m 17.3707,0.29616 c 0,-0.54211 0.5433,-3.01711 1.2074,-5.5 1.0495,-3.92389 1.5567,-4.51435 3.8776,-4.51435 1.4685,0 3.2303,0.675 3.915,1.5 1.4018,1.68912 2.8635,1.87269 4.8564,0.60994 1.1229,-0.71154 1.0603,-1.48326 -0.364,-4.48469 -1.7476,-3.68272 -2.879,-4.42673 -3.9924,-2.62525 -1.1229,1.81693 -4.2437,1.04015 -5.885,-1.46482 -2.0611,-3.14559 -2.0516,-5.15367 0.028,-5.95173 0.9037,-0.34679 1.3528,-0.92092 0.9978,-1.27584 -0.6952,-0.69521 2.1765,-4.30761 3.4244,-4.30761 1.4366,0 13.9347,15.9371 13.9347,17.76899 0,2.45122 -5.5956,7.75243 -10.2179,9.68033 -4.141,1.72717 -11.7821,2.09361 -11.7821,0.56503 z m -157.1867,-12.94046 c -10.7067,-4.18643 -15.9326,-9.3219 -13.9389,-13.69763 1.0046,-2.20477 1.6436,-2.37635 8.8542,-2.37754 4.2743,-7e-4 11.4839,0.51749 16.0214,1.15154 7.155,0.99981 8.25,1.41459 8.25,3.12511 0,1.81006 -0.473,1.9186 -5.75,1.31957 -13.108,-1.48797 -23.25,-1.83056 -23.25,-0.78535 0,1.23484 4.5527,4.66191 10.8805,8.19041 2.4658,1.375 4.664,3.0625 4.8847,3.75 0.5222,1.62586 -0.305,1.5319 -5.9519,-0.67611 z m 131.3787,-3.81151 c -0.7194,-0.25725 -2.4177,-2.78402 -3.7739,-5.61505 -4.2748,-8.92353 -7.1712,-13.09989 -17.0864,-24.637164 -12.1736,-14.16494 -25.8175,-26.16471 -34.3317,-30.19456 -3.575,-1.69208 -7.2911,-3.76584 -8.2581,-4.60837 -1.6775,-1.46161 -1.6775,-1.62225 0,-3.50245 1.6892,-1.8934 1.6798,-1.94766 -0.2419,-1.38518 -1.1,0.32198 -3.35,0.89616 -5,1.27596 -5.0471,1.16176 -12.5425,5.31116 -22.6184,12.5215 -10.0254,7.17418 -11.3287,7.76627 -12.1846,5.53582 -0.3209,-0.83648 1.8181,-2.93681 5.6431,-5.54092 3.3879,-2.30659 8.9533,-6.13082 12.3676,-8.49829 11.1808,-7.75296 33.345,-13.15204 60.2923,-14.68689 20.0737,-1.14335 22.3312,-1.13156 25.6597,0.13393 6.0931,2.3166 3.1156,-2.04221 -5.0775,-7.43282 -6.2728,-4.12725 -14.3381,-7.16065 -21.5822,-8.11719 -3.025,-0.39944 -6.3392,-1.46525 -7.365,-2.36848 -1.4996,-1.32045 -3.9876,-1.62514 -12.6981,-1.55503 -10.2166,0.0822 -10.7771,-0.0173 -9.8498,-1.75 0.9062,-1.69317 0.4905,-1.83567 -5.3019,-1.81768 -11.1242,0.0346 -27.5115,2.70956 -33.6079,5.48604 -5.3808,2.4506 -20.1773,15.56858 -20.1773,17.88841 0,0.51922 3.3323,-2.28716 7.4052,-6.23638 6.5155,-6.31771 12.3868,-10.15759 15.5313,-10.15759 2.0453,0 -0.1959,2.84444 -4.7444,6.02136 -5.4312,3.79346 -15.4097,13.1864 -18.4056,17.32539 -2.0468,2.82784 -2.028,2.8237 2.8265,-0.62262 11.7608,-8.34922 30.4133,-16.6493 47.8377,-21.28697 7.8867,-2.09914 10.3332,-2.40101 12.2778,-1.51498 4.167,1.89861 2.0424,3.5341 -5.5913,4.30404 -8.8647,0.89411 -22.4177,5.33662 -35.6372,11.68148 -9.1393,4.38654 -16.0845,9.01743 -25.5,17.0028 -1.925,1.63262 -4.6916,3.25792 -6.1481,3.61178 -2.4619,0.59816 -2.6957,0.36161 -3.3253,-3.36458 -0.8108,-4.79905 -0.075,-6.38999 7.0843,-15.32565 14.2084,-17.73274 20.7047,-22.7133 33.1087,-25.38329 15.1979,-3.27138 46.4793,-2.75962 56.9412,0.93157 2.2832,0.80555 8.5233,2.39159 13.8669,3.52453 16.9398,3.59157 28.326,10.38466 46.3412,27.64754 12.0001,11.49894 19.1735,19.95436 24.6632,29.07084 3.9278,6.52279 4.3531,10.68826 1.4679,14.376764 -1.2947,1.65515 -1.963,4.08108 -1.9778,7.17857 -0.022,4.72181 -1.8098,7.82143 -4.5103,7.82143 -2.1275,0 -2.3141,-2.09496 -0.6967,-7.81945 l 1.503,-5.31946 -4.6883,-9.180544 c -7.5147,-14.71502 -11.2605,-19.53145 -20.6299,-26.5264 -4.675,-3.49022 -11.5511,-8.03439 -15.2802,-10.09815 l -6.7802,-3.75229 -21.7198,0.16019 c -16.2262,0.11966 -24.0594,0.61339 -30.9698,1.95203 -5.0875,0.98552 -9.25,2.18944 -9.25,2.67539 0,0.48594 3.0375,2.4157 6.75,4.28834 10.868,5.48201 24.9328,18.92824 45.6269,43.620344 7.7345,9.22881 9.8415,12.75787 10.3592,17.35138 0.5014,4.44824 -0.1768,5.7575 -2.5441,4.911 z m 50.9771,-37.893404 c -4.1561,-8.06854 -12.4937,-18.59573 -22.8087,-28.79894 -5.8773,-5.81352 -11.0219,-10.57004 -11.4324,-10.57004 -0.4106,0 0.1166,1.78648 1.1716,3.96996 1.2817,2.65282 4.465,5.88762 9.5949,9.75 9.3123,7.01134 20.9385,20.92787 22.5767,27.0242 0.6519,2.42589 1.5154,3.86922 2.0157,3.36898 0.5002,-0.50024 0.021,-2.53271 -1.1178,-4.74416 z m -39.1568,-38.34606 c -1.1397,-2.12941 -5.0123,-4.63987 -5.0123,-3.24923 0,1.86223 2.7469,4.30627 5.7852,5.14736 0.1568,0.0434 -0.191,-0.81074 -0.7729,-1.89813 z m 19.5673,52.810244 c -0.9771,-3.09057 -2.7841,-14.961974 -2.3444,-15.401654 0.2632,-0.26322 1.2138,-0.19643 2.1125,0.14843 2.1218,0.81418 3.8995,6.86139 3.4815,11.842764 -0.3226,3.84457 -2.4174,6.043 -3.2496,3.41046 z M 1047.0418,73.001206 c -1.8196,-1.81952 -0.073,-4.6749 5.8856,-9.62054 11.5116,-9.55509 22.9782,-13.79499 48.0674,-17.77346 20.4203,-3.23812 28.008,-3.58625 30.4281,-1.39606 1.0737,0.97169 1.9522,2.04321 1.9522,2.38115 0,0.33795 -3.2625,0.45571 -7.25,0.2617 -9.2136,-0.44829 -33.6316,2.97504 -45.2634,6.3458 -11.8292,3.42797 -19.664,7.72814 -26.816,14.71808 -6.4513,6.30509 -6.0636,6.0237 -7.0039,5.08333 z"
     id="path881" />
</svg>
