<?xml version="1.0" encoding="UTF-8" standalone="no"?>
<svg
   xmlns:dc="http://purl.org/dc/elements/1.1/"
   xmlns:cc="http://creativecommons.org/ns#"
   xmlns:rdf="http://www.w3.org/1999/02/22-rdf-syntax-ns#"
   xmlns:svg="http://www.w3.org/2000/svg"
   xmlns="http://www.w3.org/2000/svg"
   viewBox="0 0 561.06708 672.73029"
   height="672.73029"
   width="561.06708"
   id="svg875"
   version="1.1">
  <metadata
     id="metadata881">
    <rdf:RDF>
      <cc:Work
         rdf:about="">
        <dc:format>image/svg+xml</dc:format>
        <dc:type
           rdf:resource="http://purl.org/dc/dcmitype/StillImage" />
        <dc:title></dc:title>
      </cc:Work>
    </rdf:RDF>
  </metadata>
  <defs
     id="defs879" />
  <path
     id="path885"
     d="m 387.82537,668.54326 c -8.23555,-8.51118 -9.30406,-10.94569 -9.30406,-21.19842 0,-11.47464 -0.9215,-13.0937 -6.9892,-12.27985 -3.43887,0.46125 -5.32616,1.59561 -9.48039,5.69824 -5.60659,5.53694 -10.0927,7.42865 -20.37573,8.59204 -3.78003,0.42766 -6.63727,0.25008 -8.03801,-0.49957 -1.79439,-0.96033 -2.61257,-0.81752 -4.69329,0.81917 -2.22719,1.7519 -3.54283,1.91599 -11.32158,1.41203 -5.47428,-0.35467 -15.17272,0.0978 -25.65508,1.19702 -20.34683,2.13355 -29.5106,1.66494 -38.27868,-1.95746 -6.87379,-2.8398 -8.3105,-2.72875 -14.39817,1.11289 -2.05157,1.29465 -4.95195,2.35391 -6.44528,2.35391 -1.54796,0 -3.85953,1.09638 -5.37723,2.55043 l -2.66208,2.55044 -3.58383,-2.11451 -3.58382,-2.11451 -1.63117,3.15432 c -1.39591,2.6994 -2.01734,3.06036 -4.30881,2.50278 -4.15364,-1.0107 -6.75107,-4.40944 -9.19292,-12.02895 -1.23382,-3.85 -2.86422,-7.71495 -3.62311,-8.58879 -1.19367,-1.37446 -1.00761,-2.07206 1.37929,-5.17137 1.5175,-1.97042 4.76577,-6.20546 7.21838,-9.41121 5.23092,-6.83721 7.22348,-8.60766 12.29071,-10.92065 2.0625,-0.94145 3.75,-2.05383 3.75,-2.47196 0,-0.41812 -1.9125,-1.08052 -4.25,-1.47198 -7.7745,-1.30202 -30.88206,-8.46892 -42.14028,-13.06997 C 127.81769,577.03377 87.636113,546.20057 55.980303,504.22273 10.426926,443.81574 -8.5330624,366.96557 3.5710446,291.79326 12.935169,233.63756 40.545938,179.79239 82.533193,137.80514 125.6099,94.728421 179.0399,67.829683 240.52131,58.267777 c 16.21054,-2.521147 53.20983,-3.08658 70.5,-1.0774 34.77042,4.040449 64.27008,12.870579 95.71305,28.649784 7.54217,3.78493 13.94584,6.50503 14.23036,6.04466 0.28453,-0.46037 0.019,-4.69714 -0.58999,-9.41504 l -1.10731,-8.578 5.87695,-8.728226 c 8.04783,-11.952356 16.14282,-20.401808 24.14505,-25.202317 3.70254,-2.221139 8.01687,-5.427476 9.58741,-7.125194 2.53707,-2.742519 3.42944,-3.068006 8.00176,-2.918594 9.01356,0.29454 9.95133,-0.426933 11.20974,-8.624189 0.33774,-2.2 1.34079,-4.812604 2.229,-5.805788 2.59875,-2.905874 21.15922,-12.4118195 27.84899,-14.2631545 10.60644,-2.935243 13.78114,-0.98038197 16.43772,10.1217295 2.44025,10.198024 2.40445,14.091632 -0.18338,19.941844 -2.62592,5.93632 -2.06723,9.254519 2.73609,16.250333 3.45439,5.031178 3.53563,5.345001 1.9931,7.699208 -0.88445,1.349833 -3.2189,3.714599 -5.18767,5.255035 -4.94311,3.867669 -6.44087,7.189094 -6.44087,14.283252 0,7.987391 -2.0081,12.480041 -8.09093,18.101581 l -4.99909,4.61997 0.29501,7.978619 c 0.28525,7.71474 0.19044,8.09781 -2.86675,11.58229 -4.32769,4.93257 -4.656,6.5533 -2.87931,14.21422 2.00951,8.66484 1.94745,10.99448 -0.50434,18.93246 l -2.04541,6.62228 8.4901,11.30359 c 50.83,67.67426 68.35421,154.594 47.61362,236.16253 -13.03083,51.2476 -37.95925,94.73714 -75.72494,132.10799 -15.89504,15.72886 -39.04087,33.56831 -55.37027,42.67617 l -3.19879,1.78415 0.54838,8.0007 c 0.62399,9.10392 2.63401,13.41448 5.78836,12.41333 1.63311,-0.51833 1.94436,-0.13321 1.94436,2.40586 0,1.66264 -1.125,4.68076 -2.5,6.70694 -2.88161,4.24629 -3.10521,8.10334 -0.98,16.90486 1.5394,6.37537 1.87972,12.29478 0.85968,14.95295 -0.34118,0.8891 -2.59118,2.97252 -5,4.62983 -2.40882,1.65732 -4.37968,3.58006 -4.37968,4.27276 0,0.6927 2.025,2.68681 4.5,4.43135 7.31038,5.15283 6.53711,6.21675 -8.09126,11.13244 -10.4129,3.49913 -11.71773,3.12958 -13.3774,-3.78869 -1.13324,-4.72386 -4.06298,-9.13064 -6.0703,-9.13064 -1.38947,0 -1.16079,4.66738 0.53896,11 2.55881,9.53317 1.93736,10.08858 -4.19594,3.75 z M 283.02684,644.78431 c 1.63927,-2.65239 -2.71575,-6.99105 -7.0174,-6.99105 -2.24438,0 -3.75267,3.63718 -2.48813,6 0.78989,1.47593 2.09382,2 4.97617,2 2.14819,0 4.1864,-0.45403 4.52936,-1.00895 z m 31.96286,-0.3374 c 4.22373,-0.98135 5.29606,-1.73853 7.15467,-5.05196 1.20247,-2.14367 2.96267,-7.89467 3.91157,-12.77999 0.97089,-4.99853 2.5747,-9.96226 3.6679,-11.35205 1.06845,-1.35831 1.60956,-2.46965 1.20247,-2.46965 -0.40709,0 -5.72725,0.66307 -11.82258,1.4735 -6.09533,0.81042 -13.6892,1.74521 -16.87527,2.07731 -4.81418,0.5018 -5.70355,0.8864 -5.2643,2.2765 0.2907,0.91998 0.93268,3.84121 1.42662,6.49163 0.85154,4.56924 0.77118,4.86718 -1.5508,5.75 -1.34688,0.51208 -3.74028,0.93106 -5.31867,0.93106 -4.30655,0 -8.00064,1.72125 -7.99503,3.72525 0.008,2.90866 4.21783,7.25454 8.49503,8.76986 4.76583,1.68842 16.04855,1.7663 22.96839,0.15854 z m -65.96471,-1.65771 c 3.66158,-4.04601 -2.34414,-10.14769 -7.90654,-8.03287 -3.0854,1.17306 -3.92538,2.59297 -3.21302,5.43125 1.0885,4.33695 8.07071,5.97056 11.11956,2.60162 z m 128.98893,-13.99403 c 21.3821,-5.51315 26.50892,-8.97523 27.29304,-18.43066 0.43544,-5.25083 -2.12227,-19.04323 -3.71385,-20.02688 -0.38962,-0.2408 -3.15267,0.69745 -6.1401,2.08498 -2.98744,1.38754 -9.46298,4.08234 -14.39009,5.98845 -4.92712,1.90611 -9.0975,3.60476 -9.26752,3.77478 -0.17002,0.17002 0.4107,3.11886 1.29048,6.55299 1.95102,7.61559 1.23287,9.87396 -5.12368,16.11244 -4.51002,4.42625 -5.60027,6.94199 -3.00847,6.94199 0.78783,0 6.66491,-1.34914 13.06019,-2.99809 z m -55.64853,-24.49263 c 5.31075,-0.83291 14.71842,-2.71124 20.90592,-4.17405 l 11.25,-2.65967 v -6.20825 c 0,-3.41454 -0.88506,-11.32904 -1.96679,-17.58778 -1.08173,-6.25874 -2.44814,-16.52693 -3.03646,-22.8182 -1.14615,-12.25655 -1.04956,-11.96279 -12.23836,-37.22127 -7.04008,-15.89282 -8.06639,-17.60444 -17.29292,-28.84006 -9.0622,-11.03551 -10.54989,-13.66536 -19.51647,-34.5 -10.1548,-23.59558 -14.7309,-32.75282 -15.98125,-31.98007 -1.18974,0.7353 -1.2051,11.63148 -0.0293,20.75204 0.48018,3.72458 0.51868,16.99958 0.0856,29.5 -0.70379,20.31218 -0.58724,23.70369 1.09648,31.90697 2.03798,9.92919 1.77792,11.85097 -2.39545,17.70167 -1.92356,2.69667 -2.20204,4.27126 -2.05497,11.61939 0.0936,4.675 0.68894,11.425 1.32307,15 0.63412,3.575 1.49583,15.725 1.9149,27 0.79947,21.50921 1.18667,23.43754 6.34782,31.61333 l 2.50861,3.97391 9.71182,-0.78179 c 5.3415,-0.42998 14.05698,-1.46326 19.36774,-2.29617 z m -57.84408,1.84415 c 0,-0.35562 -1.35469,-4.87565 -3.01043,-10.04451 -2.7794,-8.67672 -3.00693,-10.4881 -2.96489,-23.60343 0.0271,-8.45411 -0.53942,-17.24202 -1.39927,-21.70549 -0.79465,-4.125 -1.76082,-13.35 -2.14705,-20.5 -0.38622,-7.15 -1.3362,-16.825 -2.11106,-21.5 -0.77486,-4.675 -2.05938,-17.725 -2.85449,-29 -0.79511,-11.275 -1.90256,-22.08117 -2.461,-24.01372 -2.87103,-9.9356 -11.41774,-18.94469 -14.18274,-14.95003 -1.14223,1.65021 -0.46705,33.84858 1.06893,50.976 0.81839,9.12569 1.55823,11.95314 5.60908,21.43631 5.05969,11.84488 4.85564,9.85791 2.82937,27.55144 -0.53331,4.65695 0.83957,11.67806 6.53885,33.44053 1.97488,7.54099 3.35947,15.7391 3.75784,22.25 l 0.63079,10.30947 h 5.34804 c 2.94141,0 5.34803,-0.29096 5.34803,-0.64657 z M 232.1723,591.96204 c -0.83981,-4.76783 -2.02596,-12.63902 -2.63589,-17.49154 -2.42251,-19.27332 -23.44366,-89.52751 -29.41934,-98.3215 -2.78906,-4.10447 -3.27736,-8.49236 -1.59705,-14.35124 2.10171,-7.32824 -1.75522,-12.54901 -11.96528,-16.19626 -5.34095,-1.9079 -6.95632,-3.0454 -9.31383,-6.55854 -1.56871,-2.33766 -3.76319,-4.73784 -4.87662,-5.33374 -2.86304,-1.53225 -6.98982,0.38859 -9.40241,4.37642 -1.74047,2.87686 -1.94057,5.17056 -1.94057,22.24386 0,21.1126 -0.37928,22.59016 -6.80433,26.50776 -4.33903,2.64567 -9.23693,2.45429 -17.72695,-0.69266 -6.44891,-2.39039 -7.4946,-3.17413 -10.72367,-8.03747 -2.59566,-3.90934 -3.60091,-6.53687 -3.66151,-9.57047 -0.11327,-5.66999 2.36028,-6.13772 7.03011,-1.32934 6.03589,6.21496 9.1894,4.51341 12.47169,-6.72939 1.79941,-6.16352 2.54645,-7.39786 5.25609,-8.68467 4.55469,-2.16302 7.85998,-9.37656 8.41064,-18.35554 0.38463,-6.2718 0.17748,-7.41929 -1.69592,-9.39446 -3.8506,-4.0598 -9.05615,-1.91431 -9.05615,3.73253 0,4.83176 -7.62351,10.03 -20.24244,13.80273 -5.04723,1.50898 -8.06431,3.20854 -12,6.75975 -2.89166,2.60917 -6.72006,5.35997 -8.50756,6.11289 -3.928057,1.65455 -7.137417,0.57494 -14.927057,-5.02136 -8.57081,-6.15751 -15.96601,-9.04272 -23.30548,-9.09254 l -6.48254,-0.044 -4.75424,-13.5 c -4.624857,-13.1326 -4.738508,-13.73305 -4.176069,-22.06339 0.699649,-10.36256 -0.114713,-12.65682 -7.963996,-22.43661 -6.061135,-7.55185 -8.638406,-13.49328 -8.644421,-19.92814 -0.0021,-2.23952 -0.659707,-8.11279 -1.461363,-13.05171 -0.801656,-4.93892 -1.189504,-10.11392 -0.861885,-11.5 1.358173,-5.74611 5.962688,-7.61545 10.857811,-4.40804 1.353215,0.88666 5.013489,5.63946 8.133942,10.56178 9.136561,14.41235 13.324591,15.14702 21.040221,3.69094 5.84488,-8.67843 9.18077,-10.60389 25.63653,-14.79724 6.512787,-1.65963 13.379267,-3.96794 15.258837,-5.12958 6.39305,-3.95111 13.4639,-19.96772 15.84477,-35.89093 1.65325,-11.05684 3.15548,-14.8011 7.22155,-17.99947 l 2.70656,-2.12899 2.2892,2.29069 c 1.53882,1.53982 3.10297,5.56864 4.77173,12.29069 1.36539,5.5 3.4203,12.7 4.56648,16 1.14617,3.3 3.4637,11.625 5.15006,18.5 2.76408,11.26872 6.0037,20 7.42071,20 2.76099,0 5.60807,-25.3858 5.83192,-52 l 0.0967,-11.5 3.62118,-5 c 1.99165,-2.75 3.94043,-6.77221 4.33063,-8.93824 0.39019,-2.16603 2.05383,-6.60144 3.69696,-9.85647 2.59324,-5.13718 4.15026,-10.0866 7.27499,-23.1256 0.38491,-1.60617 3.75322,-6.10617 7.48514,-10 3.73191,-3.89383 8.72112,-9.77969 11.08712,-13.07969 2.366,-3.3 7.97401,-9.825 12.46224,-14.5 9.57509,-9.97354 11.6843,-12.81266 17.04174,-22.93924 2.2,-4.15842 4.74837,-7.69872 5.66303,-7.86734 1.042,-0.19209 2.82991,1.38942 4.78773,4.23501 5.83428,8.47984 8.69662,8.34453 17.26807,-0.81634 l 5.71882,-6.11209 3.11222,1.75 c 4.65703,2.61865 6.46903,2.21646 14.64206,-3.25 10.63262,-7.11153 14.03997,-6.55818 15.05474,2.44484 0.63208,5.60776 2.04125,7.08022 14.55731,15.21117 13.84858,8.9966 16.45853,10.25583 23.66081,11.41572 3.41929,0.55066 7.25485,1.6813 8.52346,2.51253 3.5337,2.31537 6.34102,10.12291 8.05281,22.39593 1.77466,12.72379 2.52597,15.12232 6.04789,19.30789 1.39299,1.65547 3.82796,5.57584 5.41105,8.71192 3.40981,6.7548 7.61194,12 9.61364,12 4.17562,0 4.22439,-11.68261 0.10544,-25.25465 -2.30895,-7.60803 -2.52082,-9.37615 -1.61767,-13.5 2.71038,-12.37574 2.3982,-15.89956 -2.51766,-28.41887 -2.52103,-6.42043 -4.58372,-12.55283 -4.58372,-13.62755 0,-3.53563 2.4416,-4.57697 7.65412,-3.26444 3.52283,0.88706 4.83544,0.89142 5.37534,0.0178 1.45149,-2.34855 6.20358,-35.09368 5.62214,-38.74032 -0.32552,-2.04161 0.007,-5.73701 0.73848,-8.21201 1.21809,-4.12029 1.65378,-4.55265 5.16337,-5.12399 4.28173,-0.69704 8.089,-4.3625 9.00904,-8.67347 0.31722,-1.4864 1.176,-4.66744 1.90839,-7.068989 l 1.33164,-4.36645 -11.15126,-5.27068 C 324.06227,57.151796 241.3265,56.704086 169.02131,89.071311 139.25314,102.39695 113.57546,120.44474 88.486423,145.67599 45.621922,188.78345 20.408665,240.28281 11.319544,303.29326 c -1.9043314,13.20179 -1.5839534,55.97035 0.522908,69.80519 6.560036,43.07691 20.503387,79.45937 43.751751,114.16169 11.2629,16.81189 21.61113,29.0968 37.19198,44.1525 21.293887,20.57617 42.156127,35.16017 69.235127,48.39964 21.19821,10.36423 37.9078,16.25934 60.55523,21.36377 8.82032,1.98798 10.49749,2.12864 10.78373,0.90444 0.18644,-0.79731 -0.34815,-5.35061 -1.18797,-10.11845 z m 149.43363,-4.05734 c 17.80658,-7.35413 17.18235,-6.99798 16.50637,-9.41747 -0.33714,-1.20668 -2.14915,-9.24189 -4.0267,-17.85601 -4.18505,-19.2008 -6.3168,-24.58954 -16.25793,-41.09745 -11.01131,-18.28503 -16.17881,-23.84244 -17.92891,-19.28175 -0.96118,2.50481 1.3752,7.65509 8.57927,18.91196 4.75937,7.43685 7.16611,12.26554 7.61911,15.28637 0.60346,4.02419 0.0576,11.07777 -2.50276,32.34291 -1.00838,8.37492 -2.13208,25 -1.68977,25 0.15727,0 4.52287,-1.74985 9.70132,-3.88856 z m 54.41538,-29.61828 c 13.4996,-9.43872 26.6642,-20.82665 39.65581,-34.30396 63.21664,-65.57999 88.95737,-157.52435 69.20306,-247.1892 -4.88833,-22.18817 -14.18838,-47.52065 -24.597,-67 -7.91146,-14.80599 -26.68311,-43.01692 -28.60653,-42.99125 -0.36044,0.005 -2.45534,2.80182 -4.65534,6.21558 -3.29235,5.10877 -4.028,7.16087 -4.15827,11.59957 -0.12632,4.304 -0.795,6.27937 -3.31214,9.78442 -1.73462,2.41542 -3.71263,4.39168 -4.39556,4.39168 -1.61792,0 -6.48163,5.21826 -10.68222,11.46093 -1.83597,2.72851 -4.87857,6.66601 -6.76133,8.75 -3.0725,3.40088 -3.92353,3.78907 -8.30684,3.78907 -5.98684,0 -6.30496,1.40463 -1.52807,6.74712 3.29785,3.68832 4.33663,6.2956 5.28017,13.25288 0.40653,2.9976 -0.38162,4.79189 -5.49068,12.5 -12.00841,18.11726 -15.72964,23.01052 -19.00016,24.98444 -8.4886,5.12328 -10.81941,8.10988 -13.10214,16.78856 -3.45044,13.1182 -4.93687,17.19491 -7.57157,20.76604 -2.8724,3.89333 -3.1025,6.83945 -0.87119,11.15434 2.27663,4.40251 1.98769,8.84317 -1,15.36916 -3.00624,6.56649 -3.12822,7.92901 -1.13658,12.69566 1.60669,3.84536 4.8242,6.81118 11.89787,10.96718 6.62949,3.89503 6.43087,4.82278 -3.94327,18.41933 -3.47248,4.5511 -6.84891,10.06143 -7.50318,12.24518 -1.05091,3.50763 -0.94043,4.44844 0.94779,8.07107 2.83235,5.43397 2.70592,7.99994 -0.91653,18.60145 -1.67964,4.91568 -3.06714,10.94974 -3.08333,13.40904 -0.0319,4.84593 -0.88707,6.99844 -4.51134,11.35528 -3.09124,3.71606 -2.98961,4.58899 1.13886,9.78254 1.91967,2.4149 3.49467,4.87223 3.5,5.46073 0.005,0.5885 -1.56529,2.91004 -3.49029,5.15897 -1.925,2.24893 -3.5,5.05038 -3.5,6.22545 0,2.43327 3.14533,5.75415 7.81299,8.24907 3.83223,2.04837 4.19547,5.24474 1.05041,9.24305 l -2.13661,2.71625 2.18064,4.6686 c 1.19935,2.56774 2.72444,5.76485 3.38908,7.1047 0.66464,1.33985 3.79311,3.94637 6.95215,5.79228 9.5609,5.58667 10.16131,8.59006 6.75134,33.77163 -1.1,8.12316 -2,16.10321 -2,17.73346 v 2.96409 l 3.75,-2.20586 c 2.0625,-1.21323 7.8,-5.03757 12.75,-8.49853 z M 149.46856,476.84601 c 2.72231,-2.72231 4.43379,-9.47225 3.05499,-12.04857 -1.47759,-2.7609 -2.39229,-2.55003 -7.0014,1.61402 -3.83319,3.46307 -6.19044,8.47468 -5.23591,11.1318 0.7101,1.97668 6.98485,1.50022 9.18232,-0.69725 z M 107.5548,444.96722 c 1.24028,-1.00432 2.97764,-3.76984 3.86079,-6.1456 2.21707,-5.96416 3.95548,-6.85079 8.9852,-4.58271 5.12006,2.30883 11.33758,1.63173 14.8178,-1.61368 4.44671,-4.1467 11.30272,-19.89684 11.30272,-25.96547 0,-4.0942 -3.7838,-6.31623 -9.2657,-5.44126 -6.36428,1.01581 -8.12521,2.68364 -12.72173,12.04915 -6.21024,12.6535 -8.05021,13.77065 -25.448907,15.45149 -6.76033,0.6531 -9.25623,1.30078 -10.25,2.65985 -1.91297,2.61613 -1.61289,5.76415 0.84764,8.8922 4.89141,6.21842 13.272527,8.42061 17.872187,4.69603 z m 5.04606,-23.88002 c 5.77069,-3.40883 7.4125,-12.29394 2.2717,-12.29394 -3.25756,0 -9.3142,2.61657 -12.0876,5.22204 -2.47441,2.32458 -2.947367,5.69424 -1.06365,7.57796 1.74037,1.74037 7.53275,1.47094 10.87955,-0.50606 z m -32.063947,-9.13696 c 1.91642,-1.01366 4.3844,-3.4876 5.4844,-5.49764 1.84249,-3.3668 1.87907,-3.8714 0.46449,-6.40699 -4.2026,-7.533 -19.87366,-5.88184 -23.0326,2.4268 -1.10978,2.91893 0.96023,8.58153 3.72441,10.18832 2.87588,1.67171 9.52398,1.31814 13.3593,-0.71049 z M 120.5488,389.11271 c 1.35988,-0.9243 5.84751,-4.42641 9.97251,-7.78248 4.125,-3.35606 9.4125,-7.3312 11.75,-8.83364 4.76601,-3.06338 5.56446,-6.20379 2.32311,-9.13716 -2.34161,-2.11914 -7.97536,-3.49868 -11.52037,-2.821 -6.67243,1.27551 -20.55274,18.29579 -20.55274,25.20212 0,2.04566 0.3,4.01938 0.66667,4.38604 1.20098,1.20099 4.83956,0.69981 7.36082,-1.01388 z"
     style="fill:#000000" />
</svg>
