<?xml version="1.0" encoding="UTF-8" standalone="no"?>
<svg
   xmlns:dc="http://purl.org/dc/elements/1.1/"
   xmlns:cc="http://creativecommons.org/ns#"
   xmlns:rdf="http://www.w3.org/1999/02/22-rdf-syntax-ns#"
   xmlns:svg="http://www.w3.org/2000/svg"
   xmlns="http://www.w3.org/2000/svg"
   viewBox="0 0 1531.6469 2552.7302"
   height="2552.7302"
   width="1531.6469"
   id="svg882"
   version="1.1">
  <metadata
     id="metadata888">
    <rdf:RDF>
      <cc:Work
         rdf:about="">
        <dc:format>image/svg+xml</dc:format>
        <dc:type
           rdf:resource="http://purl.org/dc/dcmitype/StillImage" />
        <dc:title></dc:title>
      </cc:Work>
    </rdf:RDF>
  </metadata>
  <defs
     id="defs886" />
  <g
     transform="translate(-0.23434218,-0.0459033)"
     id="g1466">
    <path
       id="path1480"
       d="m 175,2551.6026 c -11.8784,-1.5862 -15.77283,-2.6773 -29.5,-8.2649 -33.38588,-13.5895 -72.378648,-40.6545 -99.59803,-69.1311 C 26.689151,2454.1063 17.549333,2438.806 8.4433069,2411.5 0.74235369,2388.4073 0.47455,2385.075 0.6077996,2314 c 0.25556914,-136.3199 4.2031461,-348.6173 9.3902529,-505 2.2774795,-68.6622 4.1206555,-130.4336 5.9826615,-200.5 1.081596,-40.7 2.216191,-79.625 2.521321,-86.5 0.305131,-6.875 1.66238,-52.325 3.016109,-101 1.35373,-48.675 2.916588,-99.525 3.473019,-113 0.556431,-13.475 2.124441,-61.85 3.484468,-107.5 1.360026,-45.65 2.718838,-86.375 3.019581,-90.5 0.300743,-4.125 1.658662,-42.825 3.017598,-86 1.358935,-43.175 2.908119,-88.85 3.442631,-101.5 0.534512,-12.65 1.227215,-34.25 1.539341,-48 0.312126,-13.75 0.996375,-41.425 1.520553,-61.5 0.524178,-20.075 1.855648,-72.5 2.958822,-116.5 1.103174,-44 2.684585,-106.55 3.514246,-139 1.707719,-66.79282 3.033614,-120.95822 4.528548,-185 2.155244,-92.32894 4.943752,-198.50234 5.528514,-210.5 1.70628,-35.00809 5.125139,-73.076506 8.082746,-90 3.249054,-18.591157 9.230937,-30.890078 20.419118,-41.982278 8.423622,-8.351359 14.596381,-12.367391 27.650581,-17.98962 15.50991,-6.6798643 27.46724,-9.2148587 46.10957,-9.7753787 18.40065,-0.5532537 24.94247,0.3398643 35.59558,4.859662 10.18971,4.3231947 18.0771,9.4325927 25.78337,16.7022917 18.86515,17.796425 28.8617,44.769017 34.44359,92.935323 l 0.49253,4.25 18.18872,-0.006 c 17.11372,-0.006 48.89107,-0.41221 235.18873,-3.00565 41.8,-0.58189 110.65,-1.48648 153,-2.01019 344.4103,-4.25906 380.7951,-4.83716 381.5523,-6.06233 0.36,-0.58242 0.9309,-5.63914 1.2687,-11.237147 1.6667,-27.618529 9.28,-51.64697 21.3763,-67.46628 8.4239,-11.016646 22.5477,-22.0522092 34.1729,-26.7010079 15.3166,-6.1249117 55.5596,-5.6113032 76.1298,0.9716214 21.554,6.8977365 35.9385,18.4825955 45.4883,36.6348905 9.8316,18.687813 21.9901,82.275163 32.0051,167.382583 4.1296,35.09326 23.0666,183.699 24.0208,188.5 0.2732,1.375 3.4091,25.675 6.9685,54 3.5594,28.325 9.1825,72.2 12.4958,97.5 3.3132,25.3 8.7313,67.15 12.0401,93 3.3088,25.85 7.5676,58.475 9.4638,72.5 1.8963,14.025 5.2781,39.9 7.5153,57.5 6.472,50.91748 18.4043,139.27675 27.0085,200 4.3642,30.80001 10.4354,74.22501 13.4915,96.50001 3.056,22.275 10.2481,74.25 15.9822,115.5 5.7341,41.25 12.0435,86.925 14.0209,101.5 1.9773,14.575 8.0938,59.35 13.5922,99.5 5.4985,40.15 11.9791,87.85 14.4014,106 2.4223,18.15 8.2313,60.675 12.9089,94.5 4.6775,33.825 10.3463,75.45 12.5972,92.5 2.251,17.05 7.4381,56.2 11.5271,87 17.9557,135.2516 25.6511,194.7168 37.0111,286 4.1067,33 8.1486,65.4 8.9818,72 18.13,143.605 20.8704,166.8863 22.4236,190.5 2.6654,40.5256 -0.3002,70.5919 -9.5977,97.3029 -12.2769,35.2708 -42.3083,76.6144 -71.4159,98.3167 -18.0478,13.4562 -33.1978,21.0978 -53.4971,26.9835 -19.3077,5.5982 -17.7399,5.5214 -130.9334,6.4174 -57.75,0.4571 -137.85,1.3116 -178,1.8987 -40.15,0.5872 -113.05,1.5194 -162,2.0714 -48.95,0.5521 -121.79185,1.4691 -161.87078,2.0377 -40.07893,0.5686 -154.15393,1.461 -253.5,1.9831 -99.34607,0.5222 -213.25422,1.1542 -253.12922,1.4046 -55.10062,0.3459 -74.77992,0.1507 -82,-0.8134 z m 275,-39.6017 c 42.625,-0.5284 131.95,-1.4178 198.5,-1.9764 66.55,-0.5586 155.2,-1.475 197,-2.0365 41.8,-0.5614 122.35,-1.4627 179,-2.0029 96.5334,-0.9204 186.7469,-2.1562 281.5,-3.8562 l 40.5,-0.7267 13.5525,-4.5955 c 25.7214,-8.722 54.0056,-23.032 72.6695,-36.7662 11.7732,-8.6636 28.6492,-25.2248 35.741,-35.0745 19.207,-26.6761 26.363,-58.3683 20.514,-90.8509 -2.2301,-12.3851 -6.564,-26.8365 -10.7358,-35.7988 l -2.7074,-5.8163 -0.6385,18 c -0.355,10.0087 -1.3668,21.6006 -2.2789,26.1101 -6.0948,30.1329 -21.9203,53.1694 -43.8563,63.8399 -16.4626,8.0081 -21.5963,8.9442 -49.2601,8.9825 -26.6918,0.037 -34.7601,-0.9761 -51.5,-6.4659 -12.7884,-4.1939 -20.8134,-8.8452 -29.504,-17.1004 -9.24,-8.7771 -13.363,-16.4677 -17.352,-32.3662 -7.0738,-28.1931 -8.1108,-35.7932 -23.6738,-173.5 -2.4552,-21.725 -4.9091,-43.1 -5.453,-47.5 -0.5439,-4.4 -3.2578,-28.925 -6.0309,-54.5 -2.773,-25.575 -8.6228,-78.9 -12.9996,-118.5 -4.3767,-39.6 -8.6552,-79.2 -9.5077,-88 -0.8526,-8.8 -4.4696,-43.45 -8.0377,-77 -3.5682,-33.55 -7.8368,-74.95 -9.4859,-92 -1.649,-17.05 -4.1033,-41.125 -5.4538,-53.5 -1.3505,-12.375 -4.9595,-47.25 -8.0199,-77.5 -3.0605,-30.25 -8.4479,-82.675 -11.972,-116.5 -3.5241,-33.825 -8.4741,-82.425 -11,-108 -5.3528,-54.1982 -9.5639,-95.7232 -16.53,-163 -5.1653,-49.8853 -9.7839,-96.5293 -21.9328,-221.5 -3.8496,-39.6 -8.1595,-82.8 -9.5774,-96 -1.418,-13.2 -3.8823,-36.825 -5.4762,-52.5 -4.891,-48.0976 -11.9641,-115.59874 -13.9888,-133.5 -1.0575,-9.35 -3.5327,-32.525 -5.5005,-51.5 -1.9677,-18.975 -4.2283,-39.9 -5.0234,-46.5 -0.7952,-6.6 -3.9467,-36.075 -7.0034,-65.5 -3.0567,-29.425 -6.6496,-62.95 -7.9841,-74.5 -4.959,-42.91931 -26.1456,-247.47544 -28.9488,-279.5 -0.8426,-9.625 -1.8029,-20.38144 -2.1341,-23.9032 l -0.6022,-6.40319 -70.154,0.66891 c -38.5847,0.3679 -109.754,1.11256 -158.154,1.6548 -140.97244,1.57935 -274.26301,2.89656 -402,3.97264 -65.45,0.55137 -127.6625,1.27835 -138.25,1.61552 l -19.25,0.61303 -0.24985,293.14074 c -0.38097,446.97091 -0.35005,470.88139 1.16208,898.64075 1.16706,330.1422 1.19315,437.7813 0.15031,620 -1.61048,281.4023 -2.58597,375.8488 -4.0126,388.5 -3.77773,33.5004 -7.14644,42.9163 -19.81569,55.387 -8.3856,8.2541 -14.65513,12.3536 -27.16463,17.7619 -21.12091,9.1315 -59.72288,14.5726 -80.06962,11.2861 -15.64461,-2.527 -25.13534,-7.6577 -39.934268,-21.5888 -19.351214,-18.2164 -30.004841,-40.0545 -33.149235,-67.9502 -0.613511,-5.4428 -1.43556,-11.471 -1.826776,-13.396 l -0.711302,-3.5 -2.192282,6.5142 c -5.03415,14.9587 -7.97335,41.9358 -6.183125,56.751 5.505024,45.5576 31.327473,79.023 79.992958,103.6695 26.47875,13.41 54.6499,22.6131 82.50403,26.9527 4.01455,0.6254 148.12197,-0.1918 244.5,-1.3865 z m 196,-86.9514 c -1.925,-0.469 -11.375,-1.3452 -21,-1.9472 -40.27413,-2.5189 -48.98706,-6.1439 -48.99626,-20.3846 -0.007,-10.4673 5.97065,-22.3711 34.5062,-68.7177 7.17645,-11.6558 14.18786,-26.3966 18.55022,-39 2.82115,-8.1507 3.34934,-11.2044 3.71878,-21.5 0.55265,-15.401 -0.46414,-20.5059 -7.82191,-39.271 -27.00116,-68.863 -48.46427,-164.0441 -54.9603,-243.729 -1.76021,-21.5919 -2.38683,-90.2523 -1.09517,-120 2.74592,-63.2403 7.7578,-103.8624 17.23695,-139.7084 l 3.09617,-11.7083 -5.00561,-11.2917 c -13.74417,-31.004 -28.58109,-77.6341 -49.22326,-154.701 -22.36214,-83.4883 -32.88094,-134.3963 -35.96089,-174.0405 -2.10002,-27.0308 -0.95217,-79.8397 2.98978,-137.5501 1.08947,-15.95 3.10532,-46.775 4.47967,-68.5 2.71139,-42.8605 6.75056,-91.7189 9.0938,-110 0.81073,-6.325 1.71955,-13.75 2.01961,-16.5 0.46255,-4.2391 -3.26587,-20.5794 -24.50039,-107.37595 -13.77528,-56.30678 -25.31375,-102.64374 -25.64105,-102.97104 -1.16817,-1.16818 -2.2241,2.13999 -3.40876,10.67948 -3.54232,25.53449 -12.98032,68.42726 -20.53742,93.33622 C 441.59307,946.5865 440,952.5632 440,953.45026 c 0,0.88705 0.87392,4.20702 1.94204,7.37769 2.79565,8.29875 4.05943,23.29441 4.04764,48.02805 -0.016,33.6078 -3.16587,61.3645 -10.43903,91.9897 -5.83657,24.5761 -8.40128,43.2398 -10.5313,76.6372 -1.32469,20.7706 -1.31505,53.6092 0.0168,57.1121 0.56987,1.4989 5.89071,8.8407 11.82408,16.3151 15.05592,18.9664 15.54443,19.665 20.00307,28.6083 5.62462,11.282 7.19663,18.2769 7.00774,31.1821 -0.17935,12.2528 1.60364,19.583 9.66262,39.7245 2.4565,6.1395 4.46636,11.9049 4.46636,12.8121 0,2.54 -4.00132,4.7629 -8.57328,4.7629 -8.59428,0 -15.92565,-4.2678 -19.2978,-11.2337 -2.1707,-4.484 -6.12892,-21.8673 -6.12892,-26.9162 0,-3.8334 -3.2562,-10.1199 -6.60696,-12.7556 -1.46452,-1.152 -2.97984,-2.0945 -3.36738,-2.0945 -2.59135,0 -7.1565,25.15 -7.15875,39.4383 -0.001,8.1461 0.46314,10.4258 4.59614,22.5617 5.36969,15.7672 9.53695,31.5216 9.53695,36.0546 0,4.404 -6.2873,22.7967 -10.59502,30.9943 -7.58799,14.4399 -13.46831,18.3741 -23.9554,16.0272 -5.457,-1.2212 -5.7375,-1.4638 -17.24839,-14.9178 C 348.93717,1398.0976 339,1379.9668 339,1353.5638 c 0,-19.1242 3.24809,-37.4953 15.12061,-85.5219 6.00351,-24.2854 7.86096,-33.35 7.37684,-36 -0.35588,-1.9481 -6.89074,-32.7919 -14.52192,-68.5419 -18.20324,-85.2773 -20.04885,-96.2146 -22.13867,-131.1967 -1.30177,-21.7906 -0.16704,-44.87634 3.1361,-63.8033 1.89067,-10.83355 1.89096,-11.40099 0.0191,-37.5 -7.1326,-99.44742 -4.97339,-157.30145 7.18991,-192.64735 2.09016,-6.0739 2.09467,-6.27106 0.37716,-16.5 C 334.60306,716.15869 333.57678,704.525 333.2785,696 c -2.13248,-60.94594 19.10955,-111.84333 56.93342,-136.41648 17.00404,-11.04706 32.83422,-16.49238 50.28808,-17.29824 11.5903,-0.53513 12.22192,-0.68199 18.5,-4.3013 8.26949,-4.76736 26.29,-13.76274 36,-17.97027 4.125,-1.78745 18.3,-8.55025 31.5,-15.02846 13.2,-6.47821 30.75,-14.79766 39,-18.48766 8.25,-3.69001 15.34044,-7.02445 15.75653,-7.40988 0.41609,-0.38542 0.35965,-9.96745 -0.12542,-21.2934 l -0.88195,-20.59262 -5.50203,-6.85085 C 568.07229,422.03968 566.03018,418.10731 562.49098,406.75 L 559.76429,398 h -4.9276 c -6.15675,0 -8.75444,-2.33651 -12.99469,-11.68819 C 537.37087,376.45095 535,365.96905 535,356.06254 535,345.9978 536.38999,343 541.0567,343 c 2.56943,0 2.9433,-0.36212 2.9433,-2.85078 0,-1.56792 -0.4368,-4.15542 -0.97066,-5.75 -0.53386,-1.59457 -1.66716,-8.52422 -2.51845,-15.39922 -0.8513,-6.875 -2.25725,-16.775 -3.12434,-22 -1.7661,-10.64231 -1.38513,-17.05781 1.75177,-29.5 2.24912,-8.92091 8.29129,-22.57455 12.33756,-27.87948 6.45803,-8.46693 22.19645,-17.68796 40.79235,-23.89998 L 604.5,211.63449 623,211.56724 c 11.65837,-0.0424 21.27363,0.44019 26,1.30486 21.53919,3.9405 47.85781,16.64105 58.53319,28.24629 7.69688,8.3673 15.0012,22.63871 19.64428,38.38161 1.76206,5.97445 2.17474,11.10222 2.8168,35 0.41375,15.4 0.8093,28.1125 0.879,28.25 0.0697,0.1375 1.44459,0.25 3.0553,0.25 6.35419,0 8.57143,5.9496 8.57143,23 0,10.34288 -0.41076,13.82845 -2.38025,20.19805 -2.84361,9.19662 -5.02497,11.55577 -11.08214,11.98542 l -4.46239,0.31653 -2.16568,11.06388 c -2.22045,11.34362 -3.5711,14.8373 -8.55017,22.1163 -1.92059,2.80775 -2.85814,5.43428 -2.85563,8 0.007,6.96321 4.90873,37.66177 6.21416,38.91662 0.70515,0.67783 10.7321,5.26868 22.2821,10.20189 11.55,4.93321 27.975,12.21048 36.5,16.17173 8.525,3.96124 24.75768,11.16992 36.07263,16.01929 11.31494,4.84938 26.04552,11.56053 32.73462,14.91367 11.73611,5.88313 12.43392,6.09723 19.92737,6.11398 17.98156,0.0402 42.36638,8.54628 62.05432,21.64618 11.44584,7.6158 27.77577,23.47583 37.41303,36.33646 21.4817,28.66666 37.77713,79.38042 37.79273,117.61611 l 0.01,13.11611 4.477,9.45096 c 17.3002,36.52108 29.9735,98.08514 38.5596,187.31353 2.8093,29.19516 3.0066,30.36775 7.326,43.53437 7.4224,22.6259 12.0015,46.64302 14.5795,76.46892 1.87,21.6345 1.2249,59.7653 -2.4026,142 l -1.3233,30 6.9841,19.5 c 28.5011,79.5767 33.5632,99.1594 30.868,119.4126 -2.7456,20.6321 -9.2686,33.6944 -38.3654,76.828 -11.9583,17.7271 -11.9713,17.7418 -17.1933,19.3879 -3.4776,1.0962 -6.4892,1.4103 -9.0022,0.9389 -7.8624,-1.475 -18.9033,-15.591 -27.2382,-34.8245 -3.3272,-7.6777 -3.4979,-8.5957 -2.9186,-15.6987 0.3384,-4.1493 2.2304,-15.6442 4.2044,-25.5442 3.9143,-19.6311 4.3282,-27.3151 2.0466,-38 -1.9758,-9.2528 -6.5125,-24.7844 -7.5454,-25.8321 -1.1453,-1.1616 -4.5121,1.141 -6.43971,4.4042 -1.29682,2.1953 -1.61649,5.7281 -1.61649,17.8643 0,15.648 -0.85013,19.9834 -4.78814,24.4182 -6.16478,6.9426 -23.08122,7.4995 -24.04173,0.7916 -0.18143,-1.2671 0.83613,-6.9594 2.26125,-12.6496 4.90908,-19.6009 5.24974,-25.7807 2.54226,-46.1173 -2.2067,-16.5751 1.21934,-26.8652 17.8768,-53.6928 10.52576,-16.9523 10.47116,-16.6871 7.08014,-34.3857 -8.25654,-43.0927 -19.27077,-84.5059 -28.06035,-105.5062 -14.77949,-35.3116 -23.89659,-66.601 -30.32303,-104.0672 -3.95738,-23.07162 -5.08138,-37.59658 -3.54106,-45.75992 l 1.2871,-6.82139 -7.53494,-16.32305 C 919.08378,914.69868 909.93964,891.24498 900.78117,863.5 c -7.32356,-22.18627 -9.08066,-26.59024 -10.14739,-25.43333 -0.8104,0.8789 -16.79795,199.35393 -16.37799,203.32203 0.23931,2.2612 2.55902,11.3113 5.1549,20.1113 9.34909,31.6932 33.58148,130.7002 47.97187,196 11.46428,52.0219 18.94368,92.7517 22.21981,121 2.27602,19.6249 1.47376,82.332 -1.52246,119 -8.27101,101.2216 -18.36795,178.0379 -27.78882,211.4142 -3.03508,10.7527 -3.74772,7.0691 6.0721,31.3864 19.45097,48.1675 37.54258,124.2365 51.06231,214.6994 6.82367,45.6584 9.09177,99.3826 6.56485,155.5 -2.27818,50.5933 -6.17544,80.2788 -16.56868,126.2038 -3.33551,14.7388 -3.40755,15.5016 -2.35523,24.9389 2.59412,23.2643 14.01638,45.7285 40.60466,79.8573 34.0995,43.7702 41.3289,55.2477 41.3289,65.6139 0,5.2894 -3.7715,9.1435 -11.0855,11.3283 -8.8444,2.6419 -45.89458,6.4126 -71.21794,7.2481 -25.9539,0.8562 -36.72644,-4.4523 -44.69397,-22.0243 -4.70866,-10.3847 -8.44039,-32.8169 -9.5099,-57.166 -0.77693,-17.6881 -2.03099,-29.3385 -5.05915,-47 -2.19168,-12.7828 -3.65412,-24.6673 -7.99856,-65 -4.74401,-44.0421 -12.63198,-88.472 -19.55306,-110.1346 -4.54467,-14.2246 -18.75809,-52.4055 -32.75825,-87.9972 -10.47986,-26.6421 -13.37064,-36.5938 -16.08347,-55.3682 -3.67132,-25.4077 -4.51236,-43.5234 -4.52654,-97.5 l -0.0137,-52 -5.78462,-8.5 c -27.75572,-40.7846 -48.14433,-114.0232 -57.67011,-207.1586 -1.08802,-10.6378 -6.04954,-75.8164 -11.02559,-144.8414 -4.97606,-69.025 -9.25202,-126.0625 -9.50214,-126.75 -0.65549,-1.8017 -37.11975,-1.8017 -37.72003,0 -0.22906,0.6875 4.85016,54.8 11.28714,120.25 6.43699,65.45 12.19783,125.525 12.80187,133.5 4.07332,53.7785 3.51992,110.1828 -1.465,149.3183 -3.89446,30.5745 -12.43132,60.7713 -22.55213,79.7718 l -2.97764,5.5902 5.59087,27.4098 c 11.49078,56.3348 17.50858,107.0452 16.08071,135.5078 -0.6885,13.7242 -1.28743,17.0919 -9.45457,53.1629 -6.22244,27.482 -14.54076,68.6935 -16.29676,80.7392 -1.97606,13.5552 -1.6629,74.7769 0.54221,106 0.97109,13.75 1.98308,39.625 2.24888,57.5 0.36977,24.8674 0.95347,35.9053 2.48542,47 2.65335,19.216 3.57045,45.0201 1.99116,56.0246 -2.1736,15.1459 -8.3487,24.3712 -18.49318,27.628 -5.7827,1.8565 -32.70025,2.831 -38.58649,1.3969 z m -471,-31.025 c 13.94447,-3.8136 30.37938,-16.7972 35.96091,-28.4092 4.27862,-8.9014 2.64426,-24.5349 -4.15449,-39.74 -1.6908,-3.7814 -3.35145,-6.8738 -3.69031,-6.872 -0.33886,0 -1.34589,3.7668 -2.23785,8.3667 -2.47072,12.7418 -6.66478,20.2636 -16.4781,29.5527 -9.54037,9.0308 -13.81746,11.3806 -24.87814,13.668 -15.75124,3.2574 -27.23524,0.2079 -38.45508,-10.2117 l -5.5143,-5.121 2.88366,-9.879 c 4.27451,-14.6439 5.51948,-20.379 4.42384,-20.379 -2.09825,0 -6.7268,3.0841 -9.68506,6.4534 -7.12977,8.1203 -8.8355,26.7836 -3.84284,42.0466 3.63738,11.1198 6.37094,14.741 13.90795,18.4237 8.23983,4.0261 14.56716,5.0065 30.25981,4.6887 9.8727,-0.2 15.04478,-0.8225 21.5,-2.5879 z m 1220.8482,-15.1087 c 21.9178,-5.2984 28.3772,-12.7551 29.8127,-34.4158 1.0649,-16.0668 -3.7013,-29.6888 -12.4049,-35.4538 -5.0089,-3.3178 -6.9317,-3.4495 -6.456,-0.4425 0.608,3.8436 4.3355,18.0822 6.3302,24.1802 2.4062,7.3563 1.9655,8.5455 -5.4051,14.5852 -11.1283,9.1188 -22.3069,11.3605 -38.2633,7.6734 -8.4191,-1.9455 -10.3668,-2.8433 -17.227,-7.9405 -12.9253,-9.6037 -19.5392,-19.8302 -22.6008,-34.9453 -0.818,-4.0389 -1.687,-7.543 -1.9311,-7.7871 -0.6445,-0.6445 -5.5973,13.0896 -7.2554,20.1192 -1.662,7.0458 -1.8698,19.4505 -0.4138,24.6928 2.4732,8.9047 12.8226,19.3422 26.0937,26.316 8.666,4.5539 12.3503,5.2575 28.2359,5.3928 9.9025,0.084 14.8478,-0.3701 21.4849,-1.9746 z M 150.05011,2351.784 c 5.9292,-6.4916 6.26747,-14.9422 0.92123,-23.0136 -2.79979,-4.2269 -7.08872,-7.3197 -8.37157,-6.0368 -0.32987,0.3298 -0.59977,2.2528 -0.59977,4.2731 0,2.0204 -0.94764,7.2329 -2.10587,11.5833 -3.45891,12.9922 -3.47462,12.0858 0.24892,14.3559 4.60283,2.8062 6.48431,2.5855 9.90706,-1.1619 z m 1242.74469,-15.1803 c 1.058,-1.0334 0.8487,-2.804 -1.1444,-9.6842 -1.3415,-4.6307 -2.7641,-11.457 -3.1613,-15.1695 -0.8534,-7.9777 -2.0773,-8.5267 -7.1106,-3.1899 -3.8399,4.0715 -6.9263,13.1128 -5.8916,17.259 2.46,9.8576 12.1044,15.8671 17.3079,10.7846 z M 180.52865,2302.7338 c -0.33212,-7.0214 -0.83811,-13.3767 -1.1244,-14.1227 -0.2863,-0.7461 -2.72516,-2.5564 -5.41969,-4.023 -14.88313,-8.1004 -36.37105,-11.1555 -60.48456,-8.5994 -10.67794,1.1318 -24.572489,4.5245 -25.681494,6.2707 -0.909575,1.4322 -1.118682,24.7406 -0.221956,24.7406 0.328103,0 2.690603,-1.8628 5.25,-4.1396 8.92637,-7.9408 23.25633,-12.8077 37.81436,-12.843 17.97026,-0.044 32.42479,9.5465 44.03792,29.2177 l 4.80117,8.1325 0.81626,-5.9338 c 0.44894,-3.2636 0.54452,-11.6786 0.21239,-18.7 z m 1174.93095,0.016 c 10.9825,-21.1478 25.0464,-30.775 44.8957,-30.7326 15.42,0.033 29.0372,4.6944 38.0904,13.0394 2.3529,2.1687 4.6324,3.9432 5.0657,3.9432 1.0108,0 -0.3467,-26.2353 -1.4126,-27.3012 -2.2773,-2.2773 -12.7247,-3.9433 -27.6992,-4.417 -24.7931,-0.7844 -42.2842,2.2138 -55.9237,9.5858 l -6.9759,3.7705 -0.6415,5.9309 c -1.2564,11.6167 -0.8614,33.431 0.6054,33.431 0.1268,0 1.9249,-3.2625 3.9957,-7.25 z m -1122.82403,-39 c -2.66786,-113.7734 -4.6033,-489.186 -4.59743,-891.75 0.005,-336.1864 0.6909,-468.75328 5.00396,-967 0.58799,-67.925 1.15656,-161.975 1.26349,-209 0.18104,-79.62123 0.067,-86.1532 -1.65837,-95 C 230.3896,89.424232 219.83296,57.116521 216.37827,51.210262 210.29921,40.817279 200.95057,33.714601 187.57841,29.329417 180.36109,26.962612 177.58136,26.63411 161.5,26.247536 140.59045,25.744897 133.8709,26.856846 122.86345,32.641095 106.93025,41.013754 96.323643,55.459871 88.529314,79.403914 81.702083,100.37705 81.898293,96.688659 78.523261,267.5 c -0.793317,40.15 -1.701528,79.3 -2.018247,87 -0.316718,7.7 -1.458973,58.325 -2.538345,112.5 -1.079371,54.175 -2.398892,117.625 -2.932269,141 -0.533377,23.375 -1.434753,65.225 -2.003058,93 -0.568305,27.775 -1.492682,69.625 -2.05417,93 -0.561489,23.375 -1.684898,78.05 -2.496465,121.5 -0.811566,43.45 -1.935409,94.075 -2.497428,112.5 -0.562019,18.425 -2.135183,74.9 -3.495921,125.5 -1.360738,50.6 -3.358286,123.725 -4.438995,162.5 -1.08071,38.775 -2.451091,89.175 -3.045291,112 -0.594201,22.825 -1.509122,56.35 -2.033159,74.5 -1.916701,66.3849 -2.969762,106.3594 -4.452026,169 -0.832937,35.2 -2.197696,88.75 -3.032799,119 -5.860706,212.293 -10.962595,406.3501 -12.119991,461 l -0.677709,32 5.168109,-5.6531 c 14.897621,-16.2958 37.580622,-28.7122 61.884179,-33.8749 13.846444,-2.9414 40.209424,-3.7138 54.091034,-1.5849 19.13962,2.9353 41.5305,12.056 55.43168,22.5794 7.93701,6.0085 18.70272,16.8674 22.98473,23.1837 1.78908,2.639 3.66271,4.8098 4.16361,4.824 0.54265,0.015 0.63352,-11.7957 0.22484,-29.2242 z m 1064.48663,17.4856 c 14.4231,-26.0479 46.243,-48.7997 78.8778,-56.3992 10.7929,-2.5133 41.8361,-3.6406 53,-1.9247 22.659,3.4827 40.2447,11.2536 58.1127,25.6793 4.338,3.5023 7.8873,5.9084 7.8873,5.347 0,-0.5614 -1.1152,-8.9896 -2.4782,-18.7294 -1.3631,-9.7397 -4.2995,-31.6586 -6.5254,-48.7086 -2.2258,-17.05 -5.6017,-42.25 -7.5019,-56 -1.9002,-13.75 -5.4893,-40.975 -7.9757,-60.5 -2.4864,-19.525 -4.7438,-36.625 -5.0166,-38 -0.2727,-1.375 -4.3025,-31.75 -8.955,-67.5 -4.6526,-35.75 -10.265,-78.725 -12.4721,-95.5 -2.207,-16.775 -7.1778,-55.025 -11.0461,-85 -3.8682,-29.975 -9.9583,-76.55 -13.5335,-103.5 -3.5752,-26.95 -7.8602,-59.8 -9.5223,-73 -1.662,-13.2 -4.5725,-35.25 -6.4677,-49 -4.1331,-29.9858 -12.1339,-91.1671 -17.5889,-134.5 -2.1809,-17.325 -5.2949,-41.175 -6.9198,-53 -1.625,-11.825 -7.6764,-58.175 -13.4477,-103 -5.7712,-44.825 -11.8398,-91.4 -13.4856,-103.5 -1.6458,-12.1 -5.9216,-44.95 -9.5017,-73 -13.9238,-109.09212 -16.8355,-131.7708 -23.5595,-183.5 -3.8248,-29.425 -10.5462,-81.85 -14.9365,-116.5 -4.3903,-34.65 -9.8217,-76.95 -12.0698,-94 -3.831,-29.05429 -26.7877,-211.21439 -40.0129,-317.5 -3.2508,-26.125 -11.8251,-94.975 -19.0542,-153 -7.229,-58.025 -13.543,-109.25132 -14.0309,-113.83626 -1.5584,-14.643133 -2.8285,-20.770489 -6.4799,-31.260575 -11.6252,-33.39835 -29.9133,-53.510499 -53.1312,-58.430318 -16.4057,-3.476322 -42.8541,-0.07685 -58.8696,7.566625 -7.8228,3.733483 -18.0349,13.004543 -21.6589,19.663186 -4.8458,8.903234 -10.7035,33.105551 -12.7668,52.747952 -1.6932,16.11998 -0.7845,25.28846 28.0029,282.54939 7.1699,64.075 13.9218,123.925 15.004,133 1.0823,9.075 6.0226,53.175 10.9785,98 4.9559,44.825 15.3289,137.975 23.0511,207 7.7223,69.025 18.0624,163.525 22.9779,210 10.0832,95.3328 16.79,158.3338 24.0057,225.5 2.718,25.3 5.8687,55 7.0014,66 1.1328,11 3.6071,34.4 5.4986,52 1.8914,17.6 4.1493,39.425 5.0174,48.5 2.2613,23.6383 12.0467,118.4545 14.9646,145 1.3603,12.375 5.1936,49.275 8.5184,82 3.3249,32.725 7.3677,71.875 8.984,87 1.6164,15.125 3.8374,36.95 4.9356,48.5 1.0982,11.55 4.6923,48 7.9869,81 13.5789,136.0125 19.6092,198.6074 30.5871,317.5 7.55,81.7686 9.366,99.0123 10.4244,98.9856 0.3134,-0.01 1.7499,-2.1454 3.1921,-4.75 z"
       style="fill:#cbcbcb" />
    <path
       id="path1478"
       d="M 176.5,2551.5233 C 130.44216,2545.1928 55.732586,2494.0333 26.052346,2448.5 18.631508,2437.1155 14.529162,2428.0907 8.9845764,2410.9523 2.9801021,2392.3925 2.3995553,2389.4068 0.92426623,2369.5 c -1.35318936,-18.2593 0.0323559,-165.4711 2.62592477,-279 4.4202731,-193.4897 5.7955938,-244.7455 9.471869,-353 0.541655,-15.95 1.875221,-62.525 2.963482,-103.5 1.08826,-40.975 2.444843,-88.225 3.014629,-105 0.569786,-16.775 2.154716,-69.875 3.522066,-118 1.367351,-48.125 2.928688,-98.3 3.469639,-111.5 0.540951,-13.2 1.887533,-54.6 2.992405,-92 1.104873,-37.4 2.462707,-78.575 3.017411,-91.5 0.554703,-12.925 2.123824,-58.15 3.486934,-100.5 1.363111,-42.35 2.926333,-88.25 3.473829,-102 0.547495,-13.75 1.466033,-45.25 2.041194,-70 0.575162,-24.75 1.482699,-60.975 2.016749,-80.5 0.53405,-19.525 1.643865,-63.175 2.466255,-97 0.82239,-33.825 1.952374,-79.05 2.511075,-100.5 2.445555,-93.89124 3.058733,-118.67104 4.02107,-162.5 0.561541,-25.575 1.687088,-72.6 2.501214,-104.5 3.905824,-153.04225 3.244373,-135.05922 6.583972,-179 C 64.966797,68.675036 68.590844,53.035529 80.030982,37.820882 93.325915,20.139476 116.94461,8.0191332 147,3.4545711 c 25.98849,-3.94691582 46.31139,0.4097401 65.5,14.0413519 22.64189,16.084829 35.73023,44.61349 41.34456,90.118767 l 1.71314,13.88531 43.97115,-0.24462 c 24.18413,-0.13455 75.02115,-0.69967 112.97115,-1.25584 37.95,-0.55617 108.6,-1.4598 157,-2.00808 48.4,-0.54827 117.25,-1.44771 153,-1.99874 35.75,-0.55104 103.25,-1.4443 150,-1.98503 46.75,-0.54073 104.65056,-1.28105 128.6679,-1.64515 l 43.6679,-0.662 0.6812,-9.60027 c 1.5063,-21.227044 6.6043,-43.32001 13.043,-56.524377 7.7231,-15.838314 22.3989,-30.393128 38.831,-38.5109099 22.4534,-11.0923764 66.6618,-8.7443599 93.578,4.9701499 14.4968,7.386516 24.6819,17.585022 31.4118,31.452962 10.2297,21.080179 21.0713,79.002605 32.1025,171.511905 4.3567,36.53652 19.7286,157.13232 23.5174,184.5 1.599,11.55 4.0667,30.675 5.4837,42.5 2.5736,21.47698 11.6463,91.73955 20.0143,155 2.4373,18.425 5.8123,44.525 7.5,58 1.6877,13.475 5.2848,41.15 7.9934,61.5 2.7087,20.35 6.7556,51.4 8.9932,69 5.5751,43.85054 15.0889,113.88194 27.5099,202.5 19.0074,135.6096 60.2393,435.1921 69.0908,502 0.8381,6.325 5.3067,38.95 9.9305,72.5 11.3809,82.5807 18.4299,135.2183 35.4878,265 16.725,127.249 22.0353,168.5145 30.4985,237 7.3543,59.5123 14.2811,114.6337 17.9699,143 12.586,96.7834 15.27,131.9958 12.0814,158.5 -5.0761,42.1925 -19.0914,74.8634 -46.9602,109.4677 -27.5919,34.2605 -61.0965,55.4681 -100.5939,63.6733 -11.754,2.4418 -17.1562,2.5637 -171.5,3.8684 -64.35,0.544 -149.175,1.4292 -188.5,1.9671 -247.92388,3.391 -383.77985,4.8201 -571.5,6.0115 -83.6,0.5306 -177.425,1.1773 -208.5,1.4372 -44.5164,0.3724 -58.62099,0.1811 -66.5,-0.9019 z m 160.5,-37.541 c 148.21907,-1.6752 273.6205,-2.9918 377.5,-3.9636 184.52352,-1.7261 390.4481,-3.9912 456,-5.0157 35.75,-0.5587 88.85,-1.2731 118,-1.5876 l 53,-0.5717 10.7912,-2.978 c 27.2345,-7.5157 60.4414,-23.936 83.4367,-41.2581 11.6659,-8.7879 28.954,-26.4313 35.4433,-36.1721 14.1588,-21.2527 20.1718,-40.9629 20.2677,-66.4355 0.057,-15.2523 -1.0339,-22.518 -6.0768,-40.4597 -2.5432,-9.0482 -9.2497,-24.9861 -10.1394,-24.0963 -0.265,0.2649 -0.5951,7.3609 -0.7336,15.7689 -0.5818,35.3184 -8.869,59.2069 -27.4068,79.002 -6.5884,7.0352 -8.6677,8.5332 -18.6,13.4002 -15.827,7.7555 -24.2972,9.3548 -49.6329,9.3718 -28.6746,0.019 -48.4789,-3.9159 -66.0749,-13.1287 -8.271,-4.3305 -21.5287,-17.4664 -25.0885,-24.8582 -3.239,-6.7254 -7.8967,-24.0963 -11.1276,-41.5 -3.8404,-20.6872 -13.1617,-99.8333 -32.5643,-276.5 -1.7215,-15.675 -6.2562,-56.625 -10.0771,-91 -3.8208,-34.375 -8.4885,-77.8 -10.3726,-96.5 -1.8841,-18.7 -6.3619,-61.9 -9.9508,-96 -3.5888,-34.1 -7.6412,-73.25 -9.0054,-87 -1.3641,-13.75 -4.7425,-46.825 -7.5076,-73.5 -15.4234,-148.7918 -20.1114,-194.5468 -29.0982,-284 -5.4427,-54.175 -12.3828,-122.575 -15.4225,-152 -5.4277,-52.5416 -7.4492,-72.9689 -21.5236,-217.5 -3.8563,-39.6 -8.3582,-84.6 -10.0042,-100 -1.6461,-15.4 -5.4897,-52.3 -8.5414,-82 -3.0518,-29.7 -7.1003,-68.175 -8.9967,-85.5 -1.8964,-17.325 -4.5877,-42.525 -5.9807,-56 -1.393,-13.475 -3.8699,-36.425 -5.5042,-51 -1.6344,-14.575 -5.2474,-48.325 -8.029,-75 -2.7816,-26.675 -6.1569,-58.175 -7.5006,-70 -6.0678,-53.39828 -26.4881,-251.24802 -29.2604,-283.5 l -1.7191,-20 -57.5,0.26814 c -31.625,0.14747 -96.875,0.70514 -145,1.23925 -48.125,0.53412 -128.9,1.43292 -179.5,1.99735 -50.6,0.56442 -146,1.46315 -212,1.99718 -66,0.53402 -136.87894,1.26591 -157.50874,1.62642 l -37.50875,0.65547 0.0508,537.1081 c 0.0279,295.40945 0.43789,680.88309 0.91103,856.60809 1.09485,406.6367 -1.17148,787.6055 -4.83941,813.5 -2.9792,21.0323 -3.63671,24.51 -5.65293,29.8988 -4.10169,10.9628 -15.15581,23.0958 -27.87438,30.5951 -18.53854,10.9309 -48.66516,18.0061 -76.67097,18.0061 -21.82758,0 -34.98308,-4.5949 -49.505224,-17.2911 -19.414954,-16.9737 -29.564451,-33.0671 -35.402334,-56.1351 -2.40635,-9.5086 -4.491469,-24.0622 -4.496255,-31.3828 -0.0016,-2.3721 -0.416961,-4.0531 -0.92416,-3.7396 -1.417,0.8757 -5.793669,15.0145 -7.753826,25.0486 -1.293819,6.6231 -1.763318,14.0179 -1.77773,28 -0.017,16.4935 0.279867,20.1834 2.250305,27.9706 9.786261,38.6755 36.323333,68.2833 80.702594,90.0413 26.5017,12.993 58.73704,23.186 81.5,25.7706 6.67929,0.7584 43.95243,0.6724 130,-0.3002 z M 173.81286,2395.0451 c 11.01185,-2.6501 20.31125,-8.3008 29.47985,-17.9131 7.79237,-8.1695 10.68493,-14.5838 10.69752,-23.722 0.0145,-10.5449 -5.12426,-28.0252 -10.22318,-34.7755 -1.27299,-1.6853 -1.57685,-1.009 -3.14533,7 -2.67795,13.6743 -7.00606,21.6378 -16.73319,30.7884 -9.41934,8.8611 -12.93554,10.8815 -22.86863,13.1408 -15.85169,3.6054 -28.28271,0.5864 -39.29178,-9.5422 l -5.22812,-4.81 1.73606,-6.3558 c 4.25143,-15.5645 6.11077,-23.8422 5.494,-24.459 -1.1846,-1.1846 -6.3548,1.6319 -9.94198,5.4159 -6.43539,6.7885 -9.55499,19.729 -7.77748,32.2621 1.28955,9.0926 5.04242,19.995 8.39637,24.3922 7.94847,10.421 35.32335,14.3739 59.40589,8.5782 z m 1220.44774,-15.1022 c 12.2839,-2.735 19.8553,-6.2601 24.6739,-11.4877 4.2937,-4.6581 5.4526,-7.9037 7.131,-19.9713 2.5365,-18.2364 -3.2552,-35.0037 -14.1365,-40.926 -2.7852,-1.5159 -5.3461,-2.4741 -5.6909,-2.1294 -0.8249,0.825 1.1069,10.0009 4.867,23.1176 3.5534,12.3956 3.4697,12.6901 -5.5445,19.4959 -7.5795,5.7225 -14.0146,7.9617 -22.8213,7.9409 -14.7695,-0.035 -27.0797,-5.228 -37.7959,-15.9442 -8.4756,-8.4756 -11.7476,-15.0568 -14.9343,-30.0387 l -1.808,-8.5 -3.0234,6.5578 c -4.8647,10.5518 -6.5709,18.2608 -6.6272,29.9422 -0.044,9.1408 0.2639,11.1472 2.3783,15.5 5.2583,10.8251 23.7908,24.5963 36.4687,27.0993 10.0139,1.977 26.3412,1.6862 36.8631,-0.6564 z M 149.26922,2353.6263 c 7.29667,-6.7623 8.18232,-14.7574 2.69841,-24.3593 -2.41741,-4.2328 -6.9503,-8.267 -9.2888,-8.267 -0.23128,0 -0.73094,2.7439 -1.11036,6.0976 -0.37943,3.3537 -1.80035,9.9296 -3.15761,14.6133 -2.73868,9.4506 -2.4947,10.4698 3.08875,12.9032 4.1486,1.808 4.84893,1.719 7.76961,-0.9878 z M 1393.2698,2337.25 c 1.4453,-1.6011 1.3695,-2.4731 -0.8908,-10.25 -1.3587,-4.675 -2.7874,-11.6444 -3.1747,-15.4875 -0.521,-5.1691 -1.112,-7.0657 -2.2711,-7.2881 -4.4601,-0.8555 -11.9332,10.7374 -11.9332,18.5118 0,5.0982 2.8528,11.2162 6.607,14.1693 3.327,2.6171 9.4481,2.7979 11.6628,0.3445 z M 180.92971,2308.3151 c 0.0387,-9.4517 -0.35821,-18.3119 -0.88193,-19.6894 -0.66532,-1.7499 -3.15109,-3.5548 -8.25,-5.99 -11.92841,-5.6971 -17.41653,-6.7971 -36.72821,-7.3612 -18.75103,-0.5478 -31.1364,0.5931 -41.683388,3.8397 l -6.113818,1.882 -0.636182,4.6415 c -0.833827,6.0834 -0.819487,21.8457 0.02064,22.6858 0.361251,0.3612 2.779328,-1.3285 5.373502,-3.7551 10.075196,-9.4242 23.888546,-13.9889 40.527576,-13.3926 8.89357,0.3188 10.80364,0.7298 16.5,3.5507 11.4556,5.6729 20.24728,15.0485 27.4502,29.2735 2.3847,4.7095 2.89753,5.2126 3.56815,3.5 0.43075,-1.1 0.81481,-9.7332 0.85346,-19.1849 z m 1174.45819,-3.8967 c 7.9774,-15.5387 16.3146,-24.0506 28.4429,-29.0391 4.6883,-1.9284 7.4928,-2.3359 16.2091,-2.3556 16.8904,-0.038 28.2975,3.8623 38.4599,13.1501 l 5.5002,5.0269 v -13.0353 c 0,-7.1693 -0.4147,-14.1259 -0.9215,-15.459 -2.7795,-7.3107 -44.2282,-8.9342 -68.6472,-2.6888 -8.4706,2.1664 -22.1352,8.5348 -23.3475,10.8812 -2.1351,4.1322 -2.3192,41.1115 -0.2047,41.0969 0.3415,0 2.3705,-3.4121 4.5088,-7.5773 z M 232.86715,2239.5 c -0.41117,-21.45 -1.33699,-93.9 -2.05737,-161 -1.75263,-163.2491 -1.78002,-1145.88233 -0.0368,-1321.5 0.66876,-67.375 1.66409,-188.875 2.21184,-270 0.54775,-81.125 1.45651,-192.5 2.01948,-247.5 1.19896,-117.13416 0.84636,-129.19741 -4.371,-149.542135 C 227.11758,76.248755 221.08677,59.010723 217.01159,51.022718 211.81532,40.837196 198.89861,31.489715 184.5,27.494949 175.50088,24.998223 147.74942,24.334276 138.09406,26.384697 113.96798,31.508136 98.065001,48.114397 88.127618,78.560815 80.733156,101.21616 81.294017,90.552199 77.506829,280.5 c -0.789547,39.6 -1.689195,77.85 -1.999219,85 -0.310024,7.15 -1.222107,48.55 -2.026851,92 -0.804744,43.45 -1.918444,96.325 -2.474889,117.5 -0.556444,21.175 -1.674657,73.15 -2.484916,115.5 -0.81026,42.35 -1.719067,83.975 -2.019572,92.5 -0.300505,8.525 -0.992259,39.575 -1.537233,69 -2.093533,113.03715 -2.977448,154.606 -3.955079,186 -0.556641,17.875 -1.697075,58.375 -2.534299,90 -0.837223,31.625 -2.637708,96.65 -4.001077,144.5 -1.363369,47.85 -2.922786,105.675 -3.465371,128.5 -0.542585,22.825 -1.670241,64.675 -2.505902,93 -1.817087,61.5907 -2.966806,105.3114 -4.983263,189.5 -0.829925,34.65 -2.188253,87.525 -3.018506,117.5 -4.17021,150.559 -5.589755,202.9421 -6.503837,240 -0.549441,22.275 -1.881716,74.475 -2.960611,116 -1.078896,41.525 -2.256528,87.3885 -2.616961,101.9188 l -0.655333,26.4188 7.868045,-8.0157 c 16.355577,-16.6624 35.925032,-27.2284 60.868045,-32.8643 11.28939,-2.5508 42.88781,-3.1151 55.58107,-0.9927 17.26417,2.8868 39.09049,11.8593 51.60965,21.216 8.23643,6.1559 18.74145,16.7219 24.16777,24.3082 l 4.64151,6.489 0.55737,-8.489 c 0.30655,-4.669 0.22095,-26.0391 -0.19022,-47.4891 z m 1068.28335,37 c 6.1806,-9.7309 21.4587,-25.0782 31.8495,-31.9935 15.1871,-10.1075 31.0696,-16.6099 49,-20.061 12.6589,-2.4364 38.744,-2.5157 51.6353,-0.1568 19.9068,3.6425 38.1769,12.4872 55.3969,26.8178 3.3605,2.7966 6.3017,4.8929 6.5361,4.6585 0.2344,-0.2344 -0.48,-6.9149 -1.5876,-14.8456 -1.1076,-7.9307 -3.8154,-28.1444 -6.0174,-44.9194 -2.202,-16.775 -5.7933,-43.55 -7.9807,-59.5 -2.1874,-15.95 -6.199,-46.1 -8.9146,-67 -2.7156,-20.9 -9.2652,-70.85 -14.5546,-111 -12.193,-92.5533 -15.1561,-115.2525 -22.5175,-172.5 -3.2887,-25.575 -8.6978,-66.975 -12.0202,-92 -3.3225,-25.025 -8.0563,-61.25 -10.5195,-80.5 -2.4633,-19.25 -5.8148,-44.675 -7.4478,-56.5 -3.5896,-25.9927 -13.8066,-104.212 -18.0256,-138 -1.6826,-13.475 -4.5969,-35.75 -6.4763,-49.5 -1.8794,-13.75 -7.0535,-53.35 -11.498,-88 -4.4446,-34.65 -10.9752,-84.825 -14.5125,-111.5 -3.5374,-26.675 -9.8393,-75.275 -14.0042,-108 -4.165,-32.725 -12.2643,-95.725 -17.9985,-140 -5.7342,-44.275 -13.1587,-102.1 -16.4989,-128.5 -3.3402,-26.4 -8.9982,-70.5 -12.5732,-98 -3.575,-27.5 -10.0597,-78.575 -14.4103,-113.5 -4.3506,-34.925 -12.2053,-97.475 -17.4548,-139 -8.986,-71.08227 -38.0563,-305.34452 -41.1368,-331.5 -1.8188,-15.442987 -1.9808,-16.23971 -5.5675,-27.378962 -11.5866,-35.985262 -31.0543,-57.108694 -56.8796,-61.717541 -18.6631,-3.330658 -50.0024,2.31812 -63.1547,11.383378 -6.6333,4.572062 -14.1546,13.099551 -17.153,19.447809 -3.115,6.59513 -7.7435,25.281754 -10.2211,41.265316 -2.9103,18.77486 -1.619,37.23994 9.5995,137.27343 4.4241,39.44961 12.758,114.02657 18.5196,165.72657 5.7616,51.7 11.6052,103.45 12.9857,115 1.3805,11.55 6.9841,61.5 12.4524,111 16.3903,148.36633 30.7285,277.10384 34.4708,309.5 1.9377,16.775 8.7177,79.775 15.0667,140 14.7781,140.1838 18.4895,175.1583 31.0389,292.5 1.9411,18.15 4.8627,46.5 6.4924,63 3.6881,37.3412 11.1643,109.6327 14.4266,139.5 1.3518,12.375 5.163,49.05 8.4694,81.5 3.3064,32.45 7.3641,71.825 9.017,87.5 2.8849,27.3585 12.5728,124.7847 26.4508,266 3.5944,36.575 9.0165,93.5 12.0492,126.5 12.1623,132.3455 13.4493,145.575 15.1284,155.5 0.6927,4.0944 0.2789,4.5062 8.5397,-8.5 z"
       style="fill:#afafaf" />
    <path
       id="path1476"
       d="M 177.18493,2551.4641 C 133.39776,2544.765 63.483558,2498.9122 31.668528,2456.028 21.053417,2441.7197 15.214355,2429.4364 7.6492898,2405.5 -0.18019537,2380.727 -0.54477353,2372.9026 0.89540945,2260.5512 1.5514405,2209.3731 2.7404794,2141.625 3.5377182,2110 c 0.7972388,-31.625 1.9078362,-78.875 2.4679942,-105 0.560158,-26.125 1.4629325,-63.475 2.0061655,-83 0.5432331,-19.525 1.4417804,-52.15 1.9967721,-72.5 0.554991,-20.35 1.677598,-57.025 2.494681,-81.5 0.817084,-24.475 2.608174,-85.225 3.980202,-135 1.372027,-49.775 2.950942,-104 3.5087,-120.5 0.557759,-16.5 1.909275,-62.4 3.00337,-102 1.094095,-39.6 2.450298,-83.25 3.013784,-97 0.563486,-13.75 2.134238,-61.675 3.490561,-106.5 1.356322,-44.825 2.934784,-92.525 3.507692,-106 0.572908,-13.475 2.158487,-58.475 3.523508,-100 1.365022,-41.525 2.918838,-88.1 3.452925,-103.5 0.534087,-15.4 1.439386,-47.8 2.011775,-72 0.889837,-37.62129 2.81953,-114.46658 8.010539,-319 0.558355,-22 1.456463,-59.575 1.995796,-83.5 C 56.309901,231.90803 58.500116,159.74459 61.031532,125.5 65.46997,65.457534 69.592831,49.323987 84.655485,33.054929 96.217231,20.567175 110.90027,12.582885 133,6.7663285 148.03856,2.8082411 171.27797,1.7486862 183.48527,4.4645524 198.63258,7.83451 216.07813,18.623306 226.80401,31.254035 c 13.22766,15.576807 23.79927,47.076089 27.05581,80.615745 0.57486,5.92061 1.41232,9.71103 2.27497,10.29679 0.77258,0.5246 7.00846,0.68738 14.36521,0.37498 7.15,-0.30362 53.725,-1.00054 103.5,-1.54872 49.775,-0.54818 118.625,-1.43714 153,-1.97548 34.375,-0.53833 86.35,-1.22663 115.5,-1.52955 29.15,-0.30292 80.675,-0.97711 114.5,-1.49822 33.825,-0.5211 107.4,-1.44857 163.5,-2.06104 56.1,-0.61247 107.175,-1.40945 113.5,-1.77106 l 11.5,-0.65748 0.6922,-10.44327 c 1.7621,-26.582446 8.3544,-50.084729 18.2049,-64.901876 8.2829,-12.459304 25.225,-26.2254064 38.3956,-31.197871 12.7171,-4.80122799 30.9796,-6.0800144 50.2282,-3.5171045 37.8197,5.0356106 61.8119,21.5615415 72.0726,49.6440025 8.9835,24.586632 18.8058,79.883289 28.4526,160.180239 4.3193,35.95192 18.647,148.7084 22.0127,173.23588 1.3585,9.9 4.2701,32.4 6.4704,50 4.197,33.57302 11.3296,88.79669 20.4713,158.5 2.9936,22.825 6.5942,50.725 8.0015,62 1.4073,11.275 4.5522,35.35 6.9887,53.5 2.4365,18.15 5.8154,44.025 7.5088,57.5 5.5077,43.82811 19.859,150.1932 27.997,207.5 4.3738,30.8 10.4501,74.225 13.503,96.5 3.0528,22.275 8.0231,58.275 11.0451,80 15.6594,112.5755 35.5894,257.9881 46.4628,339 2.6945,20.075 8.7228,64.175 13.3964,98 4.6735,33.825 9.863,71.85 11.5322,84.5 1.6691,12.65 6.8764,52.025 11.5717,87.5 4.6952,35.475 9.8605,74.625 11.4784,87 9.5046,72.7008 12.4026,94.9765 16.4574,126.5 4.6754,36.3485 12.318,97.1826 17.5255,139.5 1.6583,13.475 5.7307,45.875 9.0499,72 19.2124,151.2184 19.7579,159.9002 12.5205,199.2618 -6.2214,33.8355 -21.9409,65.2742 -48.4781,96.955 -16.225,19.3698 -34.2595,33.7495 -55.5613,44.3016 -15.5277,7.6918 -27.9639,11.8765 -43.5,14.6377 -10.7136,1.9041 -16.3894,2.0698 -83,2.4239 -39.325,0.209 -105.925,0.8491 -148,1.4225 -42.075,0.5734 -116.775,1.4942 -166,2.0462 -49.225,0.552 -122.8,1.4368 -163.5,1.9661 -93.56793,1.2168 -238.18391,2.6699 -391.5,3.9339 -251.84048,2.0761 -240.76285,2.0534 -250.81507,0.5154 z M 369,2513.9537 c 51.975,-0.5269 139.725,-1.4074 195,-1.9566 503.8554,-5.0063 548.2499,-5.5098 711.4439,-8.0688 l 68.9439,-1.081 11.3414,-3.4378 c 38.5769,-11.6932 78.927,-35.3198 101.7457,-59.5762 22.228,-23.6286 33.1164,-48.8737 34.2456,-79.3998 0.5961,-16.1138 -1.0185,-28.3584 -5.9239,-44.9241 -3.1288,-10.5661 -8.7743,-23.7595 -10.6674,-24.9295 -0.8194,-0.5065 -1.1308,3.3644 -1.1351,14.1111 -0.013,32.1376 -6.2926,54.4001 -20.904,74.1065 -7.3129,9.8629 -13.8107,15.1558 -25.5901,20.845 -14.113,6.8162 -21.9903,8.4768 -43,9.0644 -49.7049,1.3901 -85.044,-12.8804 -97.0907,-39.2069 -2.5775,-5.6329 -7.2406,-23.5879 -10.3608,-39.8941 -3.0951,-16.1754 -14.0799,-107.8684 -26.4883,-221.1059 -1.8684,-17.05 -4.5682,-41.575 -5.9997,-54.5 -10.9004,-98.4211 -17.7952,-161.5512 -19.5495,-179 -1.1336,-11.275 -4.971,-47.95 -8.5275,-81.5 -3.5566,-33.55 -7.608,-72.925 -9.0031,-87.5 -1.3951,-14.575 -4.088,-40.9 -5.9842,-58.5 -1.8961,-17.6 -5.7187,-54.5 -8.4946,-82 -2.7758,-27.5 -7.9547,-77.9 -11.5085,-112 -3.5538,-34.1 -9.3931,-91.6072 -12.976,-127.7938 -3.583,-36.1867 -9.6393,-96.0367 -13.4585,-133 -3.8191,-36.9634 -7.8719,-76.6562 -9.0061,-88.2062 -3.9291,-40.0112 -20.0439,-205.05018 -21.0907,-216 -0.5783,-6.05 -2.1505,-21.125 -3.4936,-33.5 -1.3432,-12.375 -5.5951,-52.875 -9.4488,-90 -7.6321,-73.52467 -12.8442,-122.52218 -19.0414,-179 -2.2028,-20.075 -6.2311,-57.875 -8.9518,-84 -2.7206,-26.125 -6.0752,-57.4 -7.4545,-69.5 -2.4756,-21.71683 -14.6679,-137.70863 -22.5469,-214.5 -3.1004,-30.21799 -7.9599,-82.28714 -8.0181,-85.91465 -0.01,-0.50779 -118.46059,0.44602 -294.5067,2.37144 -72.6,0.79403 -185.775,1.95814 -251.5,2.5869 -65.725,0.62876 -147.4,1.43865 -181.5,1.79976 L 256.5,139.5 255.67704,484 c -0.52396,219.33565 -0.43454,448.59169 0.24612,631 1.94526,521.3091 2.14965,673.8029 1.12922,842.5 -1.37926,228.0174 -2.87647,366.655 -4.11459,381 -1.52106,17.6233 -4.55047,34.5742 -7.26593,40.6562 -11.51387,25.7885 -42.55754,41.5881 -90.17186,45.8928 -20.26927,1.8325 -36.19609,-0.3141 -48.46737,-6.5325 -8.020468,-4.0642 -23.264991,-17.678 -30.498692,-27.2362 -14.538241,-19.2098 -19.55452,-34.3372 -23.13057,-69.7539 -0.556479,-5.5113 -0.714902,-5.8209 -2.046932,-4 -2.202802,3.0112 -6.125191,16.8653 -7.778355,27.4736 -2.639044,16.9347 -2.979259,29.3687 -1.14529,41.8577 6.887756,46.9041 36.571075,81.3077 91.673189,106.251 21.4567,9.7129 44.33123,16.8216 65.39402,20.3224 13.91096,2.3121 14.17628,2.3231 45.5,1.8892 16.225,-0.2247 72.025,-0.8397 124,-1.3666 z M 176,2395.0478 c 13.84611,-4.0058 30.42254,-17.3039 35.75205,-28.6814 3.72205,-7.9459 3.66696,-19.1526 -0.15172,-30.8664 -2.86801,-8.7976 -7.63584,-18.635 -9.13974,-18.8577 -0.52832,-0.078 -1.23652,2.1183 -1.57377,4.8811 -2.06265,16.8982 -8.86514,28.9567 -22.06514,39.1138 -7.02351,5.4045 -12.49924,7.6594 -22.74214,9.3652 -12.52229,2.0855 -21.19848,-0.065 -31.27906,-7.7525 -8.29533,-6.3261 -8.30088,-6.3514 -4.37856,-19.9786 4.60179,-15.9879 5.17855,-19.2713 3.38515,-19.2713 -2.31353,0 -10.34586,5.5402 -12.5136,8.6311 -6.62794,9.4506 -7.84521,27.5101 -2.88949,42.8689 3.71261,11.5061 8.88829,17.1282 18.71176,20.3256 8.82132,2.8712 10.42945,3.0322 26.88426,2.6919 11.23622,-0.2324 16.18816,-0.7883 22,-2.4697 z m 1222,-15.5838 c 22.7086,-6.1112 28.4271,-13.9354 28.4777,-38.964 0.026,-12.7091 -1.949,-20.3403 -6.9656,-26.9174 -4.5981,-6.0286 -14.5247,-11.0464 -14.5057,-7.3326 0,0.6875 1.4114,6.425 3.1286,12.75 1.7172,6.325 3.6154,13.6969 4.2181,16.3819 l 1.0959,4.8819 -5.2055,4.7865 c -9.9969,9.1922 -20.8059,12.3642 -33.9021,9.9489 -13.3786,-2.4674 -22.1813,-7.4661 -31.6046,-17.9471 -6.8092,-7.5735 -12.559,-21.0475 -12.8071,-30.0122 -0.039,-1.3969 -0.4429,-3.4399 -0.8983,-4.5399 -0.6967,-1.6828 -1.3329,-0.9045 -4.0107,4.9066 -6.7541,14.6571 -9.0396,33.312 -5.3924,44.0158 3.0216,8.8681 18.4112,22.5202 31.5928,28.026 9.9426,4.1529 31.3785,4.1601 46.7789,0.016 z M 150.19875,2353.25 c 6.23052,-6.6593 7.30523,-13.4783 3.43438,-21.7909 -2.55493,-5.4867 -7.94413,-10.737 -10.51648,-10.2455 -1.18875,0.2272 -1.77633,1.894 -2.21993,6.2977 -0.33181,3.2938 -1.61813,9.6994 -2.8585,14.2348 -1.24036,4.5353 -1.98828,8.9416 -1.66205,9.7918 0.67359,1.7554 6.09241,4.3642 9.18674,4.423 1.1346,0.021 3.22073,-1.1984 4.63584,-2.7109 z m 1241.26175,-14.235 c 1.4249,-0.5417 2.8532,-1.669 3.1741,-2.5051 0.3208,-0.8361 -0.5549,-5.6803 -1.9461,-10.765 -1.3912,-5.0847 -2.8067,-11.9388 -3.1455,-15.2314 -0.3389,-3.2926 -0.9371,-6.3074 -1.3295,-6.6995 -1.2606,-1.2596 -6.6403,2.1001 -9.0702,5.6643 -2.8817,4.2269 -5.0406,10.0743 -5.0994,13.8115 -0.071,4.5162 4.253,11.7836 8.9286,15.0061 2.828,1.9491 4.811,2.1171 8.488,0.7191 z M 181.5,2308.34 v -19.5594 l -3.48261,-2.9073 c -8.11066,-6.7709 -28.53469,-11.869 -47.51739,-11.8611 -17.65403,0.01 -39.625342,3.6846 -43.164965,7.2242 -1.085601,1.0856 -1.332082,4.4254 -1.114458,15.101 l 0.279423,13.7072 4.996329,-4.5894 c 12.637191,-11.608 35.315601,-17.3681 50.572171,-12.8449 8.1103,2.4045 12.12626,4.7497 18.94706,11.0646 6.24364,5.7805 10.7706,12.0228 15.52917,21.4134 4.21656,8.321 4.95527,5.8242 4.95527,-16.7483 z m 1174.9351,-4.9096 c 6.6778,-12.9158 14.385,-21.2438 24.1065,-26.0484 6.5101,-3.2175 8.5175,-3.7127 16.6796,-4.1147 17.0476,-0.8398 30.5717,3.5782 40.7902,13.325 4.9654,4.7361 6.0592,5.3873 6.6152,3.9383 0.7722,-2.0122 -0.1677,-26.2382 -1.1118,-28.6583 -1.2796,-3.2802 -10.993,-5.1299 -29.5148,-5.6203 -25.3739,-0.6719 -39.6338,1.6315 -54.2302,8.7599 -10.1915,4.9772 -9.9517,4.4582 -10.5371,22.8054 -0.4876,15.2817 0.1342,25.1961 1.5786,25.1704 0.3788,-0.01 2.9095,-4.3075 5.6238,-9.5573 z M 233.10114,2212.3145 c -2.42691,-169.7284 -3.17958,-298.9866 -3.74603,-643.3145 -0.67027,-407.4421 0.19114,-616.58693 4.69745,-1140.5 0.62445,-72.6 1.20558,-174.3 1.2914,-226 L 235.5,108.5 233.20697,98 C 230.36308,84.977552 221.84404,59.398725 217.84561,51.876763 207.09397,31.650484 181.11125,21.59613 147.90654,24.812926 124.87587,27.044085 111.02741,35.173235 99.08038,53.47425 90.81931,66.128939 82.554757,90.45376 81.446306,105.37611 80.725545,115.07924 79.10132,177.32384 77.51589,256 c -0.803534,39.875 -1.936072,89.6 -2.516751,110.5 -0.580679,20.9 -1.716677,72.43457 -2.524439,114.52126 -0.807763,42.0867 -1.903296,94.5117 -2.434519,116.5 -0.531223,21.98831 -1.440373,63.82874 -2.020334,92.97874 -0.579961,29.15 -1.497714,71.225 -2.039453,93.5 -0.541738,22.275 -1.445176,65.25 -2.007639,95.5 -1.88415,101.33206 -3.524689,165.6536 -10.929011,428.5 -1.07679,38.225 -2.214259,80.3 -2.527711,93.5 -0.621782,26.1844 -1.976707,75.0831 -3.532874,127.5 -1.195361,40.2638 -3.546306,133.4168 -4.946539,196 -0.559908,25.025 -1.260903,51.8 -1.557766,59.5 -0.296863,7.7 -1.424867,48.2 -2.506675,90 -1.081809,41.8 -2.415797,90.4 -2.964419,108 -0.548622,17.6 -1.45891,52.025 -2.022861,76.5 -0.563952,24.475 -1.683271,67.9 -2.487377,96.5 -1.890981,67.2574 -2.973691,129.5 -2.252652,129.5 0.312066,0 3.647134,-3.1948 7.411262,-7.0996 16.793487,-17.421 37.552875,-28.3087 63.969871,-33.5502 12.380777,-2.4565 43.401647,-2.504 55.412187,-0.085 29.07801,5.8569 55.50287,21.9662 71.45984,43.5639 3.52724,4.7741 6.34727,7.7255 6.87623,7.1965 0.52897,-0.5289 0.41696,-34.4499 -0.27312,-82.7112 z m 1065.44066,68.8215 c 16.1042,-27.073 44.9419,-47.3867 78.4582,-55.267 12.4122,-2.9183 40.0151,-3.6805 53.8627,-1.4873 21.6941,3.436 43.0938,13.5864 58.6846,27.8355 3.0371,2.7758 5.823,4.7458 6.191,4.3779 0.3679,-0.368 -0.5833,-9.9899 -2.1137,-21.382 -1.5305,-11.3922 -4.5191,-33.9881 -6.6413,-50.2131 -2.1222,-16.225 -5.449,-40.975 -7.393,-55 -1.9439,-14.025 -5.5739,-41.25 -8.0667,-60.5 -2.4928,-19.25 -8.8013,-67.4 -14.0188,-107 -5.2175,-39.6 -12.8832,-98.325 -17.0348,-130.5 -4.1516,-32.175 -12.2418,-94.05 -17.9782,-137.5 -5.7364,-43.45 -11.3566,-86.425 -12.4894,-95.5 -1.1327,-9.075 -3.6072,-27.75 -5.4987,-41.5 -1.8916,-13.75 -6.8414,-51.325 -10.9997,-83.5 -4.1582,-32.175 -9.1227,-70.425 -11.0322,-85 -1.9095,-14.575 -8.6547,-66.55 -14.9893,-115.5 -6.3347,-48.95 -13.073,-100.475 -14.9741,-114.5 -1.9012,-14.025 -7.96,-60.825 -13.464,-104 -5.5041,-43.175 -13.3912,-104.6 -17.527,-136.5 -4.1357,-31.9 -10.4618,-81.175 -14.0581,-109.5 -3.5962,-28.325 -9.6559,-75.575 -13.4661,-105 -13.0677,-100.91934 -64.8884,-514.98731 -73.5258,-587.5 -2.3893,-20.05903 -3.3291,-24.947303 -6.5658,-34.153668 -14.4995,-41.242004 -36.9992,-61.422575 -68.3617,-61.315456 -31.1716,0.106466 -55.646,9.958515 -66.3693,26.716627 -5.5162,8.620624 -11.7681,32.629985 -14.2016,54.538887 -1.5655,14.0948 1.1481,45.83757 12.5848,147.21361 5.212,46.2 12.8554,114.6 16.9853,152 4.1298,37.4 9.5271,85.325 11.994,106.5 2.4669,21.175 13.7194,121.75 25.0056,223.5 11.2862,101.75 21.8552,196.475 23.4867,210.5 1.6316,14.025 7.6939,70.5 13.472,125.5 5.7781,55 12.9552,122.95 15.9493,151 2.994,28.05 7.0571,66.3 9.0291,85 1.972,18.7 5.1389,48.4 7.0375,66 1.8986,17.6 4.5989,43.7 6.0008,58 2.7445,27.9961 12.3094,120.5994 15.4933,150 1.0721,9.9 4.897,46.8 8.4998,82 3.6028,35.2 7.6554,74.35 9.0059,87 1.3504,12.65 2.6889,25.475 2.9744,28.5 0.2854,3.025 3.875,39.475 7.9768,81 19.9051,201.5108 20.5563,208.3139 35.5171,371 4.157,45.2045 6.1668,62 7.4192,62 0.2548,0 2.5684,-3.5388 5.1412,-7.864 z"
       style="fill:#909090" />
    <path
       id="path1474"
       d="M 178.21216,2551.3707 C 130.12125,2543.9506 56.279103,2493.5526 26.755278,2448 18.717194,2435.598 16.497523,2430.7162 9.9950294,2411.1389 0.6086981,2382.8791 0.46415405,2381.3223 0.69707738,2311 0.90435717,2248.4198 2.0278249,2179.9257 4.469634,2081 c 0.8077595,-32.725 1.935592,-79.975 2.5062946,-105 1.5713754,-68.904 4.4878304,-170.272 7.0488804,-245 0.556058,-16.225 1.897679,-63.025 2.98138,-104 1.083702,-40.975 2.431013,-88 2.994025,-104.5 0.563013,-16.5 2.129022,-69.6 3.48002,-118 1.350998,-48.4 2.702835,-91.6 3.004082,-96 0.301248,-4.4 1.662879,-45.35 3.025848,-91 1.362969,-45.65 2.933566,-93.575 3.490215,-106.5 0.55665,-12.925 1.897829,-51.625 2.980399,-86 1.08257,-34.375 2.664411,-81.175 3.515204,-104 0.850792,-22.825 2.451751,-78.625 3.557686,-124 2.448754,-100.46907 4.557165,-185.30258 5.915135,-238 1.910424,-74.13595 3.027421,-119.47711 4.052521,-164.5 C 54.17907,343.65125 56.543239,249.51742 58.031761,195 59.923038,125.73166 64.924884,73.179413 71.28457,55.758449 81.199812,28.597815 106.22835,11.294937 145.38099,4.5336598 c 19.29188,-3.3315185 37.88798,-1.3886111 52.37842,5.4724612 24.04073,11.383037 36.43677,26.351767 46.26009,55.861001 4.61991,13.878194 7.47068,27.424324 9.12714,43.369888 0.6706,6.45536 1.51977,12.22324 1.88706,12.81751 0.47829,0.77389 19.22588,0.77578 66.06704,0.007 35.96959,-0.59061 103.42426,-1.52244 149.89926,-2.07074 91.44563,-1.07886 193.98275,-2.41296 304.5,-3.96183 38.5,-0.53957 114.775,-1.49914 169.5,-2.13239 54.725,-0.63324 99.7724,-1.43145 100.1054,-1.77379 0.3329,-0.34233 1.1282,-6.69743 1.7672,-14.12243 3.3346,-38.747491 13.7313,-62.805071 34.2869,-79.339055 C 1096.3374,6.4525691 1109.59,1.3734047 1129,0.32570021 c 23.2031,-1.25244837 52.5559,5.72020939 68.737,16.32827079 11.9518,7.83534 21.5704,19.954238 26.7415,33.692768 4.965,13.190809 13.8044,53.202801 18.0387,81.653261 3.7764,25.37366 7.8152,55.57715 10.9652,82 3.9331,32.99232 18.442,147.05749 22.0689,173.5 1.3579,9.9 4.0402,30.6 5.9606,46 3.8757,31.07955 12.6703,99.15313 20.9937,162.5 2.999,22.825 6.6008,50.725 8.0039,62 1.4031,11.275 4.5447,35.35 6.9812,53.5 2.4365,18.15 5.8116,44.025 7.5003,57.5 5.0867,40.59003 17.429,131.83006 29.0159,214.5 16.6157,118.5494 36.2982,260.9958 52.9209,383 8.243,60.5 17.2264,126.425 19.9633,146.5 24.3873,178.8823 29.759,218.9181 46.6248,347.5 11.128,84.8372 23.7366,183.6915 30.4839,239 1.6103,13.2 5.671,45.6 9.0238,72 3.3528,26.4 7.4244,59.025 9.0479,72.5 1.6235,13.475 4.3651,35.75 6.0923,49.5 2.587,20.5943 3.1577,28.7889 3.2383,46.5 0.104,22.8457 -0.731,29.4197 -7.0244,55.3011 -11.81,48.568 -51.2855,101.3596 -93.6538,125.2456 -18.0884,10.1977 -40.0182,17.3517 -59.2522,19.3295 -5.4845,0.564 -46.4217,1.2847 -90.9717,1.6017 -44.55,0.3169 -113.4,1.0213 -153,1.5652 -39.6,0.5439 -112.275,1.4395 -161.5,1.9901 -49.225,0.5507 -124.375,1.439 -167,1.9741 -75.02859,0.9419 -112.423,1.3278 -435,4.4888 -176.16486,1.7263 -173.7762,1.7279 -185.78784,-0.1254 z M 401.5,2514.0116 c 55.55,-0.528 144.2,-1.4316 197,-2.0079 90.78512,-0.9908 155.90967,-1.6652 387.5,-4.0129 99.7988,-1.0117 197.5198,-2.298 302,-3.9751 l 57.5,-0.9229 10,-3.157 c 49.7318,-15.7001 94.255,-44.9966 115.4806,-75.9868 16.507,-24.1009 24.3958,-54.0705 21.127,-80.2621 -2.251,-18.0375 -9.5717,-42.708 -15.3373,-51.6869 l -2.2475,-3.5 -0.6573,17.5 c -0.3615,9.625 -1.3771,21.6506 -2.2568,26.7236 -3.7223,21.4656 -11.9784,39.0006 -24.8821,52.8468 -5.5154,5.9183 -8.589,8.2008 -16.5495,12.2898 -12.4335,6.3867 -21.5191,8.8956 -37.1771,10.2663 -28.2426,2.4724 -59.045,-2.3876 -78.4507,-12.378 -9.6369,-4.9613 -21.8978,-16.5275 -25.8903,-24.4235 -4.0171,-7.9446 -9.4864,-29.9343 -13.0525,-52.4787 -1.7393,-10.9959 -5.7403,-43.8774 -12.0884,-99.3463 -2.5178,-22 -6.1224,-53.5 -8.0102,-70 -1.8879,-16.5 -5.7107,-50.925 -8.4953,-76.5 -2.7845,-25.575 -8.4203,-76.875 -12.524,-114 -4.1037,-37.125 -8.7982,-80.775 -10.4322,-97 -1.6341,-16.225 -5.4525,-52.6812 -8.4854,-81.0137 -3.0329,-28.3325 -6.6649,-63.6575 -8.071,-78.5 -1.4061,-14.8425 -3.6661,-37.1113 -5.0222,-49.4863 -1.356,-12.375 -5.1773,-49.275 -8.4918,-82 -3.3144,-32.725 -8.0614,-78.85 -10.5489,-102.5 -2.4875,-23.65 -9.2193,-89.8 -14.9596,-147 -5.7402,-57.2 -12.9225,-128.0068 -15.9607,-157.3484 -3.0381,-29.3416 -6.6633,-65.3416 -8.056,-80 -1.3927,-14.6584 -5.4297,-55.9016 -8.9711,-91.6516 -3.5414,-35.75 -7.5848,-77.15 -8.9853,-92 -1.4005,-14.85 -2.9789,-30.6 -3.5077,-35 -0.5287,-4.4 -4.3524,-40.85 -8.497,-81 -4.1447,-40.15 -9.0908,-87.175 -10.9915,-104.5 -1.9007,-17.325 -4.6069,-42.75 -6.0139,-56.5 -1.4069,-13.75 -3.4373,-32.425 -4.5119,-41.5 -1.0746,-9.075 -3.9929,-36.3 -6.4851,-60.5 -2.4923,-24.2 -6.0967,-57.95 -8.0099,-75 -9.2955,-82.84044 -28.3511,-268.19646 -30.5846,-297.5 -0.6497,-8.525 -1.6812,-16.03428 -2.2921,-16.68729 -1.1396,-1.21817 -12.1277,-1.14979 -268.1107,1.66849 -91.39192,1.00619 -179.04992,1.88633 -406.5,4.08152 -62.975,0.60779 -114.59131,1.19612 -114.7029,1.30741 -0.97825,0.97555 -1.29688,844.3629 -0.37746,999.12987 2.9288,493.0147 0.45068,1176.0385 -4.39371,1211 -3.83435,27.6721 -6.66432,34.7975 -18.46541,46.4928 -11.4971,11.3941 -24.86225,18.2628 -45.98958,23.6353 -23.11049,5.8768 -56.02499,7.0679 -70.08622,2.5363 -18.90649,-6.0932 -40.928001,-27.2963 -51.58129,-49.6644 -6.713905,-14.0968 -11.392571,-35.3343 -11.400613,-51.75 -0.0017,-3.369 -0.440195,-5.75 -1.059047,-5.75 -3.025135,0 -9.060714,21.357 -10.980219,38.8536 -5.977898,54.4898 17.79937,98.2799 69.670689,128.3112 19.62291,11.3609 48.75534,22.9337 71.09586,28.2429 22.84402,5.4287 25.13585,5.5869 73.2699,5.0554 24.475,-0.2703 89.95,-0.9234 145.5,-1.4515 z M 174.8511,2395.6444 c 11.00262,-2.8586 19.40337,-8.074 28.84744,-17.909 9.30255,-9.6876 10.80651,-13.2094 10.77653,-25.2354 -0.0279,-11.1972 -1.96535,-18.5663 -8.06668,-30.6819 -3.37044,-6.6928 -5.39017,-7.9991 -5.42575,-3.5091 -0.0416,5.2534 -3.23239,16.7513 -6.48045,23.3523 -4.17796,8.4908 -15.97586,20.2636 -24.00219,23.9511 -6.29894,2.8939 -20.62608,5.4349 -26.51561,4.7026 C 134.74984,2369.1669 118,2358.6468 118,2353.995 c 0,-1.0093 1.575,-7.307 3.5,-13.995 3.89364,-13.5276 4.29202,-17 1.95034,-17 -4.70307,0 -12.16241,6.9152 -15.64104,14.5 -1.99998,4.3608 -2.29419,6.5981 -2.30123,17.5 -0.007,10.5376 0.36461,13.599 2.36576,19.5 4.28804,12.6447 8.15903,16.9056 18.73576,20.623 12.78722,4.4943 32.14491,4.7036 48.24151,0.5214 z m 1222.9749,-15.488 c 23.2733,-6.3411 29.8705,-16.0151 29.0277,-42.5652 -0.3474,-10.9443 -0.5029,-11.6292 -4.357,-19.1883 -3.2593,-6.3927 -4.8269,-8.3362 -8.4967,-10.5345 -2.475,-1.4826 -5.5772,-3.0103 -6.8938,-3.395 -2.3637,-0.6907 -2.3852,-0.6341 -1.7058,4.4872 0.3784,2.8526 2.2647,10.6646 4.1918,17.3599 4.1423,14.3914 4.0704,14.7235 -4.5629,21.079 -10.6821,7.8637 -20.8014,9.6146 -35.4308,6.1303 -11.0356,-2.6284 -19.4928,-8.1327 -27.7594,-18.067 -6.4036,-7.6956 -11.7813,-21.8642 -11.8243,-31.1538 -0.036,-7.7077 -3.9549,-2.7156 -8.6077,10.9642 -5.051,14.8505 -5.4014,29.6146 -0.9266,39.0444 5.251,11.0656 24.1167,24.8325 37.5195,27.379 9.3997,1.786 30.6319,0.9649 39.826,-1.5402 z M 154.35012,2347.8005 c 3.43225,-6.7112 3.12707,-10.6376 -1.44965,-18.6511 -2.81003,-4.9202 -8.22119,-9.5297 -10.36037,-8.8255 -0.52794,0.1738 -1.47236,3.9027 -2.09872,8.2865 -0.62635,4.3837 -2.15939,11.0372 -3.40676,14.7856 l -2.26794,6.8151 2.14227,2.1445 c 6.31815,6.3245 12.7341,4.6489 17.44117,-4.5551 z m 1238.52238,-9.4238 c 2.6773,-1.8752 2.6086,-3.3333 -0.7434,-15.7867 -1.171,-4.3504 -2.136,-9.9754 -2.1444,-12.5 -0.023,-6.9788 -1.0986,-8.0377 -5.6768,-5.59 -5.1732,2.7658 -9.5268,10.0945 -10.0996,17.0014 -0.3756,4.5294 -0.021,6.1418 2.1707,9.8824 4.7566,8.1164 11.0687,10.7926 16.4935,6.9929 z M 181.35815,2326.25 c 0.80984,-4.8995 0.80067,-30.6556 -0.0127,-35.578 -0.76337,-4.6201 -4.80478,-7.5195 -16.35858,-11.7361 -11.14318,-4.0668 -21.52782,-5.2636 -40.81157,-4.7034 -16.7346,0.486 -32.529685,3.1125 -36.594849,6.085 -1.330575,0.9729 -1.76486,3.8142 -2.261123,14.7932 -0.728235,16.111 -0.190565,17.1036 6.023908,11.1209 8.319747,-8.0095 18.524544,-12.5032 32.384124,-14.2604 20.76423,-2.6327 37.42059,6.9367 50.13661,28.8044 2.9502,5.0734 5.70382,9.2244 6.11916,9.2244 0.41533,0 1.03407,-1.6875 1.37498,-3.75 z m 1173.20795,-18.4456 c 9.7497,-20.5889 21.8406,-31.2978 38.2034,-33.8366 7.6221,-1.1826 19.0145,-0.1672 27.8046,2.4781 5.8407,1.7578 15.5828,7.8485 19.863,12.4183 1.6154,1.7247 3.3029,3.1358 3.75,3.1358 0.9761,0 0.9076,-25.444 -0.078,-28.984 -2.1285,-7.6447 -37.3859,-10.3996 -64.2711,-5.0219 -13.0125,2.6029 -28.3336,9.5493 -29.8482,13.5329 -0.5443,1.4317 -0.9897,10.8621 -0.9897,20.9563 0,24.0748 0.6169,25.7727 5.5661,15.3211 z M 233.66729,2247.25 c -2.87976,-217.5497 -3.14103,-286.0388 -3.15386,-826.75 -0.009,-385.2932 0.38252,-604.7913 1.22674,-687.5 0.68209,-66.825 1.70177,-189.675 2.26595,-273 0.56418,-83.325 1.41591,-189.75 1.89275,-236.5 0.94247,-92.40241 0.48625,-112.44888 -2.91181,-127.945796 C 230.58853,84.615662 222.10049,59.14425 218.43632,51.889503 214.31677,43.733119 206.68267,36.430281 197.64751,32.002761 184.59014,25.604223 179.09788,24.540684 159,24.518937 147.35772,24.506339 139.659,24.963061 136,25.883399 109.94558,32.436792 93.048771,53.106533 84.004838,89.488691 81.445152,99.785861 81.192391,102.80236 80.107524,136 c -0.638059,19.525 -2.035245,78.025 -3.10486,130 -1.069614,51.975 -2.195201,100.35 -2.501304,107.5 -0.306103,7.15 -1.210318,49.675 -2.009367,94.5 -0.799049,44.825 -1.699178,87.575 -2.000288,95 -0.301109,7.425 -0.993487,36.45 -1.538617,64.5 -1.364659,70.21931 -2.749633,136.90506 -3.914892,188.5 -0.540341,23.925 -1.452899,68.925 -2.027907,100 -0.575009,31.075 -1.496142,72.475 -2.046964,92 -0.550821,19.525 -2.118333,76.9 -3.483359,127.5 -1.365025,50.6 -3.365524,123.05 -4.445553,161 -1.080029,37.95 -2.216893,79.8 -2.526364,93 -0.309472,13.2 -1.000167,39.525 -1.534878,58.5 -4.300443,152.6074 -4.80371,171.5632 -7.500275,282.5 -1.672294,68.7983 -4.954094,191.0931 -6.46727,241 -0.566984,18.7 -1.469132,52.9 -2.004773,76 -0.535642,23.1 -1.650477,66.75 -2.477412,97 -2.301526,84.1918 -3.531675,140.8251 -3.068957,141.2878 0.229974,0.23 4.387171,-3.5657 9.238215,-8.4348 20.622369,-20.6993 46.481421,-31.9177 79.256671,-34.3839 13.81675,-1.0396 30.49309,-0.1859 40.97707,2.0977 13.47064,2.9342 31.31117,10.3643 42.82583,17.8357 8.53411,5.5374 22.18149,18.8484 27.88875,27.2012 2.5916,3.793 5.15589,6.8963 5.69842,6.8963 0.64415,0 0.75791,-17.2618 0.32785,-49.75 z m 1063.43701,37 c 11.2539,-19.9039 28.6245,-36.1656 50.5629,-47.3351 16.8544,-8.5811 32.7835,-12.5607 54.3328,-13.5741 34.2239,-1.6094 62.2575,7.7823 87.729,29.3905 3.533,2.9971 6.6399,5.2331 6.9042,4.9688 0.2643,-0.2643 -0.6653,-8.7424 -2.0658,-18.8403 -1.4004,-10.0979 -4.5847,-33.8848 -7.0762,-52.8598 -2.4914,-18.975 -6.0813,-45.75 -7.9775,-59.5 -1.8962,-13.75 -5.0517,-37.6 -7.0123,-53 -1.9606,-15.4 -4.8978,-37.675 -6.5271,-49.5 -3.0842,-22.3836 -13.0986,-98.9382 -25.051,-191.5 -3.8351,-29.7 -11.4477,-87.975 -16.9168,-129.5 -5.4691,-41.525 -10.8707,-82.925 -12.0037,-92 -1.1329,-9.075 -3.8354,-29.55 -6.0055,-45.5 -5.2534,-38.6117 -14.1547,-106.6266 -19.0232,-145.3565 -2.168,-17.2461 -5.287,-41.0961 -6.9313,-53 -1.6442,-11.9039 -5.2367,-39.1935 -7.9832,-60.6435 -10.084,-78.7541 -14.2129,-110.5791 -17.6442,-136 -1.9303,-14.3 -8.4216,-64.475 -14.4253,-111.5 -6.0036,-47.025 -14.7432,-114.975 -19.4213,-151 -4.6781,-36.025 -11.8783,-92.05 -16.0006,-124.5 -4.1222,-32.45 -9.7784,-76.55 -12.5695,-98 -2.791,-21.45 -8.635,-67.575 -12.9866,-102.5 -4.3516,-34.925 -12.4334,-99.275 -17.9594,-143 -5.5261,-43.725 -16.3503,-130.8 -24.0539,-193.5 -7.7036,-62.7 -14.4366,-116.925 -14.9623,-120.5 -0.5256,-3.575 -1.6817,-12.51315 -2.569,-19.86255 -4.2499,-35.201925 -23.8975,-68.661854 -46.6745,-79.487039 -10.8192,-5.14203 -16.272,-6.01664 -33.4521,-5.365617 -17.5409,0.66469 -28.0232,2.950348 -39.9315,8.706963 -9.9442,4.807147 -18.13,12.530885 -22.5406,21.268094 -5.8211,11.531638 -12.8776,45.010012 -12.8616,61.020419 0.014,14.03698 4.0128,56.10624 12.4728,131.21973 4.708,41.8 13.2545,118.075 18.9923,169.5 5.7379,51.425 11.1268,99.125 11.9754,106 0.8487,6.875 5.8143,51.2 11.0348,98.5 5.2205,47.3 15.8138,142.475 23.5406,211.5 7.7269,69.025 18.3032,165.775 23.5029,215 12.6142,119.417 18.8532,178.0602 22.9799,216 1.8845,17.325 4.5817,42.75 5.9938,56.5 1.4122,13.75 4.1206,39.4 6.0187,57 1.8981,17.6 4.3713,41.45 5.496,53 2.5339,26.0222 9.8775,97.1991 14.496,140.5 1.9066,17.875 5.7284,54.55 8.493,81.5 2.7645,26.95 6.821,66.325 9.0144,87.5 5.9349,57.2957 29.5008,295.9271 34.959,354 1.6283,17.325 5.9118,63.675 9.5189,103 7.5207,81.9922 9.221,97 10.9899,97 0.2022,0 1.8306,-2.5875 3.6187,-5.75 z"
       style="fill:#717171" />
    <path
       id="path1472"
       d="m 182.46289,2551.7574 c -34.65981,-4.3474 -83.27096,-30.792 -124.190091,-67.5598 -8.896662,-7.994 -21.853902,-22.7122 -28.874825,-32.7991 -8.143086,-11.699 -12.891459,-21.7095 -18.883731,-39.8108 C 0.91237163,2382.5826 -0.38434674,2369.435 0.44559137,2309.5 1.1952307,2255.3639 2.6901723,2179.3811 4.5281023,2102 c 0.8033998,-33.825 1.9170971,-81.975 2.4748829,-107 1.2809349,-57.469 3.6811008,-147.3021 4.9962778,-187 2.290046,-69.1238 4.122424,-130.5457 5.981451,-200.5 1.081596,-40.7 2.216191,-79.625 2.521321,-86.5 0.305131,-6.875 1.66238,-52.325 3.016109,-101 1.35373,-48.675 2.916588,-99.525 3.473019,-113 0.556431,-13.475 2.124441,-61.85 3.484468,-107.5 1.360026,-45.65 2.718838,-86.375 3.019581,-90.5 0.300743,-4.125 1.658662,-42.825 3.017598,-86 1.358935,-43.175 2.908119,-88.85 3.442631,-101.5 0.534512,-12.65 1.227215,-34.25 1.539341,-48 0.312126,-13.75 0.996375,-41.425 1.520553,-61.5 0.524178,-20.075 1.855648,-72.5 2.958822,-116.5 1.103174,-44 2.684585,-106.55 3.514246,-139 1.706444,-66.74296 3.031855,-120.88642 4.528729,-185 C 57.959941,202.62299 59.130424,163.59205 61.079451,136 64.129803,92.816666 67.199208,68.547194 71.011847,57.465567 79.561795,32.614712 100.70454,15.618495 133,7.6345644 c 27.85518,-6.88622568 47.84635,-5.7541056 66.84031,3.7852346 24.68748,12.398798 38.02071,30.912519 47.05114,65.332371 2.50817,9.56001 3.64944,16.240001 6.96172,40.74783 l 0.67575,5 53.48554,-0.24395 c 29.41705,-0.13417 85.43554,-0.68797 124.48554,-1.23066 39.05,-0.54269 109.475,-1.4387 156.5,-1.99114 47.025,-0.55243 113.625,-1.46161 148,-2.02038 34.375,-0.55878 107.5,-1.50862 162.5,-2.11077 55,-0.60215 110.35,-1.38918 123,-1.74896 l 23,-0.65414 0.6944,-4.5 c 0.3819,-2.475 1.1761,-9.45 1.7649,-15.5 3.6363,-37.366241 15.723,-61.66111 38.5152,-77.417289 8.8191,-6.0966803 15.7108,-9.3932318 25.7224,-12.3039945 10.3913,-3.02117441 33.1229,-2.9883639 47.1435,0.068047 36.0663,7.8622105 56.1782,22.9396845 65.1987,48.8779975 8.4738,24.366462 18.3333,78.441809 26.3968,144.775239 8.1593,67.12254 18.6987,150.17034 25.5719,201.5 2.4671,18.425 6.5046,49.7 8.9723,69.5 2.4677,19.8 7.1655,56.475 10.4395,81.5 3.2741,25.025 7.7816,59.5625 10.0166,76.75 2.2351,17.1875 5.8952,45.3125 8.1336,62.5 2.2384,17.1875 6.9734,53.75 10.5222,81.25 8.301,64.32535 16.8819,127.59868 29.9032,220.5 18.9615,135.2824 59.9482,433.0743 69.0929,502 0.8392,6.325 5.5262,40.525 10.4156,76 4.8894,35.475 10.926,79.8 13.4146,98.5 27.3559,205.5581 40.102,303.4393 51.0463,392 3.6024,29.15 8.3306,66.95 10.5072,84 2.1766,17.05 6.4316,51.025 9.4554,75.5 3.0239,24.475 7.153,57.775 9.1759,74 3.0528,24.4859 3.6887,32.8144 3.7411,49 0.061,18.8159 -0.071,20.149 -3.7515,38 -6.7502,32.7368 -14.6849,52.1708 -31.508,77.1705 -32.0115,47.5701 -67.6813,72.8278 -116.3662,82.3985 -7.065,1.3889 -22.9554,1.7327 -113.2185,2.4493 -57.75,0.4584 -137.625,1.3113 -177.5,1.8951 -39.875,0.5839 -113.225,1.499 -163,2.0337 -49.775,0.5347 -104.45,1.2315 -121.5,1.5483 -17.05,0.3169 -100.525,1.2229 -185.5,2.0134 -84.975,0.7905 -196.125,1.9218 -247,2.5141 -121.33153,1.4124 -182.25027,1.6484 -189.53711,0.7345 z M 356.5,2515.0038 c 44.55,-0.5162 129.375,-1.413 188.5,-1.993 390.34915,-3.8291 544.4466,-5.5549 720.625,-8.0704 l 76.875,-1.0976 9.5,-2.5665 c 12.9413,-3.4962 31.7804,-11.08 48,-19.3226 45.9722,-23.3624 75.1749,-53.1659 86.9426,-88.7312 8.0464,-24.3185 8.0328,-47.3548 -0.046,-76.7225 -3.031,-11.0188 -10.4078,-27.6685 -12.5237,-28.2662 -0.7983,-0.2255 -1.2831,5.8856 -1.6638,20.974 -0.5583,22.1259 -1.7928,30.3325 -6.6529,44.2266 -4.6833,13.3887 -16.5344,30.8414 -25.5798,37.6708 -6.9459,5.2442 -20.3313,11.6607 -29.4692,14.1265 -10.8355,2.9238 -41.8439,3.6198 -58.4269,1.3114 -33.0533,-4.6011 -55.9524,-18.2141 -64.9057,-38.5849 -6.6767,-15.1913 -12.6847,-49.841 -19.6729,-113.4582 -1.1479,-10.45 -2.9585,-25.975 -4.0237,-34.5 -1.0652,-8.525 -2.8576,-24.05 -3.9832,-34.5 -1.1256,-10.45 -3.3754,-30.475 -4.9995,-44.5 -3.9606,-34.2011 -9.5914,-85.0738 -12.0645,-109 -1.1086,-10.725 -4.9022,-45.375 -8.4303,-77 -3.5281,-31.625 -7.5728,-68.975 -8.9882,-83 -1.4155,-14.025 -5.4684,-52.725 -9.0066,-86 -3.5381,-33.275 -7.3633,-70.4 -8.5004,-82.5 -1.1371,-12.1 -3.6162,-36.4 -5.5092,-54 -1.893,-17.6 -5.9393,-56.75 -8.9918,-87 -3.0526,-30.25 -8.0223,-78.5624 -11.044,-107.3609 -3.0216,-28.7985 -9.084,-88.4235 -13.4719,-132.5 -4.388,-44.0765 -10.9083,-108.4891 -14.4896,-143.1391 -3.5813,-34.65 -7.8741,-77.175 -9.5396,-94.5 -1.6654,-17.325 -5.701,-58.5 -8.9679,-91.5 -3.2669,-33 -7.3103,-74.4 -8.9854,-92 -1.6751,-17.6 -3.4776,-35.6 -4.0056,-40 -0.528,-4.4 -3.6758,-34.325 -6.995,-66.5 -6.3051,-61.11792 -13.9386,-132.98297 -21.5096,-202.5 -2.4559,-22.55 -6.284,-58.55 -8.5069,-80 -2.223,-21.45 -5.8295,-54.975 -8.0145,-74.5 -8.6489,-77.28517 -27.4619,-260.12229 -29.9939,-291.5 -0.6214,-7.7 -1.5293,-14.41052 -2.0176,-14.91226 -0.8258,-0.84853 -49.26005,-0.4861 -321.9633,2.40918 -47.575,0.50511 -138.025,1.40876 -201,2.00812 -205.52011,1.95602 -266.19089,2.78471 -266.98093,3.64663 -1.47128,1.60513 -1.54093,786.66208 -0.10583,1192.84833 1.1679,330.558 1.19427,438.3667 0.1519,621 -1.75936,308.2554 -2.5425,377.0674 -4.46129,392 -3.59617,27.9865 -5.65357,34.6914 -13.73488,44.7609 -17.20049,21.4322 -51.40417,33.8617 -93.86897,34.1116 -25.35646,0.1492 -33.67209,-2.6023 -50.5,-16.7097 -24.591711,-20.616 -36.446577,-45.9409 -39.046472,-83.4128 -0.391144,-5.6375 -1.087368,-10.25 -1.547165,-10.25 -2.043027,0 -7.163994,14.3717 -9.417257,26.4289 -8.422434,45.0687 1.704982,82.6555 30.393466,112.8022 14.28318,15.0092 27.714348,24.602 50.180358,35.8398 25.16792,12.5893 48.33376,20.4234 73.43707,24.8346 13.35027,2.346 37.14072,2.5103 159,1.0983 z M 176.10814,2395.7326 c 14.4624,-4.1421 31.15886,-17.5213 36.54354,-29.2829 4.80434,-10.4941 3.05376,-25.8421 -4.87032,-42.6997 -2.26216,-4.8125 -4.68582,-8.75 -5.38592,-8.75 -0.75971,0 -1.53766,1.915 -1.9296,4.75 -2.51444,18.1871 -8.96434,30.1449 -21.41226,39.6971 -7.63477,5.8587 -10.81772,7.3416 -19.70235,9.1789 -15.12922,3.1288 -27.67331,-0.2296 -37.19812,-9.9589 l -4.34688,-4.4402 3.53366,-12.3635 c 5.78248,-20.2315 5.75074,-21.1816 -0.6186,-18.5203 -8.67508,3.6247 -13.66467,11.3736 -15.852,24.6184 -1.39303,8.4351 -0.3499,17.3868 3.32901,28.5682 1.79121,5.444 3.39613,8.0864 7.32955,12.0675 7.98182,8.0786 17.28939,10.4846 38.47215,9.9448 10.60415,-0.2702 15.34651,-0.8728 22.10814,-2.8094 z m 1221.11726,-15.188 c 10.8158,-2.7437 16.0944,-5.1305 21.1357,-9.5568 4.3786,-3.8445 6.3835,-8.1491 8.1879,-17.5802 4.1262,-21.5656 -1.8723,-40.8705 -14.7592,-47.4992 -4.1251,-2.1219 -6.3653,-2.4043 -7.2837,-0.9183 -0.5817,0.9413 3.6657,18.8968 6.9637,29.4381 l 1.5418,4.9283 -4.8441,4.6691 c -6.5519,6.3152 -14.9326,10.301 -22.6991,10.7955 -7.6678,0.4883 -20.2944,-2.1769 -26.9586,-5.6903 -7.6845,-4.0513 -18.6485,-15.4337 -22.2805,-23.1308 -2.807,-5.9489 -6.2293,-19.0786 -6.2293,-23.8988 0,-3.8483 -1.9569,-3.1192 -4.3257,1.6118 -8.9631,17.9003 -11.2503,39.4702 -5.3973,50.9006 5.3875,10.5214 23.7533,24.4606 35.5808,27.005 3.1032,0.6676 11.5025,1.2515 18.6651,1.2976 10.7245,0.069 14.7313,-0.3496 22.7025,-2.3716 z M 149.96712,2354.3742 c 4.08468,-3.437 7.0353,-9.3543 7.02311,-14.0844 -0.0134,-5.1892 -3.91474,-13.1383 -8.36657,-17.0471 -5.39009,-4.7325 -7.37113,-4.3617 -8.05286,1.5073 -0.30346,2.6125 -1.51965,8.575 -2.70264,13.25 -3.23709,12.7925 -3.12109,13.9788 1.63184,16.6875 5.14395,2.9315 6.66496,2.886 10.46712,-0.3133 z M 1392.75,2339.011 c 1.7875,-1.0899 3.25,-2.4314 3.25,-2.9812 0,-0.5498 -1.1043,-4.8104 -2.4541,-9.4681 -1.3497,-4.6577 -2.7618,-11.8645 -3.1379,-16.0151 -0.6174,-6.8137 -0.889,-7.5432 -2.7959,-7.5112 -5.6047,0.094 -11.7564,7.5259 -13.6065,16.4377 -0.9086,4.3765 -0.8333,6.0035 0.416,8.9934 2.1119,5.0545 5.1277,8.7202 8.8717,10.7835 4.0494,2.2316 5.4631,2.1959 9.4567,-0.239 z M 181.70469,2327.25 c 0.43742,-2.0625 0.73875,-11.5365 0.66962,-21.0532 -0.14797,-20.3694 0.12776,-19.7916 -12.17111,-25.5018 -18.03919,-8.3753 -49.16633,-9.9236 -73.869331,-3.6743 C 85.160858,2279.8472 85,2280.1324 85,2297.1108 c 0,9.0859 0.365282,13.8892 1.05625,13.8892 0.580938,0 3.277589,-2.1866 5.992559,-4.8591 9.580591,-9.4306 24.948681,-14.657 40.968491,-13.9324 16.56997,0.7494 29.12794,9.6522 40.25981,28.5415 3.3223,5.6375 6.39868,10.25 6.8364,10.25 0.43773,0 1.15375,-1.6875 1.59118,-3.75 z m 1175.04701,-22.5 c 8.1735,-16.3903 17.8213,-25.5961 30.7073,-29.3004 4.6528,-1.3375 8.2695,-1.5932 16.5,-1.1662 15.6989,0.8145 24.6402,4.3312 34.2027,13.4522 3.5275,3.3647 6.1812,5.1705 6.9237,4.7116 0.9002,-0.5564 1.0328,-4.3659 0.5255,-15.1017 -0.3731,-7.8968 -0.9279,-15.0079 -1.2328,-15.8026 -1.4704,-3.8319 -15.9183,-6.5449 -34.8118,-6.537 -22.0087,0.01 -37.524,2.9231 -50.5646,9.4963 -10.7532,5.4201 -10.3935,4.4808 -10.4516,27.2974 -0.048,18.8812 0.3687,23.2004 2.2386,23.2004 0.4684,0 3.1517,-4.6125 5.963,-10.25 z M 234.50737,2293.9564 c 0.37574,-2.224 0.17824,-32.0365 -0.4389,-66.25 -2.25931,-125.2547 -3.17957,-298.1816 -3.74224,-703.2064 -0.62497,-449.8785 -0.28675,-530.18409 4.71712,-1120 0.60193,-70.95 1.17591,-166.125 1.27553,-211.5 0.16707,-76.09962 0.0406,-83.19822 -1.63058,-91.5 C 230.58628,81.122287 221.47542,55.111525 215.29798,46.142145 208.45039,36.199756 195.34554,28.4733 180.21212,25.455966 167.41619,22.904685 140.02924,23.772274 130.5,27.030791 110.05391,34.022321 95.110908,51.912227 86.142659,80.135827 79.786045,100.14046 79.899562,97.917205 76.524994,268.5 c -0.79427,40.15 -1.703261,79.3 -2.01998,87 -0.316718,7.7 -1.458973,58.325 -2.538345,112.5 -1.079371,54.175 -2.398892,117.625 -2.932269,141 -0.533377,23.375 -1.434753,65.225 -2.003058,93 -0.568305,27.775 -1.492682,69.625 -2.05417,93 -0.561489,23.375 -1.684898,78.05 -2.496465,121.5 -0.811566,43.45 -1.935409,94.075 -2.497428,112.5 -0.562019,18.425 -2.135183,74.9 -3.495921,125.5 -1.360738,50.6 -3.358286,123.725 -4.438995,162.5 -1.08071,38.775 -2.451091,89.175 -3.045291,112 -0.594201,22.825 -1.509122,56.35 -2.033159,74.5 -1.916701,66.3849 -2.969762,106.3594 -4.452026,169 -0.832937,35.2 -2.197696,88.75 -3.032799,119 -10.444981,378.3497 -13.292633,495.5 -12.044451,495.5 0.411718,0 3.892537,-3.3665 7.735151,-7.4812 15.813318,-16.9327 36.459097,-28.2771 61.324212,-33.6963 12.77605,-2.7844 39.6271,-3.5281 53.07339,-1.4699 17.9008,2.74 36.74987,10.0586 51.91767,20.1582 8.16132,5.4343 21.16926,18.5488 26.52185,26.7392 2.4262,3.7125 4.72628,6.75 5.11128,6.75 0.38501,0 1.00744,-1.8196 1.38318,-4.0436 z m 1064.57893,-12.167 c 7.3072,-12.4321 22.0529,-27.7766 34.9326,-36.351 25.1195,-16.7227 50.7692,-23.1781 84.6088,-21.294 27.7875,1.5471 52.7836,12.0186 72.1334,30.2183 2.8936,2.7216 5.5742,4.6353 5.9568,4.2527 0.3827,-0.3827 -0.046,-6.4152 -0.9536,-13.4056 -2.6904,-20.7319 -8.4337,-63.7766 -14.7717,-110.7098 -3.268,-24.2 -7.0983,-53.225 -8.5118,-64.5 -1.4134,-11.275 -3.2343,-25.225 -4.0464,-31 -0.8122,-5.775 -5.7579,-43.125 -10.9905,-83 -13.6324,-103.8849 -16.6807,-127.2523 -22.894,-175.5 -3.0456,-23.65 -8.255,-63.475 -11.5763,-88.5 -3.3213,-25.025 -8.0542,-61.25 -10.5174,-80.5 -2.4633,-19.25 -5.8148,-44.675 -7.4478,-56.5 -3.2656,-23.6465 -13.4661,-101.7451 -17.5019,-134 -1.4107,-11.275 -4.5612,-35.35 -7.0009,-53.5 -2.4398,-18.15 -8.5154,-64.725 -13.5014,-103.5 -4.986,-38.775 -11.2851,-87.15 -13.998,-107.5 -2.7128,-20.35 -8.3406,-63.775 -12.5061,-96.5 -4.1655,-32.725 -12.4928,-97.525 -18.5051,-144 -6.0122,-46.475 -14.3074,-111.05 -18.4336,-143.5 -4.1262,-32.45 -9.7834,-76.55 -12.5715,-98 -2.7881,-21.45 -8.6228,-67.575 -12.9659,-102.5 -4.3431,-34.925 -11.9688,-95.675 -16.9459,-135 -4.9772,-39.325 -15.5816,-124.6 -23.5653,-189.5 -7.9838,-64.9 -14.7089,-118.9 -14.9446,-120 -0.2358,-1.1 -1.1693,-8.75 -2.0744,-17 -3.8054,-34.685132 -19.9693,-66.309587 -41.1241,-80.458773 -12.9974,-8.693175 -27.2177,-11.43255 -47.2551,-9.103088 -28.6089,3.325967 -46.5775,12.990003 -55.4046,29.798294 -5.1163,9.742185 -10.5506,32.435615 -12.6351,52.763567 -1.696,16.53967 -1.1119,22.33915 32.4323,322 5.1717,46.2 20.1987,180.75 33.3934,299 13.1946,118.25 24.6759,220.85 25.5139,228 0.8379,7.15 5.5989,51.925 10.5799,99.5 4.9809,47.575 10.3833,98.65 12.0052,113.5 1.6219,14.85 3.8765,36 5.0101,47 1.1337,11 3.8276,36.2 5.9865,56 2.1589,19.8 5.0849,47.475 6.5021,61.5 1.4172,14.025 3.4552,33.2206 4.5289,42.6569 1.0737,9.4363 3.7529,35.3113 5.9538,57.5 2.2009,22.1887 6.4799,63.9681 9.5088,92.8431 3.0288,28.875 8.6645,83.1 12.5236,120.5 3.8591,37.4 8.3512,80.6 9.9826,96 1.6313,15.4 3.4113,32.725 3.9555,38.5 0.5441,5.775 4.3774,44.7 8.5182,86.5 17.9553,181.2495 20.7893,210.5528 28.4818,294.5 11.0451,120.5337 12.2588,132 13.9727,132 0.4116,0 3.1846,-4.1448 6.1621,-9.2106 z"
       style="fill:#4f4f4f" />
    <path
       id="path1470"
       d="m 181.90194,2551.5686 c -0.23727,-0.2373 -4.69977,-1.3079 -9.91667,-2.3791 C 137.72569,2542.1547 87.078499,2511.8734 52.916853,2478 34.158132,2459.3996 22.488278,2442.712 15.662351,2424.7272 5.8948076,2398.9918 2.5110964,2383.7947 1.0278719,2359 c -1.03504221,-17.3025 0.7441272,-129.3358 4.4466037,-280 0.8447434,-34.375 2.2205792,-90.4 3.0574127,-124.5 1.9519897,-79.5413 3.1370617,-122.1439 4.9514047,-178 1.951978,-60.0933 3.187823,-101.3339 5.543839,-185 4.950138,-175.7878 7.923582,-275.7195 8.450354,-284 0.314899,-4.95 1.677689,-46.125 3.028421,-91.5 1.350732,-45.375 2.915521,-93.3 3.477309,-106.5 0.561788,-13.2 1.911282,-52.125 2.998876,-86.5 1.087594,-34.375 2.654172,-80.275 3.481285,-102 0.827112,-21.725 1.96602,-59.525 2.530906,-84 0.996606,-43.18023 4.849655,-197.76812 6.978903,-280 1.955426,-75.51882 3.013821,-118.37686 4.050041,-164 1.186369,-52.23392 3.537537,-145.7287 5.00437,-199 1.514951,-55.01879 5.338671,-103.532638 9.994569,-126.807131 6.615809,-33.07195 32.492674,-54.04142 76.175144,-61.7289691 10.75592,-1.8929027 27.72711,-1.8676923 36.98731,0.054944 8.66699,1.7994706 21.72771,7.8158721 30.39773,14.0026661 16.28769,11.622655 26.88252,30.130143 34.53843,60.333137 C 249.89395,90.794993 253,110.60945 253,117.36009 c 0,1.79171 0.57461,4.04348 1.27691,5.00393 1.20618,1.64954 4.84841,1.68763 65.75,0.68755 35.4602,-0.5823 102.49809,-1.50907 148.97309,-2.05949 93.4412,-1.10667 198.94424,-2.47668 305.5,-3.96709 38.5,-0.5385 115,-1.50151 170,-2.14002 55,-0.63851 100.5014,-1.55322 101.1142,-2.03268 0.6128,-0.47946 1.4363,-5.70487 1.8301,-11.61202 1.495,-22.427556 7.8009,-47.316436 15.2626,-60.24027 5.4056,-9.362589 20.7767,-24.364584 30.6749,-29.938218 12.9637,-7.2998831 21.495,-9.4496291 39.1182,-9.8571453 15.7838,-0.36498265 19.5774,0.1539945 39.3381,5.3815909 17.2826,4.5720584 30.2935,12.3754044 40.4257,24.2456774 9.8344,11.521203 14.936,26.138079 22.7242,65.107076 5.8954,29.498309 13.4386,80.387399 18.0188,121.561019 1.6889,15.18242 19.642,156.04082 23.0056,180.5 1.6262,11.825 4.326,32.75 5.9996,46.5 2.8552,23.45785 6.1377,48.80938 19.4869,150.5 2.9963,22.825 6.8214,52.525 8.5002,66 1.6787,13.475 4.5961,35.975 6.483,50 1.887,14.025 5.2651,39.9 7.5069,57.5 6.5248,51.2234 18.4433,139.48491 27.0073,200 4.3587,30.8 10.2089,72.65 13.0003,93 2.7915,20.35 7.5158,54.55 10.4985,76 14.5976,104.9771 19.3776,139.6451 30.5404,221.5 6.638,48.675 14.2727,104.925 16.966,125 2.6933,20.075 8.7221,64.175 13.3973,98 4.6752,33.825 10.3152,75.225 12.5332,92 2.2181,16.775 7.4077,55.925 11.5327,87 19.5067,146.9545 33.5087,255.6 44.0118,341.5 1.8829,15.4 7.0135,56.575 11.4012,91.5 4.3877,34.925 9.3621,75.2 11.0542,89.5 1.6921,14.3 3.5653,29.375 4.1628,33.5 0.607,4.191 0.9283,16.1034 0.7283,27 -0.3287,17.9021 -0.6613,20.934 -4.0595,37 -7.4739,35.3354 -18.1737,58.833 -39.8871,87.5954 -31.2442,41.3871 -71.6866,65.8637 -116.2714,70.3697 -5.5578,0.5617 -63.88,1.4771 -129.605,2.0341 -65.725,0.557 -154.15,1.4439 -196.5,1.9708 -42.35,0.5268 -114.575,1.4293 -160.5,2.0055 -152.01678,1.9071 -249.13059,2.9659 -370.5,4.0394 -66,0.5837 -143.625,1.4958 -172.5,2.0269 -53.01723,0.975 -158.30122,1.3237 -159.09806,0.5268 z M 399,2515.0126 c 55.825,-0.5271 145.15,-1.4314 198.5,-2.0094 102.57817,-1.1114 224.28945,-2.3742 386.5,-4.0099 98.8327,-0.9967 195.8434,-2.2687 303,-3.973 l 57.5,-0.9145 9,-2.6069 c 26.621,-7.7108 59.9923,-24.3215 82.6562,-41.1426 33.9253,-25.1792 52.8567,-56.4542 56.9097,-94.0161 1.3546,-12.554 0.8259,-20.156 -2.5695,-36.9418 -4.2333,-20.9281 -14.1093,-45.1189 -17.1703,-42.0578 -0.2975,0.2975 -0.4725,6.1828 -0.389,13.0785 0.2806,23.1561 -3.3292,44.6678 -9.9432,59.2547 -4.5176,9.9632 -13.3173,22.5461 -19.9909,28.5854 -8.7222,7.8931 -23.3467,14.6827 -38.503,17.8755 -9.2309,1.9446 -43.7293,1.6471 -55.5,-0.4787 -22.9839,-4.1507 -38.2939,-10.9826 -49.6187,-22.1415 -8.8007,-8.6718 -11.5974,-14.0944 -15.9343,-30.8957 -6.4585,-25.0203 -8.6186,-40.9064 -23.9482,-176.1188 -8.3807,-73.9199 -11.7185,-103.9306 -15.0705,-135.5 -1.3724,-12.925 -5.3887,-49.375 -8.9252,-81 -3.5365,-31.625 -7.8106,-71.225 -9.498,-88 -1.6874,-16.775 -5.7387,-55.475 -9.0028,-86 -3.2642,-30.525 -7.0825,-67.65 -8.4851,-82.5 -1.4026,-14.85 -4.1069,-41.4 -6.0094,-59 -1.9025,-17.6 -5.7309,-54.5 -8.5075,-82 -2.7765,-27.5 -7.7341,-75.7204 -11.0168,-107.1565 -3.2828,-31.4361 -9.5686,-93.3111 -13.9687,-137.5 -4.4,-44.1889 -10.9091,-108.4685 -14.4646,-142.8435 -3.5556,-34.375 -7.824,-76.675 -9.4853,-94 -13.2526,-138.20034 -28.65,-290.10816 -40.5442,-400 -5.9264,-54.75503 -9.3421,-86.71266 -16.0322,-150 -3.0524,-28.875 -7.5456,-70.5 -9.985,-92.5 -2.4394,-22 -7.8274,-72.625 -11.9735,-112.5 -4.1461,-39.875 -8.8977,-85.55 -10.5593,-101.5 -1.6615,-15.95 -4.178,-42.5 -5.5923,-59 -2.9507,-34.42522 -2.9071,-34.10518 -4.7356,-34.80684 -1.3029,-0.49997 -47.48561,-0.10363 -266.6428,2.28837 -93.78146,1.02358 -184.91214,1.93764 -407,4.08232 -63.525,0.61345 -115.95,1.48684 -116.5,1.94088 -1.24286,1.02599 -1.16219,902.71747 0.11532,1288.99527 1.24071,375.1529 -0.74764,868.1561 -3.65403,906 -1.76561,22.9898 -4.5836,38.5094 -8.44265,46.4962 -9.90614,20.5022 -33.3997,34.4275 -69.25688,41.0505 -13.62128,2.5159 -42.22668,3.1068 -51.41707,1.0622 -16.80021,-3.7377 -32.561638,-15.0543 -46.067488,-33.076 -13.417991,-17.9045 -20.042068,-37.79 -21.636303,-64.9525 -0.759968,-12.9483 -1.9934,-14.3286 -5.655704,-6.329 -7.831051,17.1052 -11.469259,49.9648 -7.940958,71.7211 6.896258,42.524 34.492595,75.8979 82.309013,99.5415 29.1279,14.4027 52.4311,21.7125 85.64675,26.8656 1.65,0.2559 22.125,0.2687 45.5,0.028 23.375,-0.2403 88.175,-0.8682 144,-1.3954 z M 174.53157,2396.5219 c 7.87154,-1.993 11.43802,-3.5228 16.95474,-7.2729 8.96408,-6.0934 17.2116,-14.466 21.0145,-21.3332 2.80026,-5.0566 2.99239,-6.0791 2.89672,-15.4158 -0.11509,-11.2305 -2.79782,-21.1458 -8.65808,-32 -4.2206,-7.8173 -6.00278,-7.8272 -6.97564,-0.039 -1.04002,8.3259 -3.4133,16.0439 -7.02905,22.8587 -3.82018,7.2001 -15.22963,18.0539 -22.51212,21.4157 -6.63645,3.0636 -20.31269,5.549 -26.22264,4.7655 -8.95403,-1.187 -25,-11.1348 -25,-15.4989 0,-1.0132 1.575,-7.3141 3.5,-14.0021 4.24913,-14.7626 4.45982,-18 1.17144,-18 -3.66901,0 -11.46153,5.7857 -14.28767,10.6081 -6.30571,10.7599 -7.07739,27.7615 -1.9468,42.8919 3.06321,9.0336 6.05816,13.4936 11.39394,16.9675 11.74242,7.6451 34.86979,9.3285 55.70066,4.0544 z m 1216.25863,-14.0416 c 29.5125,-5.5984 37.905,-15.6756 37.0445,-44.4803 -0.323,-10.8108 -0.5612,-11.9562 -3.974,-19.1113 -3.7957,-7.958 -7.2934,-11.5003 -14.2085,-14.3896 -2.0572,-0.8595 -4.2208,-1.2657 -4.8081,-0.9028 -1.5637,0.9665 -0.3635,8.1627 3.7366,22.4044 4.0943,14.2214 4.0301,14.5973 -3.4647,20.3129 -7.4968,5.7171 -13.6016,7.9867 -21.616,8.036 -15.3679,0.095 -27.5628,-5.3024 -38.791,-17.1676 -8.26,-8.7286 -11.388,-16.5143 -14.2352,-35.432 -0.3104,-2.0625 -1.0233,-3.75 -1.5842,-3.75 -1.4875,0 -7.4626,13.4541 -10.0391,22.605 -1.559,5.537 -2.2387,10.7452 -2.2758,17.4381 -0.049,8.8148 0.1969,10.0506 3.2209,16.1932 6.1532,12.4991 24.081,25.6603 38.5222,28.2802 9.8769,1.7919 22.9123,1.7773 32.4724,-0.036 z M 153.47026,2351.2221 c 4.28966,-6.4859 4.89263,-9.462 3.13911,-15.4939 -1.96639,-6.7641 -6.78372,-13.4776 -10.91868,-15.2163 -4.31878,-1.816 -5.2907,-0.7202 -6.06505,6.8378 -0.35684,3.483 -1.74021,10.0867 -3.07416,14.675 -1.62608,5.5931 -2.12799,8.8981 -1.523,10.0285 0.80872,1.5111 4.8862,3.8691 8.97152,5.1881 2.42297,0.7823 6.82045,-2.0127 9.47026,-6.0192 z m 1239.67714,-11.7983 c 2.7281,-1.4108 2.9999,-1.962 2.5886,-5.25 -0.2527,-2.0206 -1.4217,-7.2333 -2.5977,-11.5838 -1.1761,-4.3504 -2.1383,-10.0019 -2.1383,-12.5588 0,-2.5569 -0.6323,-5.5137 -1.4051,-6.5705 -1.3404,-1.8331 -1.5661,-1.8449 -4.9006,-0.2547 -6.3877,3.046 -11.5609,12.0814 -11.6504,20.3482 -0.03,2.7988 0.843,5.4528 2.8203,8.5706 5.3722,8.4711 10.681,10.7131 17.2832,7.299 z M 182.31811,2325.9173 c 0.45202,-2.9795 0.66392,-12.7312 0.47089,-21.6705 -0.40314,-18.6691 -0.0913,-17.9771 -10.44682,-23.1848 -10.49532,-5.278 -19.96659,-7.2507 -37.45817,-7.802 -15.85217,-0.4996 -25.87111,0.3485 -38.765992,3.2813 -11.396771,2.5922 -11.340353,2.4956 -11.490455,19.6761 -0.07016,8.0304 0.196162,14.9279 0.591825,15.3277 0.395664,0.3999 3.413435,-1.7672 6.706158,-4.8157 10.171004,-9.4165 23.003224,-14.095 38.574454,-14.0639 6.88904,0.014 10.34703,0.5405 14.74302,2.2455 11.69159,4.5347 21.56144,14.3061 29.54777,29.253 4.38597,8.2087 4.22966,7.9958 5.54898,7.5561 0.63607,-0.212 1.52632,-2.8233 1.97834,-5.8028 z M 1356.9737,2305.25 c 4.3296,-8.7268 6.6689,-12.0781 12.4298,-17.8067 12.3476,-12.2783 23.632,-15.4164 43.0157,-11.9624 10.4078,1.8546 19.4112,6.393 26.2505,13.2323 3.7515,3.7515 5.8346,5.1825 6.5306,4.4865 0.6394,-0.6394 0.8845,-6.6592 0.6547,-16.0813 -0.4282,-17.5552 -0.3584,-17.4174 -10.203,-20.1472 -14.1233,-3.9163 -41.3208,-3.4473 -60.3734,1.041 -8.5305,2.0095 -22.8178,8.5246 -25.3344,11.5525 -1.1018,1.3258 -1.5243,5.7837 -1.782,18.8059 -0.3761,19.0038 0.32,27.6294 2.2299,27.6294 0.6865,0 3.6482,-4.8375 6.5816,-10.75 z M 234.16751,2205.2712 c -2.77787,-214.2208 -3.35125,-394.2102 -2.84084,-891.7712 0.28548,-278.3 0.96804,-547.175 1.5168,-597.5 0.54875,-50.325 1.49646,-163.725 2.10602,-252 0.60956,-88.275 1.48676,-197.175 1.94932,-242 0.87266,-84.56407 0.38965,-109.57811 -2.39437,-124 C 232.65101,88.398811 223.04505,58.99582 219.43311,51.868 215.34513,43.80075 206.76836,35.508744 197.94326,31.091643 185.7334,24.980416 177.61782,23.488467 157,23.564733 140.80493,23.624638 138.89761,23.828901 131.42159,26.304034 107.92132,34.084412 92.447126,53.899098 83.358416,87.848883 81.00517,96.63915 80.656379,100.5327 79.448063,131.5 c -0.729657,18.7 -2.026151,68.65 -2.881099,111 -0.854947,42.35 -2.012186,93.2 -2.571641,113 -0.559455,19.8 -1.685712,70.875 -2.502794,113.5 -0.817081,42.625 -1.926917,94.825 -2.466302,116 -0.539384,21.175 -1.448947,62.8 -2.02125,92.5 -0.572304,29.7 -1.488185,72.45 -2.035293,95 -0.547108,22.55 -1.443231,64.4 -1.991384,93 -2.419924,126.25996 -2.962805,151.798 -3.496903,164.5 -0.312208,7.425 -1.676093,55.35 -3.030856,106.5 -1.354763,51.15 -3.344442,124.05 -4.421511,162 -1.077068,37.95 -2.214754,79.8 -2.528191,93 -0.313437,13.2 -1.00215,39.3 -1.530474,58 -3.778022,133.7228 -4.864079,174.6221 -7.501623,282.5 -1.77199,72.476 -5.062579,195.3009 -6.469999,241.5 -0.569681,18.7 -1.473181,52.9 -2.007778,76 -0.534597,23.1 -1.649813,66.75 -2.478258,97 -2.976485,108.684 -3.506416,139.9083 -2.392677,140.9801 0.731196,0.7036 1.869976,-0.066 3.671895,-2.4801 7.232609,-9.6915 22.004822,-21.3082 36.208075,-28.4734 18.013529,-9.0876 35.74163,-12.7827 61.5,-12.8189 13.67968,-0.019 18.95313,0.3954 27,2.1225 16.51116,3.5438 33.27357,10.5547 46.13122,19.2943 7.43505,5.0538 20.07193,17.7495 25.0197,25.1362 5.40852,8.0745 6.41447,9.0739 7.76949,7.7189 0.58283,-0.5828 0.48722,-35.6322 -0.2529,-92.7084 z m 1064.90829,77.6007 c 22.0076,-37.1793 62.2475,-58.8208 109.4504,-58.8637 31.3256,-0.029 57.9693,9.7089 80.6214,29.4645 5.9671,5.2041 8.8524,6.7081 8.8524,4.6143 0,-0.5021 -1.1356,-9.1646 -2.5235,-19.25 -1.388,-10.0853 -4.3222,-32.062 -6.5205,-48.837 -2.1983,-16.775 -5.5548,-41.75 -7.4588,-55.5 -1.9041,-13.75 -5.4682,-40.525 -7.9203,-59.5 -2.4521,-18.975 -7.4243,-57 -11.0494,-84.5 -16.9551,-128.6223 -19.9488,-151.4823 -26.4535,-202 -3.8243,-29.7 -10.1096,-77.85 -13.9674,-107 -3.8577,-29.15 -8.1716,-62.225 -9.5864,-73.5 -1.4148,-11.275 -4.1194,-31.75 -6.0104,-45.5 -4.1467,-30.1523 -14.2841,-107.6797 -18.5025,-141.5 -1.6808,-13.475 -4.8254,-37.55 -6.988,-53.5 -2.1627,-15.95 -5.3135,-39.8 -7.0019,-53 -7.0762,-55.325 -12.49,-97.0153 -19.0239,-146.5 -3.8126,-28.875 -10.5701,-81.075 -15.0165,-116 -4.4465,-34.925 -11.4374,-89.375 -15.5355,-121 -4.098,-31.625 -11.0657,-85.85 -15.4838,-120.5 -4.418,-34.65 -10.7243,-83.7 -14.0141,-109 -3.2897,-25.3 -9.997,-78.175 -14.9051,-117.5 -4.9081,-39.325 -12.9933,-103.675 -17.9672,-143 -4.9739,-39.325 -15.5742,-124.6 -23.5562,-189.5 -7.982,-64.9 -14.9451,-120.925 -15.4735,-124.5 -0.5285,-3.575 -1.6843,-12.575 -2.5686,-20 -4.7903,-40.2203 -27.0792,-74.788881 -54.2826,-84.188289 -6.0062,-2.075287 -8.429,-2.305546 -23.6904,-2.251432 -14.0789,0.04992 -18.5465,0.443105 -26,2.288191 -19.4791,4.821972 -33.7135,14.718767 -40.5136,28.168045 -3.9814,7.874392 -9.2215,28.490842 -11.6135,45.69162 -1.6843,12.110995 -1.6854,13.831625 -0.024,37.244735 0.9581,13.50092 5.3406,56.72213 9.7388,96.04713 4.3982,39.325 12.7113,113.8 18.4735,165.5 5.7623,51.7 11.6084,103.45 12.9913,115 1.3829,11.55 6.987,61.5 12.4535,111 15.3955,139.40686 30.4972,275.02775 35.4656,318.5 2.483,21.725 9.0195,82.475 14.5257,135 5.5061,52.525 12.0082,114.175 14.4491,137 2.4409,22.825 6.2755,58.825 8.5215,80 2.2459,21.175 6.0909,57.4 8.5444,80.5 2.4535,23.1 5.1536,49.2 6.0003,58 1.9651,20.4237 9.5017,93.4036 13.9931,135.5 1.9071,17.875 5.7278,54.55 8.4903,81.5 2.7626,26.95 6.818,66.325 9.012,87.5 3.6431,35.1598 16.1869,161.2061 22.491,226 1.418,14.575 4.3502,44.5 6.5158,66.5 2.1657,22 6.8677,71.725 10.4489,110.5 10.7949,116.8785 11.5719,125.0381 13.0935,137.5 1.7223,14.106 2.2008,16.5 3.2981,16.5 0.4495,0 3.2487,-4.1077 6.2204,-9.1281 z"
       style="fill:#2f2f2f" />
    <path
       id="path1468"
       d="m 183.42153,2551.127 c 0.29676,-0.4802 -2.12549,-1.1746 -5.38278,-1.5431 -19.33733,-2.1878 -48.49762,-15.1058 -77.79389,-34.4626 C 62.990802,2490.5065 36.015802,2463.5288 22.086391,2436.955 12.924569,2419.4765 3.1801039,2385.92 2.9337361,2371 2.8796802,2367.7264 2.644265,2367.0451 2.069919,2368.5 0.73995566,2371.8691 0.34266439,2348.1938 0.93785202,2301.038 1.2470334,2276.5421 1.725,2260.775 2,2266 c 0.275,5.225 0.8520228,-15.475 1.282273,-46 0.4302501,-30.525 1.4353473,-80.475 2.2335493,-111 0.798202,-30.525 1.911427,-77.1 2.4738334,-103.5 1.4204839,-66.6791 4.1798103,-167.2686 6.5012833,-237 0.823968,-24.75 2.62189,-85.725 3.995383,-135.5 1.373492,-49.775 2.952725,-104.225 3.509406,-121 0.556681,-16.775 1.906915,-62.675 3.000519,-102 1.093605,-39.325 2.447079,-82.75 3.007721,-96.5 0.560642,-13.75 2.132452,-61.675 3.492911,-106.5 1.360459,-44.825 2.941303,-92.525 3.512987,-106 0.571684,-13.475 2.156261,-58.475 3.521282,-100 1.365022,-41.525 2.918838,-88.1 3.452925,-103.5 0.534087,-15.4 1.439386,-47.8 2.011775,-72 0.884928,-37.41377 3.525156,-142.52897 8.012471,-319 0.559418,-22 1.456577,-59.8 1.993688,-84 C 55.653373,348.09625 58.571225,233.26889 60.037067,185 61.514547,136.34785 65.19121,90.856157 69.440964,68.644698 72.439908,52.970631 78.873241,41.204955 90.383338,30.343991 106.83874,14.816618 135.30038,4.9790254 163.65708,5.0173636 c 15.70584,0.021234 24.13092,1.6920178 34.78896,6.8990234 16.52914,8.075336 28.91245,20.121934 36.49326,35.500979 8.13571,16.504743 14.73042,41.622458 16.95063,64.560994 0.78573,8.11795 1.41921,10.78221 2.81213,11.82719 1.39839,1.04908 4.79799,1.21785 15.29794,0.75947 7.425,-0.32415 53.55,-1.02983 102.5,-1.56818 48.95,-0.53834 119.375,-1.44813 156.5,-2.02175 37.125,-0.57361 103.275,-1.47197 147,-1.99634 293.95581,-3.52532 369.9848,-4.63019 370.7423,-5.38774 0.3252,-0.32515 0.964,-5.87865 1.4197,-12.3411 1.6213,-22.995024 7.2619,-45.342834 14.9111,-59.078048 10.5081,-18.868648 34.2947,-36.1927801 53.2597,-38.7897182 3.1949,-0.4374896 4.3811,-0.948108 3.5,-1.5066447 -0.7575,-0.4801614 5.574,-0.8448736 14.6672,-0.8448736 8.8,0 15.443,0.3537582 14.7623,0.7861292 -0.718,0.4559813 2.2691,1.293166 7.1125,1.9934559 10.5869,1.5307028 28.3915,7.1937944 35.9315,11.4286494 11.5574,6.491261 21.0547,16.210644 27.1213,27.755293 10.3321,19.66208 21.5053,78.724157 32.5394,172.005847 3.7346,31.57139 17.7918,141.92419 23.5025,184.5 2.4345,18.15 5.3654,40.875 6.5131,50.5 1.978,16.58689 6.0514,48.04544 18.5163,143 2.9963,22.825 6.8252,52.525 8.5085,66 1.6834,13.475 4.4079,34.4 6.0545,46.5 1.6466,12.1 5.4669,41.35 8.4897,65 6.7936,53.15294 19.9232,150.55945 25.9332,192.39409 2.4743,17.22328 7.672,54.33051 11.5506,82.46051 3.8785,28.13 11.7813,85.1204 17.5618,126.6454 5.7805,41.525 12.4888,90.125 14.9074,108 2.4187,17.875 8.7157,64 13.9934,102.5 5.2777,38.5 11.5749,84.85 13.9937,103 2.4188,18.15 8.4492,62.25 13.4008,98 4.9516,35.75 11.0622,80.75 13.5791,100 2.5168,19.25 6.1212,46.475 8.0096,60.5 5.3264,39.5589 22.3742,169.5839 29.959,228.5 2.4783,19.25 7.6728,60.65 11.5435,92 3.8706,31.35 8.149,65.55 9.5074,76 3.985,30.655 10.3268,81.5427 14.5187,116.5 2.1435,17.875 4.5932,38.1116 5.4437,44.9701 0.8506,6.8586 1.5781,14.5086 1.6168,17 0.053,3.4498 0.2752,4.053 0.9297,2.5299 0.5166,-1.2023 0.8814,6.5753 0.9144,19.5 0.036,14.2261 -0.273,20.9925 -0.9144,20 -0.7428,-1.1494 -0.973,-0.7875 -0.9847,1.5483 -0.03,5.8784 -7.0334,37.3102 -10.602,47.5794 -6.7217,19.3429 -20.5357,43.6481 -35.4262,62.3313 -25.3366,31.7899 -53.7604,51.5564 -87.9871,61.188 -19.0876,5.3714 -21.2634,5.5035 -97.5,5.9196 -39.05,0.2131 -105.65,0.8576 -148,1.4323 -42.35,0.5746 -117.275,1.4972 -166.5,2.0501 -49.225,0.553 -122.35,1.4322 -162.5,1.954 -40.15,0.5217 -120.025,1.4087 -177.5,1.9711 -57.475,0.5625 -145.45,1.4704 -195.5,2.0177 -50.05,0.5472 -107.425,1.0904 -127.5,1.2071 -24.89151,0.1447 -32.20645,0.3995 -23,0.8011 7.425,0.3239 -15.21406,0.6814 -50.30902,0.7945 -36.15776,0.1164 -63.5752,-0.1728 -63.26945,-0.6675 z M 368.5,2515.9544 c 52.25,-0.531 140.225,-1.4133 195.5,-1.9607 391.83829,-3.8802 487.1237,-4.884 569,-5.9942 152.6861,-2.0703 208.6079,-3.0152 212,-3.5821 6.0338,-1.0085 24.746,-7.3851 36.8654,-12.5627 56.1039,-23.9683 92.7217,-57.6604 106.1149,-97.6366 7.9323,-23.6763 8.0506,-50.524 0.3401,-77.2181 -4.8271,-16.7117 -11.6638,-31 -14.8329,-31 -1.257,0 -1.4875,2.5758 -1.4875,16.6217 0,27.1703 -3.6555,45.2997 -12.5259,62.1215 -8.8029,16.6939 -17.6014,25.7154 -31.9741,32.7846 -15.6958,7.72 -21.5093,8.8088 -47.5,8.8964 -18.0116,0.061 -24.4948,-0.298 -32.5,-1.7978 -12.7439,-2.3877 -27.8926,-7.4399 -35.257,-11.7586 -8.1827,-4.7985 -18.3679,-15.1913 -22.0645,-22.5143 -5.7868,-11.4634 -11.3782,-37.6109 -16.1138,-75.3535 -4.1999,-33.4735 -16.5357,-140.6056 -21.5897,-187.5 -1.3633,-12.65 -3.593,-32.675 -4.9549,-44.5 -1.3618,-11.825 -3.1816,-28.475 -4.044,-37 -0.8623,-8.525 -4.4528,-41.375 -7.9788,-73 -3.526,-31.625 -7.5691,-68.975 -8.9845,-83 -1.4155,-14.025 -5.4633,-52.725 -8.9952,-86 -3.5318,-33.275 -7.3519,-70.4 -8.4889,-82.5 -1.1371,-12.1 -3.6214,-36.4 -5.5207,-54 -1.8992,-17.6 -5.9507,-56.75 -9.0032,-87 -3.0526,-30.25 -8.0049,-78.4 -11.0053,-107 -3.0003,-28.6 -9.0621,-88.225 -13.4707,-132.5 -4.4085,-44.275 -10.9462,-108.85 -14.5282,-143.5 -3.582,-34.65 -7.8751,-77.175 -9.5403,-94.5 -1.6652,-17.325 -5.6992,-58.5 -8.9644,-91.5 -3.2652,-33 -7.3089,-74.4 -8.986,-92 -1.677,-17.6 -3.4811,-35.6 -4.0091,-40 -0.528,-4.4 -4.3593,-40.85 -8.514,-81 -4.1547,-40.15 -8.6513,-82.9 -9.9924,-95 -1.3412,-12.1 -3.8182,-35.275 -5.5046,-51.5 -1.6864,-16.225 -4.1669,-39.175 -5.5123,-51 -1.3453,-11.825 -4.4889,-41.3 -6.9858,-65.5 -2.4968,-24.2 -6.3284,-59.975 -8.5147,-79.5 -4.0635,-36.29111 -12.8617,-119.29849 -17.4888,-165 -1.42,-14.025 -4.1326,-40.46338 -6.028,-58.75196 -1.8954,-18.28858 -4.3574,-43.88204 -5.471,-56.87436 -1.1137,-12.99232 -2.3137,-24.0898 -2.6668,-24.66105 -0.7055,-1.14146 -65.08434,-0.76304 -298.3224,1.75351 -197.27025,2.12847 -328.62324,3.41692 -414,4.06097 -40.975,0.3091 -75.89153,0.77402 -77.59228,1.03317 l -3.09228,0.47117 -0.69752,403.73427 c -0.43905,254.12973 -0.30558,469.50728 0.36019,581.23428 2.39054,401.1701 1.39025,997.7122 -1.96689,1173 -1.26403,65.9993 -3.45504,78.996 -15.9909,94.8551 -13.80971,17.4706 -43.50462,29.1422 -82.13302,32.2824 -30.98148,2.5185 -46.59816,-2.8713 -66.960329,-23.1103 -19.930664,-19.8101 -29.079587,-42.7159 -31.464754,-78.7772 -0.757709,-11.4558 -2.024044,-13.0011 -5.326525,-6.5 -9.493606,18.6886 -13.483754,58.4662 -8.200457,81.75 7.791933,34.3394 28.911598,62.3775 62.833385,83.4165 22.70895,14.0845 55.37895,27.2882 81.84796,33.079 19.71383,4.313 27.19153,4.8799 57.88342,4.3885 15.95,-0.2553 71.75,-0.8987 124,-1.4296 z M 176,2397.0192 c 14.73727,-4.0649 31.59176,-17.3779 37.66903,-29.754 2.48225,-5.055 2.81558,-6.8122 2.706,-14.2652 -0.0687,-4.675 -0.88317,-11.425 -1.80986,-15 -2.08202,-8.032 -9.93481,-24.5441 -12.0606,-25.3599 -1.78538,-0.6851 -3.49527,2.8009 -3.51935,7.175 -0.0248,4.5034 -2.84766,15.0133 -5.64272,21.0087 -3.18104,6.8232 -15.94996,19.8396 -22.63897,23.0777 -6.0073,2.9081 -19.97581,5.45 -26.34632,4.7944 -6.53973,-0.673 -15.25248,-4.9257 -20.93686,-10.2192 l -4.43031,-4.1257 1.52825,-4.9255 c 2.97242,-9.58 6.48171,-23.6757 6.48171,-26.035 0,-3.3428 -3.18664,-3.1249 -9.80464,0.6703 -6.58556,3.7766 -10.52502,9.6968 -12.63981,18.9948 -2.08294,9.158 -1.95958,17.0447 0.4116,26.316 4.00165,15.6463 8.11413,21.5967 17.98881,26.0281 8.07139,3.6223 14.49521,4.5094 30.54404,4.2181 11.02697,-0.2002 15.80506,-0.752 22.5,-2.5986 z m 1220.5813,-14.965 c 19.7485,-4.7491 27.7427,-11.6476 30.9298,-26.6906 4.0155,-18.953 -0.4341,-39.2088 -10.4215,-47.4413 -4.1522,-3.4226 -11.2586,-6.0539 -13.1661,-4.875 -1.6517,1.0208 -0.4507,7.857 4.2605,24.2503 3.5727,12.4321 3.4334,13.1253 -3.7305,18.5582 -5.9744,4.5309 -14.9787,8.0963 -20.4535,8.0988 -2.475,0 -8.55,-0.8922 -13.5,-1.9852 -10.3631,-2.2883 -16.0914,-5.715 -24.7787,-14.8227 -8.4873,-8.8981 -12.6224,-18.7153 -14.2976,-33.9441 -0.554,-5.036 -1.0163,-6.2379 -2.3082,-6 -2.243,0.4129 -7.4957,11.5476 -10.6733,22.6249 -2.3245,8.1036 -2.6085,10.623 -2.2518,19.9729 0.3314,8.6863 0.8397,11.526 2.7017,15.0916 7.0607,13.5213 27.1734,27.0557 43.1756,29.0541 10.0925,1.2604 24.7454,0.4572 34.5136,-1.8919 z M 150.84537,2355.4767 c 7.7318,-6.5059 9.22806,-17.9711 3.54493,-27.1634 -3.26935,-5.288 -8.45275,-9.3133 -11.99287,-9.3133 -2.44446,0 -2.49441,0.1448 -3.94184,11.4308 -0.3478,2.712 -1.51968,7.8036 -2.60416,11.3148 -2.71742,8.798 -2.26388,11.189 2.64857,13.9629 5.20825,2.9409 8.65167,2.8762 12.34537,-0.2318 z m 1242.18983,-14.9949 c 4.0573,-2.0981 4.469,-5.0113 1.9024,-13.4613 -1.2139,-3.9966 -2.7111,-11.3737 -3.3271,-16.3935 -0.9717,-7.9198 -1.3838,-9.1624 -3.1152,-9.3943 -5.2123,-0.6984 -13.4474,8.2306 -15.5062,16.8128 -1.5325,6.388 -0.7069,10.6635 3.0643,15.8695 5.3482,7.383 11.1013,9.6077 16.9818,6.5668 z M 182.68873,2328.25 c 0.4462,-2.6125 0.77881,-12.7261 0.73914,-22.4747 -0.065,-15.9757 -0.26037,-17.9327 -1.97977,-19.8327 -2.91127,-3.2169 -17.04801,-9.5627 -25.4481,-11.4234 -16.23043,-3.5951 -43.20476,-2.9491 -60.5,1.449 -11.45597,2.9131 -11.5,2.9942 -11.5,21.174 0,11.7403 0.293196,15.0331 1.37555,15.4484 0.79447,0.3049 3.645901,-1.7422 6.75,-4.846 12.57106,-12.5697 36.33237,-18.0929 52.87445,-12.2904 10.58532,3.7131 22.07605,15.4093 29.75926,30.2915 4.55738,8.8275 6.73219,9.5144 7.92947,2.5043 z M 1353,2315.7746 c 0,-0.5563 2.1375,-5.3406 4.75,-10.6318 6.2834,-12.7262 16.6975,-23.6994 25.75,-27.1329 17.8122,-6.7557 42.2015,-1.6629 55.0475,11.4947 2.9508,3.0225 5.8263,5.4954 6.3898,5.4954 0.5635,0 1.3243,-1.1943 1.6907,-2.654 0.7623,-3.0373 -0.1728,-28.9999 -1.1348,-31.5044 -3.0691,-7.9911 -51.2304,-9.4417 -75.4932,-2.2738 -6.7328,1.9891 -18.1818,7.8707 -20.6682,10.6178 -1.6575,1.8312 -1.8318,4.0924 -1.8318,23.7643 0,16.5627 0.3151,22.1205 1.3231,23.3359 1.3592,1.6388 4.1769,1.294 4.1769,-0.5112 z M 235.58675,2296.3893 c 0.37256,-1.986 0.15287,-39.6735 -0.48821,-83.75 -2.39607,-164.7401 -3.17989,-299.542 -3.74544,-644.1393 -0.66862,-407.4049 0.15689,-607.76685 4.69898,-1140.5 0.62603,-73.425 1.20791,-175.125 1.29307,-226 0.14454,-86.33832 0.0314,-93.13282 -1.69793,-102 C 233.35825,88.263482 222.81791,56.095905 219.26373,50 212.18294,37.855479 199.88137,29.209212 183.5,24.863142 172.9858,22.073665 146.2518,21.773629 135.7567,24.327318 108.34657,30.996804 88.996615,55.902442 81.144537,94.619498 78.903125,105.67146 78.152256,127.29327 75.505486,257 c -0.791235,38.775 -1.917644,88.05 -2.503132,109.5 -0.585487,21.45 -1.722187,73.2 -2.526,115 -0.803813,41.8 -1.899796,94.225 -2.435518,116.5 -0.535722,22.275 -1.446195,64.125 -2.023275,93 -0.577079,28.875 -1.492206,70.95 -2.033615,93.5 -0.541409,22.55 -1.447823,65.75 -2.014254,96 -1.888778,100.86939 -4.27817,194.7927 -9.972407,392 -1.095783,37.95 -2.439397,87.45 -2.98581,110 -1.065614,43.977 -2.435956,94.0065 -4.026433,147 -0.544729,18.15 -1.669311,60.225 -2.49907,93.5 -3.542991,142.081 -4.575226,182.4633 -6.45429,252.5 -1.09197,40.7 -2.451592,89.075 -3.021381,107.5 -0.56979,18.425 -1.475829,52.4 -2.013422,75.5 -0.537592,23.1 -1.680713,67.875 -2.540269,99.5 -2.052161,75.5036 -3.094398,127.0775 -2.611964,129.25 0.665749,2.998 2.759099,1.9477 6.976054,-3.5 5.143541,-6.6447 16.01393,-15.8814 25.856826,-21.9708 C 79.209109,2249.077 104.9802,2243.0901 134,2244.2808 c 15.21195,0.6241 25.1888,2.4377 37.83427,6.8774 24.1002,8.4612 44.00012,23.4146 56.13874,42.1843 2.36801,3.6616 4.89743,6.6575 5.62092,6.6575 0.72349,0 1.62026,-1.6248 1.99282,-3.6107 z M 1299.094,2284.2427 c 15.5447,-27.0489 42.2866,-46.9215 74.679,-55.4959 11.3624,-3.0077 12.4109,-3.1063 33.727,-3.1715 19.947,-0.061 22.8772,0.1532 31.3998,2.2971 20.3522,5.1197 36.8321,14.1542 53.0434,29.0791 3.584,3.2996 4.6859,3.8449 5.6982,2.8196 1.3073,-1.3242 1.4818,0.1006 -14.1773,-115.7711 -3.0103,-22.275 -7.4684,-55.8 -9.9068,-74.5 -13.8871,-106.5 -19.9539,-152.722 -23.035,-175.5 -1.8971,-14.025 -6.4086,-48.675 -10.0256,-77 -3.6171,-28.325 -9.2365,-71.525 -12.4878,-96 -3.2512,-24.475 -7.9716,-60.475 -10.4896,-80 -2.5181,-19.525 -6.3899,-49 -8.6041,-65.5 -5.967,-44.4659 -18.5072,-140.5184 -20.8889,-160 -1.143,-9.35 -3.854,-30.05 -6.0244,-46 -2.1704,-15.95 -8.0207,-60.725 -13.0008,-99.5 -4.9801,-38.775 -11.2786,-87.15 -13.9966,-107.5 -2.718,-20.35 -8.5802,-65.575 -13.0269,-100.5 -4.4468,-34.925 -11.4412,-89.375 -15.5433,-121 -4.102,-31.625 -11.2974,-87.65 -15.9898,-124.5 -4.6923,-36.85 -11.2203,-87.7 -14.5065,-113 -3.2863,-25.3 -9.7721,-76.375 -14.4129,-113.5 -4.6409,-37.125 -12.9545,-103.275 -18.4749,-147 -5.5203,-43.725 -16.5735,-132.47088 -24.5628,-197.21307 C 1218.0579,80.232632 1219.9857,94.025485 1215.458,81.017575 1204.479,49.475875 1187.992,29.748128 1166,21.837946 c -5.8463,-2.10281 -8.1092,-2.328503 -22.5,-2.244052 -18.0629,0.105999 -28.9041,2.018652 -41.7472,7.365257 -14.5649,6.063361 -25.4028,17.877301 -30.1309,32.844242 -3.3166,10.499033 -7.2334,29.477595 -8.6053,41.696607 -2.0105,17.90686 -1.9194,18.82215 32.0447,322 5.4837,48.95 20.7387,185.525 33.9,303.5 13.1613,117.975 24.6152,220.35 25.4532,227.5 0.8379,7.15 5.5989,51.925 10.5799,99.5 4.9809,47.575 10.3833,98.65 12.0052,113.5 1.6219,14.85 3.8765,36 5.0101,47 1.1337,11 3.8276,36.2 5.9865,56 2.1589,19.8 5.0849,47.475 6.5021,61.5 1.4172,14.025 3.4552,33.2206 4.5289,42.6569 1.0737,9.4363 3.7529,35.3113 5.9538,57.5 2.2009,22.1887 6.4799,63.9681 9.5088,92.8431 3.0288,28.875 8.6645,83.1 12.5236,120.5 3.8591,37.4 8.3512,80.6 9.9826,96 1.6313,15.4 3.4108,32.725 3.9544,38.5 0.5435,5.775 4.1356,42.225 7.9825,81 14.7211,148.3846 19.2208,194.7182 25.5414,263 11.5775,125.073 13.6195,146.3149 15.0854,156.9241 0.7922,5.7332 1.4403,10.8287 1.4403,11.3233 0,0.4946 0.7534,0.7538 1.6743,0.5759 0.9209,-0.1778 3.8098,-4.0391 6.4197,-8.5806 z"
       style="fill:#010101" />
  </g>
</svg>
